@RELATION stream1

@ATTRIBUTE a1 numeric
@ATTRIBUTE a2 numeric
@ATTRIBUTE a3 numeric
@ATTRIBUTE a4 numeric
@ATTRIBUTE class {0,1}

@DATA
0.92868,0.87973,0.89468,0.87434,0
0.48885,-0.71604,-0.036468,0.089139,1
0.0087224,0.99797,0.26095,0.81933,0
-0.58412,0.76071,0.41427,0.44684,0
0.52518,-0.93996,-0.36674,0.33422,1
-0.11074,0.38301,0.43834,0.55601,0
-0.092831,-0.36065,0.099492,0.04454,0
-0.41396,0.771,0.088792,0.40371,0
0.20607,0.10435,0.06116,0.82612,0
0.3385,-0.37541,0.77711,0.44363,1
-0.016897,0.93962,0.3541,0.53774,0
-0.05626,0.53544,0.64257,0.032101,0
0.63698,0.5788,0.56016,0.83591,1
0.72604,0.36333,0.87197,0.97929,1
-0.94355,0.18479,0.78962,0.14598,0
-0.46239,0.75382,0.26328,0.6273,0
0.13596,-0.58594,-0.20903,0.30108,1
-0.61102,0.83981,0.82405,0.98973,0
0.29501,0.73397,0.73235,0.90294,0
0.43922,-0.37177,0.035762,0.93788,1
-0.23653,0.46914,0.35282,0.70041,0
-0.039545,0.77456,0.78046,0.61436,0
0.38875,0.53731,0.3762,0.85296,0
0.4536,-0.82307,0.81384,0.59891,1
0.34672,-0.29082,0.18023,0.87576,1
-0.11055,0.070657,0.72265,0.39564,0
-0.15469,0.7323,0.26538,0.34942,0
0.5811,-0.80596,0.83525,0.89504,1
-0.079366,0.59042,0.90121,-0.057931,0
0.037256,-0.6514,-0.059093,0.26134,1
0.71284,-0.95416,-0.062207,0.10481,1
0.39361,0.58672,0.46585,0.91486,0
-0.58134,0.95035,0.97912,0.54385,0
-0.22893,0.67636,0.52691,-0.029781,0
-0.16556,0.077943,0.54219,0.39735,0
0.85063,-0.26162,0.79772,0.8046,1
0.8268,0.43239,0.14533,0.79875,1
-0.71128,0.59333,0.17746,0.83931,0
0.22943,-0.48946,0.29516,0.63783,1
0.44415,0.15928,0.60809,0.40897,1
0.30335,0.92012,0.44149,0.24586,0
0.64836,0.12187,0.43331,0.32048,1
-0.046588,0.65664,0.11011,0.69753,0
-0.69533,0.64968,0.46926,0.12167,0
0.67572,-0.031117,0.3338,-0.11933,1
0.4835,0.1648,-0.65372,0.50671,1
0.61351,-0.12161,-0.14212,0.098455,1
-0.98072,0.95344,0.95224,0.1466,0
0.43349,0.11021,-0.22482,0.78842,1
0.97979,-0.0022482,-0.86051,0.56903,1
0.044146,-0.38197,0.13069,0.45981,0
0.95291,-0.28008,0.70713,-0.14392,1
0.87254,-0.19988,0.068595,0.59581,1
0.076052,0.8567,0.3934,0.57489,0
0.96862,-0.76861,-0.68113,0.70278,1
-0.99826,0.22031,0.70459,0.17227,0
0.057724,0.45625,0.31492,0.72745,0
0.76791,0.57959,0.96294,0.06978,0
-0.56736,0.96105,0.48111,0.46969,0
0.60814,0.7575,0.92347,0.50513,0
0.16431,-0.54533,0.54025,0.77843,1
0.54389,-0.95061,-0.27382,0.73341,1
-0.34771,0.36138,0.40433,0.67424,0
0.13243,0.78357,0.73584,0.25332,0
0.7537,0.47607,0.67092,0.63539,1
0.84395,-0.80811,0.68803,0.059017,1
0.71462,0.32084,-0.20607,0.32668,1
-0.11017,0.13123,0.30282,0.81206,0
0.46284,-0.9937,-0.31118,0.67816,1
0.37042,0.6395,0.52015,0.43582,0
0.33258,0.11361,0.98114,0.21642,0
0.21242,-0.87396,-0.67426,0.96476,1
0.38064,-0.91096,0.23573,0.9683,1
0.10521,0.75842,0.42255,0.66073,0
0.73986,-0.47556,-0.65764,0.7936,1
-0.49701,0.85963,0.92091,0.49672,0
0.3892,-0.90063,0.45399,0.66799,1
0.23478,-0.87867,-0.46808,0.80024,1
0.98262,-0.087297,-0.64712,0.79536,1
0.018158,0.68248,0.14472,0.21466,0
0.73876,-0.52198,-0.58048,0.72089,1
0.7092,-0.96363,0.36384,0.35685,1
0.12627,0.16084,0.050572,0.59608,0
0.074538,0.49397,0.78976,0.49558,0
0.68573,-0.92804,-0.24935,0.83295,1
0.63423,0.40844,0.84426,0.062232,1
-0.85416,0.58456,0.79157,0.056355,0
0.79658,0.092701,0.61041,0.57177,1
0.25196,-0.26746,0.30586,0.43489,1
0.73502,-0.53186,-0.29023,0.78846,1
-0.1279,-0.1282,0.13035,0.56702,0
0.8326,0.4032,0.33126,0.29054,1
-0.10686,0.63405,0.18414,0.94825,0
-0.040695,-0.11503,0.15721,0.35144,0
0.16035,-0.62065,0.49355,0.68072,1
-0.28079,0.33315,0.40733,0.087746,0
0.58869,-0.31274,-0.79462,0.70666,1
0.8704,0.061019,-0.57305,0.69776,1
0.41017,-0.16425,-0.25075,0.49756,1
0.19424,-0.26938,0.61365,0.41692,0
0.43683,0.50328,0.4147,0.50738,0
-0.64055,0.95691,0.71338,-0.030247,0
0.70827,0.34058,-0.96307,0.74681,1
-0.69061,0.67729,0.13961,0.88639,0
-0.078958,-0.094277,0.7492,0.01977,0
0.29799,-0.0076713,0.49645,0.64944,0
0.79584,-0.097721,0.045362,0.51523,1
0.48726,0.28604,-0.74295,0.42879,1
0.37954,0.033299,0.42327,0.24947,1
0.40558,0.27162,0.28349,0.15651,0
0.54073,0.66984,0.88703,0.4438,0
0.3538,0.4771,0.60668,-0.013914,0
0.41158,-0.23485,-0.78248,0.55239,1
0.34027,0.9084,0.41699,0.82601,0
-0.085132,0.86561,0.26774,0.62141,0
0.8137,-0.99019,0.34191,-0.096056,1
0.041914,0.19108,0.24713,0.031157,0
0.41383,0.16427,-0.33909,0.24325,1
-0.23025,-0.2369,0.93231,0.71522,0
0.66567,0.24782,0.93271,0.027067,1
0.42663,-0.66504,0.46861,0.62744,1
-0.22102,-0.11211,0.75065,0.61862,0
0.71147,-0.38453,0.25063,0.50501,1
-0.18203,-0.2026,0.53757,0.17448,0
0.41953,0.90494,0.85304,0.92164,0
0.052362,-0.93687,0.11554,0.58906,1
0.66619,0.97178,0.76448,0.07518,0
-0.83801,0.91375,0.099555,0.53772,0
0.8986,0.0075825,0.26494,0.84098,1
0.62534,0.55019,0.54684,0.399,1
-0.49533,0.56265,0.37302,0.61844,0
-0.40767,0.89379,0.16267,-0.092576,0
0.4135,0.61661,0.60676,0.57394,0
0.45709,-0.4318,-0.92969,0.43556,1
0.90121,0.53959,0.93112,0.30762,0
0.45638,-0.82396,0.78698,0.20712,1
0.80211,0.47568,-0.15356,0.33063,1
0.50434,0.28081,-0.034091,0.53978,1
0.83246,-0.97009,0.40808,0.85186,1
0.92742,-0.025488,-0.48185,0.79545,1
-0.96415,0.95055,0.91858,0.35653,0
-0.28941,0.74905,0.63295,-0.06128,0
-0.97271,0.87325,0.34635,-0.066035,0
-0.025374,0.79045,0.41298,0.31464,0
-0.16201,0.13411,0.83157,-0.10301,0
-0.14241,-0.26786,0.64788,0.60183,0
-0.0014941,0.19561,0.58092,0.43754,0
0.84423,0.016446,-0.20778,0.79922,1
0.54278,0.84922,0.58611,0.54712,0
-0.0036727,-0.43816,0.83827,0.7709,0
0.24016,0.42736,0.90416,0.28465,0
0.74721,0.62439,0.87379,0.62865,0
0.90905,-0.15253,0.30834,-0.095189,1
-0.25636,0.74445,0.31533,0.93443,0
0.71974,0.7746,0.67965,0.96115,0
0.76777,0.29981,-0.058711,0.44289,1
0.80201,-0.12314,0.55059,0.11468,1
0.95908,-0.93822,0.44949,0.18978,1
0.73811,0.18524,0.20794,0.64295,1
0.62032,0.01465,0.21202,0.80406,1
0.32106,0.56429,0.39269,0.63966,0
0.25611,-0.74546,0.31077,0.83551,1
0.66402,0.46329,-0.16684,0.26905,1
0.39419,-0.19576,0.10008,0.61238,1
0.71305,0.94725,0.87463,0.86201,0
0.052376,-0.30621,0.64615,0.98472,0
0.7858,-0.011764,0.85989,0.65616,1
0.94479,-0.3242,0.08736,-0.017576,1
0.3432,-0.70616,-0.74362,0.61962,1
0.73281,-0.29816,-0.2738,0.96839,1
0.15825,0.12144,0.38342,0.75644,0
-0.2501,0.58098,0.63231,0.81309,0
0.011507,0.70053,0.2429,0.8809,0
-0.24968,0.080336,0.36247,0.33777,0
0.040459,-0.68107,-0.12679,0.68593,1
0.61814,-0.040425,0.74632,0.6812,1
-0.19118,0.95021,0.60273,0.7029,0
0.84776,-0.55389,0.4363,-0.011257,1
0.62151,-0.225,-0.66197,0.70204,1
-0.87804,0.93085,0.70849,0.27005,0
0.73188,0.10918,-0.4136,0.42595,1
0.27693,-0.81192,-0.71258,0.84907,1
-0.33076,0.31324,0.25189,0.48813,0
0.73325,-0.59057,0.34356,0.28522,1
0.31713,0.69684,0.42651,0.71222,0
0.95675,-0.37638,-0.30747,0.91067,1
0.85889,0.23999,-0.83861,0.56833,1
-0.1515,0.99853,0.061332,0.14545,0
-0.085127,0.5513,0.23877,0.15773,0
0.26192,-0.32466,0.48722,0.70017,1
0.53577,-0.73257,0.36218,0.8952,1
0.4587,-0.22386,-0.0031595,0.16818,1
0.35473,0.31557,0.51951,0.67417,0
0.25223,0.14598,0.42743,0.29852,0
-0.55227,0.52619,0.52275,0.18041,0
0.06152,-0.9251,-0.62087,0.8836,1
0.78632,-0.87682,0.4709,0.22877,1
0.19277,0.81815,0.904,-0.02302,0
0.68969,0.078111,0.72735,0.9392,1
-0.37099,0.77432,0.89346,-0.026517,0
0.78824,-0.22665,-0.93261,0.8594,1
-0.14524,0.61329,0.94476,0.6894,0
0.85321,-0.68053,0.16338,-0.057896,1
-0.10107,-0.24283,0.46639,0.018794,0
0.24864,-0.61818,0.94785,0.53076,1
0.21675,0.30925,0.32696,-0.015683,0
0.58201,-0.90123,-0.031496,0.056513,1
0.95703,-0.42553,-0.67968,0.68571,1
0.042554,0.18459,0.94841,0.77784,0
0.052752,-0.9059,-0.42056,0.29934,1
0.059606,0.55163,0.5177,0.29236,0
0.69041,-0.96197,0.011355,0.66612,1
-0.43675,0.7117,0.47804,0.25548,0
0.14822,-0.56067,0.16133,0.64087,1
-0.35048,0.7339,0.16437,0.35965,0
0.6584,-0.16673,0.26932,0.76856,1
-0.62608,0.96202,0.3577,0.30559,0
0.40812,-0.61324,0.33827,0.7948,1
-0.84603,0.41198,0.99144,0.63555,0
-0.98353,0.97371,0.26383,0.96513,0
0.36066,-0.26677,0.31052,0.83944,1
0.12505,-0.91477,-0.17774,0.88434,1
0.96108,-0.37962,-0.66626,0.47156,1
0.6586,-0.95574,0.25467,-0.012705,1
-0.021613,0.50061,0.69254,0.37857,0
0.70296,0.96398,0.71196,0.43774,0
0.66313,-0.26433,0.21244,-0.080716,1
0.62425,-0.17546,-0.55977,0.5901,1
-0.15319,-0.20301,0.62371,-0.0059946,0
-0.33429,0.47471,0.14387,0.025198,0
-0.97395,0.90605,0.56228,0.84484,0
0.68618,0.16247,0.21978,0.051537,1
-0.96594,0.1352,0.26394,0.23266,0
0.91178,-0.40026,0.17224,0.48779,1
-0.057515,0.0044478,0.95115,-0.080175,0
-0.87351,0.42518,0.3756,0.14305,0
-0.92481,0.43698,0.73342,0.3727,0
0.33072,-0.1748,0.97341,0.69616,1
0.73971,-0.14464,-0.033092,0.66702,1
0.67981,0.30778,0.86159,0.92691,1
0.13901,0.2633,0.25938,0.82385,0
0.4441,-0.024312,-0.31147,0.45974,1
-0.0010552,0.70779,0.79038,0.87707,0
-0.98918,0.9263,0.49501,0.68023,0
0.059407,-0.62015,-0.58704,0.29353,1
0.45442,0.00084056,-0.23017,0.9373,1
0.031645,0.60046,0.49128,0.51963,0
-0.13829,-0.18605,0.60182,0.97782,0
0.96632,-0.98588,0.3979,0.77684,1
0.23932,-0.50718,-0.24253,0.1102,1
0.35152,0.64618,0.96745,0.65727,0
-0.029459,0.69568,0.46753,0.35336,0
0.26899,-0.98902,-0.26945,0.86622,1
0.91826,-0.86328,-0.40944,0.857,1
-0.0074935,-0.77384,-0.1726,0.9313,1
0.35717,-0.093155,0.38664,0.24954,1
0.66529,0.30622,-0.31645,0.58863,1
0.17361,-0.9755,-0.56122,0.90866,1
-0.11225,-0.37363,0.29784,0.29828,0
0.16513,-0.6742,-0.53032,0.5712,1
0.42686,-0.20181,-0.07308,0.88635,1
0.93893,0.0051824,0.64739,-0.0047086,1
0.80872,-0.48204,0.30682,0.77048,1
0.93378,-0.76877,0.12694,-0.027046,1
-0.93849,0.92357,0.80723,0.36254,0
0.58968,0.88933,0.70683,0.46045,0
0.4065,-0.13959,0.64557,0.015104,1
0.22329,0.68598,0.50649,0.14536,0
0.14779,-0.50606,0.25751,0.70155,1
0.51667,-0.40006,-0.20215,0.53438,1
0.2904,0.80616,0.67306,0.70672,0
-0.30204,0.98683,0.14744,0.4525,0
0.32891,-0.22448,-0.10392,0.084803,1
-0.13764,0.92271,0.76665,0.69117,0
0.40303,0.00067409,0.012573,0.048766,1
0.67599,0.39269,0.46657,0.48348,1
-0.14482,0.31516,0.13221,0.084807,0
0.86956,-0.54074,-0.14364,0.58071,1
0.43959,-0.54447,-0.81778,0.56718,1
0.11669,0.35102,0.33735,0.50974,0
0.018245,-0.26267,0.37367,0.29242,0
0.8208,-0.12096,-0.10829,0.48905,1
-0.064374,0.43008,0.57438,0.5386,0
0.71721,-0.29236,0.53359,-0.13123,1
0.48422,-0.70022,0.37712,0.22172,1
-0.10005,-0.67853,-0.58282,0.56076,1
-0.2255,-0.23343,0.2156,-0.068363,0
0.37806,-0.36996,0.13989,-0.046626,1
0.012811,-0.92744,0.059366,0.12673,1
-0.78012,0.67473,0.82354,0.31274,0
0.95532,0.040365,0.11354,0.41822,1
-0.90709,0.25557,0.88897,-0.081952,0
-0.3334,0.38477,0.76412,0.017952,0
0.20489,0.3698,0.027823,0.62687,0
0.6625,-0.104,0.19619,0.11955,1
0.32866,0.39404,0.44504,0.55184,0
0.63606,0.073633,-0.50248,0.47679,1
0.5959,0.77865,0.54481,0.83109,0
-0.075124,-0.42592,0.33664,0.97221,0
0.17269,-0.33322,0.49806,0.31041,0
0.072695,-0.18091,0.12948,0.69479,0
0.41619,-0.99539,-0.69722,0.60236,1
0.77381,0.43109,0.80872,0.16526,1
0.38388,-0.50453,0.6714,0.80497,1
-0.43273,0.64078,0.69067,0.61044,0
0.42419,-0.87254,-0.48584,0.23528,1
-0.14875,0.73694,0.9789,0.16815,0
0.26546,-0.97192,0.07988,0.42662,1
-0.2258,0.39692,0.54875,0.23815,0
-0.77435,0.53383,0.42908,0.00049388,0
-0.7351,1,0.22511,0.83847,0
0.0078211,0.38691,0.065979,0.68033,0
0.32222,-0.71001,-0.20958,0.44364,1
-0.033928,0.76888,0.034115,0.092899,0
0.1557,0.020524,0.86427,0.64257,0
-0.035588,-0.91964,-0.18848,0.64516,1
-0.19639,0.077441,0.11812,0.82885,0
0.33745,-0.39279,-0.73523,0.7889,1
-0.21306,0.088406,0.82478,0.36382,0
0.20958,0.23247,0.56291,0.9523,0
0.66953,-0.81082,-0.81616,0.54804,1
0.95023,-0.1308,0.7067,0.53876,1
-0.2102,0.47431,0.030396,0.035885,0
0.16462,0.86844,0.58148,0.011133,0
0.22196,0.20608,0.84939,0.49323,0
0.35036,0.98296,0.52161,0.52212,0
0.0118,-0.92038,-0.095342,0.6984,1
-0.16992,-0.28229,0.19763,0.01786,0
0.034505,-0.4064,0.9089,0.12274,0
-0.23482,0.402,0.90872,-0.07494,0
0.28336,-0.90239,-0.2585,0.95419,1
0.32321,-0.52259,-0.54726,0.74437,1
-0.1664,0.97905,0.38695,0.39734,0
-0.073706,0.79606,0.96066,0.93164,0
0.53634,0.4697,-0.13105,0.32421,1
0.68793,-0.43625,-0.022899,0.85363,1
0.55103,-0.65052,-0.79176,0.45322,1
0.20577,0.18807,0.93488,0.45406,0
0.51358,0.14523,0.29086,0.82379,1
0.37026,-0.83402,0.028301,0.088167,1
0.34333,0.66541,0.90935,0.46529,0
0.16401,-0.81347,-0.53401,0.81559,1
0.84139,0.016958,0.59835,0.94399,1
0.086781,-0.2952,0.66779,0.49465,0
0.28364,0.72868,0.5071,0.12456,0
-0.87016,0.84049,0.97708,0.44475,0
0.36803,-0.96083,-0.71226,0.92607,1
0.98132,-0.91698,-0.15062,0.075343,1
-0.18504,0.55979,0.29917,0.33879,0
-0.33323,0.27658,0.56294,0.27743,0
0.010569,0.4114,0.21975,0.16004,0
-0.52397,0.64155,0.22433,0.072931,0
-0.45901,0.74305,0.94544,-0.080668,0
0.7114,-0.31613,0.50499,0.6669,1
-0.029551,-0.97334,0.23704,0.88655,1
0.38903,0.18324,0.6624,0.57317,0
-0.041142,0.72825,0.35306,0.13386,0
0.97467,0.057813,0.43112,0.76145,1
0.63218,0.27686,-0.64687,0.63395,1
0.72443,0.62578,0.81172,0.18607,0
0.41176,-0.52865,-0.28617,0.90319,1
0.7971,0.11633,0.31887,0.90518,1
0.62091,0.92427,0.73003,0.15405,0
0.54213,-0.80171,-0.015223,0.01714,1
-0.76383,0.7776,0.29391,0.70319,0
-0.88953,0.64676,0.73339,0.38275,0
0.75347,-0.03175,-0.48133,0.94038,1
0.64102,-0.98505,-0.1373,0.65819,1
0.042739,-0.48282,0.75892,0.37874,0
0.98522,-0.82167,0.93536,0.19128,1
0.11376,-0.17776,0.78168,0.79834,0
0.3407,-0.77767,-0.1651,0.65688,1
0.056389,0.97054,0.15037,0.57087,0
0.66416,-0.26087,0.47732,0.59175,1
0.62605,-0.1787,-0.086192,0.47384,1
-0.27241,0.83137,0.65957,0.73428,0
-0.32501,0.41198,0.29668,0.26784,0
0.70672,0.87246,0.90294,0.58886,0
0.8023,-0.5476,-0.44525,0.81059,1
0.61078,-0.04436,0.50036,0.47086,1
0.84001,0.034894,0.81254,0.98532,1
-0.8133,0.50717,0.3086,0.63064,0
0.3364,0.5891,0.43969,0.81292,0
0.61242,-0.18349,0.27689,0.17765,1
0.75874,0.45814,0.30243,0.095691,1
0.78795,-0.95602,0.75479,0.36044,1
0.77219,-0.31982,-0.15655,0.081145,1
0.057724,-0.57589,0.6267,0.72712,0
-0.28441,-0.11372,0.35596,0.49545,0
0.82765,0.373,0.7017,0.80344,1
-0.025299,0.97015,0.98302,0.63843,0
0.20378,-0.55835,0.014278,-0.0043549,1
-0.86399,0.7166,0.54968,0.99509,0
0.70321,-0.60886,0.78329,0.34959,1
0.71998,-0.12293,-0.23076,0.84937,1
0.14787,0.28685,0.54966,0.45377,0
0.739,-0.56604,0.92657,0.60693,1
-0.18537,0.44112,0.084226,-0.062133,0
0.62731,-0.52256,0.75285,0.089184,1
0.7798,-0.57201,-0.42873,0.7203,1
0.48885,-0.71604,-0.036468,0.089139,0
0.52518,-0.93996,-0.36674,0.33422,0
-0.1468,-0.19894,0.48772,-0.26942,1
-0.092831,-0.36065,0.099492,0.04454,1
0.20607,0.10435,0.06116,0.82612,1
0.3385,-0.37541,0.77711,0.44363,0
-0.098879,-0.14559,0.038883,0.40206,1
0.63698,0.5788,0.56016,0.83591,0
0.72604,0.36333,0.87197,0.97929,0
0.13596,-0.58594,-0.20903,0.30108,0
0.43922,-0.37177,0.035762,0.93788,0
0.4536,-0.82307,0.81384,0.59891,0
0.34672,-0.29082,0.18023,0.87576,0
0.5811,-0.80596,0.83525,0.89504,0
0.037256,-0.6514,-0.059093,0.26134,0
0.71284,-0.95416,-0.062207,0.10481,0
0.85063,-0.26162,0.79772,0.8046,0
0.8268,0.43239,0.14533,0.79875,0
0.22943,-0.48946,0.29516,0.63783,0
0.44415,0.15928,0.60809,0.40897,0
0.64836,0.12187,0.43331,0.32048,0
0.67572,-0.031117,0.3338,-0.11933,0
0.4835,0.1648,-0.65372,0.50671,0
0.61351,-0.12161,-0.14212,0.098455,0
0.43349,0.11021,-0.22482,0.78842,0
0.97979,-0.0022482,-0.86051,0.56903,0
0.044146,-0.38197,0.13069,0.45981,1
-0.072159,-0.34598,-0.52615,0.48713,1
0.95291,-0.28008,0.70713,-0.14392,0
0.87254,-0.19988,0.068595,0.59581,0
0.96862,-0.76861,-0.68113,0.70278,0
0.12372,0.34648,-0.090074,0.069695,1
0.10482,-0.48574,-0.47517,0.32764,1
-0.1447,-0.20173,-0.396,-0.15722,1
0.16431,-0.54533,0.54025,0.77843,0
0.54389,-0.95061,-0.27382,0.73341,0
0.7537,0.47607,0.67092,0.63539,0
0.84395,-0.80811,0.68803,0.059017,0
0.71462,0.32084,-0.20607,0.32668,0
0.46284,-0.9937,-0.31118,0.67816,0
0.21242,-0.87396,-0.67426,0.96476,0
-0.26352,-0.13491,0.028199,0.24321,1
-0.06846,-0.051527,-0.28328,0.30879,1
0.38064,-0.91096,0.23573,0.9683,0
0.73986,-0.47556,-0.65764,0.7936,0
0.3892,-0.90063,0.45399,0.66799,0
0.23478,-0.87867,-0.46808,0.80024,0
0.98262,-0.087297,-0.64712,0.79536,0
0.73876,-0.52198,-0.58048,0.72089,0
0.7092,-0.96363,0.36384,0.35685,0
0.12627,0.16084,0.050572,0.59608,1
0.68573,-0.92804,-0.24935,0.83295,0
0.63423,0.40844,0.84426,0.062232,0
0.79658,0.092701,0.61041,0.57177,0
0.25196,-0.26746,0.30586,0.43489,0
0.73502,-0.53186,-0.29023,0.78846,0
-0.1279,-0.1282,0.13035,0.56702,1
0.8326,0.4032,0.33126,0.29054,0
-0.040695,-0.11503,0.15721,0.35144,1
0.16035,-0.62065,0.49355,0.68072,0
-0.11613,-0.028033,-0.17849,0.1332,1
0.58869,-0.31274,-0.79462,0.70666,0
0.8704,0.061019,-0.57305,0.69776,0
-0.058605,-0.48995,-0.14081,-0.073189,1
0.41017,-0.16425,-0.25075,0.49756,0
0.19424,-0.26938,0.61365,0.41692,1
0.70827,0.34058,-0.96307,0.74681,0
-0.078958,-0.094277,0.7492,0.01977,1
0.29799,-0.0076713,0.49645,0.64944,1
0.79584,-0.097721,0.045362,0.51523,0
0.48726,0.28604,-0.74295,0.42879,0
0.37954,0.033299,0.42327,0.24947,0
0.40558,0.27162,0.28349,0.15651,1
0.41158,-0.23485,-0.78248,0.55239,0
-0.12738,0.022488,-0.25473,0.11769,1
0.8137,-0.99019,0.34191,-0.096056,0
0.041914,0.19108,0.24713,0.031157,1
0.41383,0.16427,-0.33909,0.24325,0
0.023538,0.1496,-0.36268,0.19778,1
0.66567,0.24782,0.93271,0.027067,0
0.42663,-0.66504,0.46861,0.62744,0
0.71147,-0.38453,0.25063,0.50501,0
0.026283,-0.17541,0.11179,-0.32284,1
-0.18203,-0.2026,0.53757,0.17448,1
-0.12908,-0.20922,-0.58959,0.71409,1
0.052362,-0.93687,0.11554,0.58906,0
0.8986,0.0075825,0.26494,0.84098,0
0.62534,0.55019,0.54684,0.399,0
-0.086226,-0.54521,-0.26872,-0.31192,1
0.45709,-0.4318,-0.92969,0.43556,0
0.45638,-0.82396,0.78698,0.20712,0
0.019487,0.21016,-0.36707,0.13923,1
0.80211,0.47568,-0.15356,0.33063,0
0.50434,0.28081,-0.034091,0.53978,0
0.83246,-0.97009,0.40808,0.85186,0
0.92742,-0.025488,-0.48185,0.79545,0
-0.19164,0.12664,-0.3386,0.95602,1
-0.14241,-0.26786,0.64788,0.60183,1
0.84423,0.016446,-0.20778,0.79922,0
-0.0036727,-0.43816,0.83827,0.7709,1
0.90905,-0.15253,0.30834,-0.095189,0
0.76777,0.29981,-0.058711,0.44289,0
0.80201,-0.12314,0.55059,0.11468,0
0.18724,-0.29898,-0.54207,0.37883,1
0.95908,-0.93822,0.44949,0.18978,0
0.73811,0.18524,0.20794,0.64295,0
-0.042088,-0.31281,-0.62435,-0.2765,1
-0.077619,-0.2387,-0.36361,-0.22304,1
0.62032,0.01465,0.21202,0.80406,0
-0.035447,0.0836,-0.17291,0.70506,1
0.25611,-0.74546,0.31077,0.83551,0
0.66402,0.46329,-0.16684,0.26905,0
0.39419,-0.19576,0.10008,0.61238,0
0.052376,-0.30621,0.64615,0.98472,1
-0.14207,-0.24539,-0.42402,0.41301,1
0.7858,-0.011764,0.85989,0.65616,0
0.94479,-0.3242,0.08736,-0.017576,0
0.3432,-0.70616,-0.74362,0.61962,0
0.73281,-0.29816,-0.2738,0.96839,0
-0.15845,0.27808,-0.34954,0.28276,1
-0.24968,0.080336,0.36247,0.33777,1
0.040459,-0.68107,-0.12679,0.68593,0
0.61814,-0.040425,0.74632,0.6812,0
0.068582,0.25243,-0.17901,0.70671,1
0.84776,-0.55389,0.4363,-0.011257,0
0.62151,-0.225,-0.66197,0.70204,0
0.73188,0.10918,-0.4136,0.42595,0
0.27693,-0.81192,-0.71258,0.84907,0
0.73325,-0.59057,0.34356,0.28522,0
0.95675,-0.37638,-0.30747,0.91067,0
0.85889,0.23999,-0.83861,0.56833,0
0.26192,-0.32466,0.48722,0.70017,0
-0.0027715,-0.53347,-0.20423,0.26198,1
0.53577,-0.73257,0.36218,0.8952,0
0.4587,-0.22386,-0.0031595,0.16818,0
0.25223,0.14598,0.42743,0.29852,1
0.06152,-0.9251,-0.62087,0.8836,0
0.78632,-0.87682,0.4709,0.22877,0
0.68969,0.078111,0.72735,0.9392,0
0.78824,-0.22665,-0.93261,0.8594,0
0.055248,0.24166,-0.14253,0.12433,1
0.85321,-0.68053,0.16338,-0.057896,0
-0.10107,-0.24283,0.46639,0.018794,1
0.24864,-0.61818,0.94785,0.53076,0
0.58201,-0.90123,-0.031496,0.056513,0
0.95703,-0.42553,-0.67968,0.68571,0
0.052752,-0.9059,-0.42056,0.29934,0
0.16155,-0.33781,0.035905,0.34784,1
0.69041,-0.96197,0.011355,0.66612,0
0.14822,-0.56067,0.16133,0.64087,0
0.6584,-0.16673,0.26932,0.76856,0
0.40812,-0.61324,0.33827,0.7948,0
0.36066,-0.26677,0.31052,0.83944,0
0.12505,-0.91477,-0.17774,0.88434,0
0.96108,-0.37962,-0.66626,0.47156,0
0.6586,-0.95574,0.25467,-0.012705,0
0.66313,-0.26433,0.21244,-0.080716,0
0.62425,-0.17546,-0.55977,0.5901,0
-0.15319,-0.20301,0.62371,-0.0059946,1
0.035315,-0.34715,-0.7265,-0.29925,1
0.68618,0.16247,0.21978,0.051537,0
0.91178,-0.40026,0.17224,0.48779,0
0.33072,-0.1748,0.97341,0.69616,0
0.73971,-0.14464,-0.033092,0.66702,0
0.67981,0.30778,0.86159,0.92691,0
0.4441,-0.024312,-0.31147,0.45974,0
-0.38468,0.14581,-0.6733,0.61905,1
0.059407,-0.62015,-0.58704,0.29353,0
0.45442,0.00084056,-0.23017,0.9373,0
-0.0018132,-0.39862,-0.65855,0.22796,1
-0.13829,-0.18605,0.60182,0.97782,1
0.96632,-0.98588,0.3979,0.77684,0
0.013308,0.026467,-0.085339,-0.25314,1
0.2438,0.24229,0.052891,0.13656,1
0.23932,-0.50718,-0.24253,0.1102,0
0.26899,-0.98902,-0.26945,0.86622,0
0.91826,-0.86328,-0.40944,0.857,0
-0.0074935,-0.77384,-0.1726,0.9313,0
0.35717,-0.093155,0.38664,0.24954,0
0.66529,0.30622,-0.31645,0.58863,0
-0.067475,-0.554,-0.65999,0.14578,1
0.17361,-0.9755,-0.56122,0.90866,0
-0.11225,-0.37363,0.29784,0.29828,1
0.16513,-0.6742,-0.53032,0.5712,0
0.42686,-0.20181,-0.07308,0.88635,0
0.10639,-0.51515,-0.33191,-0.7263,1
-0.057125,-0.0082928,-0.35405,0.96106,1
0.93893,0.0051824,0.64739,-0.0047086,0
0.066519,-0.40423,-0.3803,0.95296,1
0.80872,-0.48204,0.30682,0.77048,0
0.93378,-0.76877,0.12694,-0.027046,0
-0.1998,-0.26361,0.089347,-0.31918,1
0.4065,-0.13959,0.64557,0.015104,0
0.14779,-0.50606,0.25751,0.70155,0
-0.13493,-0.44836,-0.61855,-0.18708,1
0.51667,-0.40006,-0.20215,0.53438,0
0.081155,-0.24558,-0.02122,0.40714,1
0.32891,-0.22448,-0.10392,0.084803,0
0.40303,0.00067409,0.012573,0.048766,0
0.67599,0.39269,0.46657,0.48348,0
-0.14482,0.31516,0.13221,0.084807,1
0.86956,-0.54074,-0.14364,0.58071,0
0.14725,-0.097732,-0.56665,0.19722,1
0.43959,-0.54447,-0.81778,0.56718,0
0.018245,-0.26267,0.37367,0.29242,1
0.8208,-0.12096,-0.10829,0.48905,0
0.71721,-0.29236,0.53359,-0.13123,0
0.48422,-0.70022,0.37712,0.22172,0
-0.10005,-0.67853,-0.58282,0.56076,0
-0.2255,-0.23343,0.2156,-0.068363,1
0.37806,-0.36996,0.13989,-0.046626,0
0.012811,-0.92744,0.059366,0.12673,0
-0.16505,-0.10678,-0.46754,-0.081736,1
0.95532,0.040365,0.11354,0.41822,0
0.6625,-0.104,0.19619,0.11955,0
0.63606,0.073633,-0.50248,0.47679,0
-0.075124,-0.42592,0.33664,0.97221,1
0.17269,-0.33322,0.49806,0.31041,1
0.072695,-0.18091,0.12948,0.69479,1
0.16992,-0.24788,-0.13706,0.91668,1
0.41619,-0.99539,-0.69722,0.60236,0
0.77381,0.43109,0.80872,0.16526,0
0.38388,-0.50453,0.6714,0.80497,0
0.42419,-0.87254,-0.48584,0.23528,0
-0.07633,-0.4193,-0.95317,0.97404,1
0.26546,-0.97192,0.07988,0.42662,0
0.19563,-0.32271,0.42756,-0.24893,1
0.32222,-0.71001,-0.20958,0.44364,0
0.24264,-0.081763,-0.34001,0.5596,1
-0.035588,-0.91964,-0.18848,0.64516,0
-0.19639,0.077441,0.11812,0.82885,1
0.33745,-0.39279,-0.73523,0.7889,0
0.046753,-0.57727,-0.17035,0.36091,1
0.66953,-0.81082,-0.81616,0.54804,0
-0.24126,-0.212,-0.28835,-0.10567,1
0.95023,-0.1308,0.7067,0.53876,0
0.0096212,-0.057176,-0.26474,0.26047,1
-0.25047,0.047229,-0.66404,0.31575,1
0.23068,-0.2231,-0.34245,0.79233,1
0.0118,-0.92038,-0.095342,0.6984,0
-0.16992,-0.28229,0.19763,0.01786,1
0.034505,-0.4064,0.9089,0.12274,1
0.28336,-0.90239,-0.2585,0.95419,0
-0.0029671,-0.17021,-0.22924,0.47304,1
0.32321,-0.52259,-0.54726,0.74437,0
0.53634,0.4697,-0.13105,0.32421,0
0.68793,-0.43625,-0.022899,0.85363,0
0.55103,-0.65052,-0.79176,0.45322,0
-0.15624,0.092631,0.042537,0.636,1
0.51358,0.14523,0.29086,0.82379,0
0.37026,-0.83402,0.028301,0.088167,0
0.16401,-0.81347,-0.53401,0.81559,0
0.84139,0.016958,0.59835,0.94399,0
0.086781,-0.2952,0.66779,0.49465,1
-0.044038,-0.051719,-0.36104,0.66896,1
0.36803,-0.96083,-0.71226,0.92607,0
0.98132,-0.91698,-0.15062,0.075343,0
-0.17255,-0.25893,0.48919,-0.20552,1
0.7114,-0.31613,0.50499,0.6669,0
-0.029551,-0.97334,0.23704,0.88655,0
0.97467,0.057813,0.43112,0.76145,0
-0.2407,0.050858,0.32973,-0.17932,1
0.63218,0.27686,-0.64687,0.63395,0
0.41176,-0.52865,-0.28617,0.90319,0
0.7971,0.11633,0.31887,0.90518,0
0.54213,-0.80171,-0.015223,0.01714,0
-0.017939,-0.41908,-0.11275,-0.56644,1
0.75347,-0.03175,-0.48133,0.94038,0
0.64102,-0.98505,-0.1373,0.65819,0
0.042739,-0.48282,0.75892,0.37874,1
0.98522,-0.82167,0.93536,0.19128,0
0.3407,-0.77767,-0.1651,0.65688,0
0.20585,-0.11554,-0.37904,0.44404,1
0.66416,-0.26087,0.47732,0.59175,0
0.62605,-0.1787,-0.086192,0.47384,0
0.1788,-0.27256,-0.4622,0.059049,1
0.8023,-0.5476,-0.44525,0.81059,0
-0.98532,0.21867,-0.73619,0.76307,1
0.61078,-0.04436,0.50036,0.47086,0
0.84001,0.034894,0.81254,0.98532,0
-0.075016,0.07191,-0.1922,0.79506,1
0.61242,-0.18349,0.27689,0.17765,0
0.75874,0.45814,0.30243,0.095691,0
-0.0049362,-0.16613,0.665,-0.0984,1
0.78795,-0.95602,0.75479,0.36044,0
0.77219,-0.31982,-0.15655,0.081145,0
0.057724,-0.57589,0.6267,0.72712,1
-0.28441,-0.11372,0.35596,0.49545,1
0.82765,0.373,0.7017,0.80344,0
0.20378,-0.55835,0.014278,-0.0043549,0
0.70321,-0.60886,0.78329,0.34959,0
0.069469,-0.49733,-0.29857,-0.066202,1
0.71998,-0.12293,-0.23076,0.84937,0
0.739,-0.56604,0.92657,0.60693,0
0.0051621,-0.22939,-0.054887,0.089009,1
0.62731,-0.52256,0.75285,0.089184,0
0.03834,0.041069,0.12971,-0.16339,1
-0.11549,-0.49026,0.95426,0.46108,1
0.7798,-0.57201,-0.42873,0.7203,0
-0.041368,-0.46384,0.095188,-0.67505,1
0.20789,-0.23788,-0.75119,-0.055262,1
0.14887,-0.19731,0.42173,0.0027611,1
-0.21883,-0.10506,0.71431,0.17076,1
-0.18151,-0.29189,-0.1479,0.39096,1
-0.17206,-0.32038,0.27855,-0.17241,1
-0.22981,-0.2167,0.056003,0.96074,1
-0.17732,-0.33661,0.27098,-0.38145,1
0.1273,-0.16816,0.40791,0.24468,1
0.068019,-0.49112,-0.94849,-0.17942,1
-0.06389,-0.30384,-0.95309,0.36158,1
-0.024073,-0.56982,-0.69543,0.033326,1
-0.12483,-0.23687,-0.58899,0.90851,1
-0.010369,-0.33923,-0.68696,0.94911,1
0.11081,-0.31091,-0.69352,0.78983,1
0.10364,-0.079359,-0.83618,-0.010611,1
-0.22783,-0.24084,-0.026513,-0.44463,1
-0.093206,0.004641,-0.66333,0.88285,1
-0.061492,0.16137,0.19096,-0.13575,1
-0.040473,-0.36622,0.86315,0.33625,1
-0.088302,-0.15829,-0.29733,0.40168,1
0.083048,-0.13753,-0.57483,-0.016649,1
-0.086936,-0.41782,-0.28643,0.23113,1
-0.098241,-0.41664,-0.23583,0.60239,1
0.18905,-0.12903,0.072694,0.71238,1
0.32477,0.16238,-0.14601,-0.21369,1
0.017031,-0.40909,-0.66963,0.072211,1
-0.12541,-0.20848,-0.52964,-0.080906,1
-0.17733,-0.15165,0.045505,0.92623,1
-0.043632,-0.10321,-0.5461,0.66584,1
0.19971,-0.28573,-0.5606,0.29305,1
0.064605,-0.28083,-0.33981,0.57752,1
0.22195,-0.082934,-0.10538,0.41753,1
-0.011345,-0.4914,0.2704,-0.55745,1
-0.246,-0.083847,0.36251,0.90617,1
0.013996,-0.32579,-0.24974,-0.6491,1
-0.21777,-0.18584,0.020758,0.78553,1
-0.14612,0.07731,-0.062218,0.97716,1
-0.17617,0.1006,-0.07695,0.21538,1
0.1235,-0.46268,-0.39272,0.57572,1
-0.061801,0.0080873,-0.0030873,0.2537,1
-0.095265,-0.034257,-0.14185,0.97321,1
-0.015224,-0.4367,0.48243,0.70878,1
0.29755,0.026094,0.23179,0.32452,1
-0.17583,0.053229,0.27841,0.28372,1
0.036042,-0.052943,-0.24008,0.52925,1
0.067056,-0.54477,-0.18179,-0.44032,1
-0.33186,0.24761,-0.29222,0.23835,1
0.15267,-0.018095,-0.16841,0.90889,1
-0.14946,-0.33672,-0.83562,0.82223,1
0.1931,0.031919,-0.23498,0.83137,1
-0.17469,-0.34202,-0.75408,0.75117,1
-0.2268,-0.27134,0.24251,-0.46483,1
0.1442,-0.34518,0.76416,0.0076257,1
0.096278,-0.031113,-0.36069,0.62401,1
-0.18851,-0.26582,-0.93316,0.13902,1
0.12944,-0.18982,0.20328,0.31104,1
0.10179,-0.47029,0.35577,0.44963,1
0.28658,-0.13021,0.3623,-0.099165,1
-0.1236,-0.16068,0.18807,0.55477,1
-0.10342,-0.33369,0.92647,-0.037937,1
0.25955,0.18366,0.20455,0.62815,1
0.04589,-0.045893,-0.60253,0.24602,1
0.10174,0.082071,0.42111,0.36301,1
-0.034989,-0.45896,-0.52653,0.89027,1
0.99486,0.05935,0.089018,0.070182,1
0.1533,-0.32946,0.71459,0.15015,1
-0.20153,-0.15553,-0.57571,0.89105,1
0.027216,-0.51685,0.60061,0.31071,1
-0.012801,-0.39541,0.85104,0.06029,1
0.095742,-0.078346,0.28237,0.89079,1
-0.033827,-0.45434,-0.4963,-0.18235,1
0.0069994,-0.10916,0.10541,0.36784,1
0.23574,0.03206,-0.08563,0.82971,1
-0.039896,-0.47775,0.98764,0.81293,1
-0.05639,0.033854,-0.56233,0.090201,1
-0.14568,-0.30508,-0.33495,0.60627,1
-0.0064948,-0.52353,0.0026447,0.40277,1
0.11755,-0.49052,0.21936,0.29824,1
-0.15461,0.064615,-0.23477,0.40977,1
-0.18196,-0.23053,0.22555,0.10415,1
-0.02075,0.16337,-0.051528,0.13059,1
0.12015,-0.13977,-0.45827,0.44551,1
0.10325,-0.48077,0.031588,-0.041129,1
0.25367,-0.11207,-0.40003,-0.082204,1
0.27056,-0.027932,-0.13305,0.31866,1
-0.24105,-0.16281,-0.70947,0.8464,1
-0.17186,-0.37517,-0.06693,-0.046414,1
0.25127,-0.21578,-0.54616,0.26231,1
0.18331,-0.38772,-0.40773,0.34019,1
-0.23243,-0.12931,0.11218,0.52417,1
-0.096533,-0.463,-0.96051,0.70206,1
-0.020916,0.33947,0.077205,0.3032,1
0.1359,-0.47642,0.98394,0.71043,1
-0.23158,-0.16504,-0.43969,0.75882,1
0.21035,-0.1049,0.026397,0.60715,1
-0.033296,-0.45646,-0.7312,0.084875,1
0.0073315,-0.31728,0.24669,0.6668,1
-0.0010959,-0.31373,-0.086989,0.14793,1
0.10364,-0.18654,-0.38952,0.44379,1
0.1528,0.034002,-0.033287,0.74673,1
-0.41181,0.01292,-0.76816,0.54118,1
-0.58109,-0.65479,0.098012,0.11097,1
0.17623,0.57836,0.39819,-0.59082,0
-0.87653,0.1726,0.1347,0.32412,1
-0.071945,-0.6456,0.35241,0.43124,1
-0.24253,0.5732,0.42569,-0.77958,0
-0.1468,-0.19894,0.48772,-0.26942,0
0.31289,0.14442,0.11204,-0.49948,0
-0.39195,-0.25618,0.71451,0.61428,1
0.21301,0.36302,0.16761,-0.26053,0
-0.059703,0.63935,0.9385,-0.30007,0
-0.48856,0.28111,0.43317,0.60369,1
0.78762,0.72874,0.59806,-0.30048,0
-0.73367,-0.043306,0.75084,-0.17514,1
-0.65336,-0.66897,0.8449,0.99232,1
0.47387,0.63802,0.16409,-0.10456,0
-0.80212,-0.15977,0.75318,0.55135,1
-0.27562,-0.72525,-0.3861,0.21631,1
-0.67401,0.22348,-0.026184,0.83359,1
-0.70508,-0.11254,-0.96335,0.91859,1
0.41698,0.75209,0.87787,-0.28396,0
-0.75482,-0.63437,-0.2425,0.99179,1
-0.91113,-0.45167,-0.61726,0.42232,1
-0.19046,-0.82517,0.33476,0.68935,1
-0.92674,-0.72025,0.54491,-0.10147,1
0.90367,0.66766,0.21304,-0.21807,0
-0.49325,-0.28412,0.51404,0.32271,1
-0.97222,0.28471,0.61037,-0.72845,0
-0.5701,0.28236,0.64035,0.54362,1
-0.88483,0.12003,0.90388,0.67783,1
-0.97205,-0.96741,0.37843,0.48881,1
-0.22881,0.97958,0.43506,-0.45925,0
-0.77226,-0.41669,-0.74311,0.55836,1
-0.72859,0.70993,0.32783,-0.70048,0
-0.41489,-0.98335,-0.57889,0.92221,1
-0.079366,0.59042,0.90121,-0.057931,0
-0.75497,0.83301,0.70699,-0.8661,0
-0.43202,0.62157,0.33479,-0.42315,0
0.35241,0.42476,0.1014,-0.97501,0
-0.80851,-0.88855,-0.1322,0.39976,1
0.0015964,0.95587,0.3898,-0.8112,0
0.29089,0.57899,0.70837,-0.26462,0
-0.88198,-0.77574,-0.67393,0.63599,1
-0.97189,-0.43445,0.4179,0.98265,1
-0.22893,0.67636,0.52691,-0.029781,0
-0.68586,0.88397,0.30097,-0.89218,0
-0.76439,0.12182,0.31278,0.6624,1
-0.21472,0.48101,0.6187,-0.4658,0
0.20204,0.090698,0.22902,-0.86362,0
-0.19427,0.36838,0.77069,-0.8955,0
0.059413,-0.39049,0.1868,-0.79512,0
0.45267,0.81561,0.57054,-0.86792,0
-0.74363,-0.29755,0.74795,0.61088,1
0.59814,0.98101,0.49393,-0.65419,0
-0.40169,0.043771,-0.64019,0.23606,1
-0.64717,0.092563,0.37208,0.73408,1
-0.83396,-0.39394,0.40378,0.86303,1
-0.64323,-0.11052,0.12221,0.93811,1
0.83909,0.57719,0.17589,-0.58323,0
-0.87484,0.15765,-0.17157,0.11024,1
-0.61826,0.35198,0.93067,0.36477,1
-0.73436,-0.86156,-0.78177,0.90497,1
-0.26352,0.90972,0.38293,-0.32279,0
-0.54261,0.17441,-0.55076,0.28804,1
-0.068468,-0.055777,0.6218,-0.77828,0
-0.38857,-0.63137,0.65886,-0.059581,1
0.79671,0.60791,0.094837,-0.61899,0
-0.56893,0.28291,0.41752,0.77159,1
-0.56479,0.26894,-0.72145,0.43569,1
-0.27288,0.2163,0.31283,-0.66941,0
-0.54802,-0.20748,-0.41105,0.85103,1
-0.84416,-0.92178,-0.56048,0.37233,1
0.36181,0.5353,0.3468,-0.45348,0
-0.78059,-0.78939,-0.86516,0.61721,1
-0.47016,0.45256,0.92094,-0.70148,0
-0.79452,-0.26786,-0.99088,0.89477,1
-0.82338,-0.32424,0.72013,0.55645,1
-0.88686,-0.84063,0.61267,0.13014,1
0.43318,0.87053,0.029533,-0.65042,0
-0.83926,0.023624,0.067268,0.40197,1
-0.72593,-0.54509,0.79369,0.61754,1
-0.44018,0.19595,-0.51653,0.47731,1
-0.58637,-0.045479,0.79029,0.021045,1
0.36429,0.78926,0.39492,-0.1496,0
-0.34536,0.61836,0.39051,-0.55417,0
-0.68121,-0.35535,-0.87844,0.66776,1
-0.81554,0.23164,0.18774,0.23667,1
-0.041355,0.093579,0.79208,-0.21562,0
-0.98432,-0.36119,0.42195,0.97888,1
-0.43762,-0.44516,0.44876,0.40831,1
-0.46832,-0.89322,-0.20769,0.6125,1
-0.26349,-0.34954,0.27003,0.74712,1
0.57973,0.66478,0.77967,-0.49051,0
0.29302,0.58632,0.21577,-0.72227,0
-0.99736,0.18553,0.5056,-0.76098,0
-0.33939,-0.81097,0.93492,0.48415,1
0.16221,0.27603,0.06594,-0.93144,0
-0.76989,0.45964,0.03726,0.71715,1
-0.82516,-0.30574,-0.44862,0.5635,1
-0.013107,-0.026573,0.067001,-0.9417,0
-0.65978,-0.17618,0.6509,0.31829,1
-0.16629,0.70822,0.67942,-0.5176,0
0.17425,0.63478,0.67647,-0.75786,0
-0.52952,-0.69598,0.45328,0.66968,1
0.26927,0.20735,0.3561,-0.10136,0
0.040635,-0.45258,0.44685,-0.68754,0
0.89793,0.57783,0.55792,-0.29127,0
0.1837,0.32915,0.41087,-0.47152,0
-0.37283,0.68702,0.49004,-0.99223,0
-0.96136,-0.10134,-3.7203e-05,0.98119,1
-0.59225,0.2216,0.72775,0.61861,1
-0.34455,0.027118,-0.0084111,0.28267,1
-0.67928,-0.39914,0.52762,0.95654,1
-0.54021,-0.054556,0.97636,0.32026,1
0.99749,0.95802,0.75284,-0.94962,0
-0.36613,-0.9928,0.55043,-0.018335,1
-0.98936,-0.0096484,0.9248,0.30557,1
-0.61473,-0.19825,-0.0054894,0.85557,1
-0.97249,-0.019392,0.26951,0.75192,1
-0.89266,-0.10002,-0.41242,0.56747,1
-0.37264,-0.053843,-0.27555,0.61499,1
-0.10377,0.77652,0.28913,-0.87948,0
-0.21819,-0.14991,0.60503,-0.80029,0
0.30294,0.99394,0.18597,-0.92145,0
-0.62298,0.3613,0.85222,0.84986,1
-0.93517,-0.89727,-0.55322,0.49673,1
-0.35087,-0.35252,0.33772,0.30063,1
-0.75007,-0.24008,0.3328,-0.057681,1
-0.71967,0.51575,0.61173,0.12928,1
-0.61879,-0.51133,0.36539,0.89824,1
-0.61999,0.87178,0.047064,-0.82404,0
-0.76418,-0.74425,0.41757,0.35395,1
-0.94266,-0.76086,0.16931,0.68711,1
-0.48155,-0.3429,0.092876,0.34486,1
0.074055,0.70309,0.38438,-0.98274,0
-0.16798,0.078151,0.18764,-0.93871,0
-0.79085,-0.0024908,0.13964,0.42921,1
0.026283,-0.17541,0.11179,-0.32284,0
-0.80218,-0.45769,0.75977,0.70634,1
-0.99005,-0.12508,0.3531,-0.090066,1
-0.28003,0.33105,0.38894,-0.75544,0
-0.94445,-0.48764,-0.010038,0.4176,1
0.79023,0.60013,0.60036,-0.47092,0
-0.95017,-0.11312,0.60453,0.72531,1
-0.69539,-0.40892,0.52342,0.64455,1
-0.69924,0.53562,0.5572,-0.13117,1
-0.4587,0.322,-0.78246,0.46667,1
0.78234,0.8846,0.60121,-0.65707,0
-0.57977,-0.56745,0.33668,-0.005404,1
0.38293,0.75546,0.18307,-0.6844,0
0.12302,0.01932,0.20644,-0.85114,0
-0.72994,-0.78654,0.39236,0.76705,1
-0.8568,0.21417,-0.17674,0.72649,1
-0.28941,0.74905,0.63295,-0.06128,0
-0.65298,-0.35133,-0.15263,0.4378,1
0.98506,0.51441,0.98623,-0.97939,0
-0.16201,0.13411,0.83157,-0.10301,0
-0.36162,-0.28301,0.48943,0.9843,1
-0.070689,0.64931,0.47608,-0.12322,0
-0.58257,-0.61523,0.64096,0.87304,1
-0.83184,-0.28372,0.65704,0.86712,1
-0.56975,0.23402,-0.16524,0.61079,1
-0.75559,-0.64745,0.37751,0.21468,1
0.43544,0.76772,0.043069,-0.34662,0
-0.97095,0.25809,0.5182,-0.89224,0
-0.54689,0.4332,0.10098,-0.045725,1
-0.10676,-0.65537,0.98196,0.97637,1
-0.63508,-0.13961,-0.57585,0.32466,1
0.4215,0.75827,0.172,-0.31154,0
0.21786,0.66199,0.80098,-0.09682,0
0.85205,0.51832,0.86366,-0.12465,0
0.55557,0.88248,0.15524,-0.056512,0
0.76158,0.72972,0.94353,-0.36821,0
-0.42042,-0.064647,-0.73475,0.81553,1
-0.26177,0.035184,0.085782,-0.43872,0
0.02852,0.88292,0.33326,-0.19901,0
0.8153,0.92979,0.38086,-0.97637,0
0.90949,0.4689,0.332,-0.54274,0
0.0182,0.68394,0.94321,-0.32415,0
0.28671,-0.065532,0.22391,-0.9412,0
-0.34627,-0.26626,0.2629,0.46027,1
-0.42015,-0.91247,-0.51126,0.93288,1
-0.70096,-0.3411,-0.74545,0.40052,1
-0.1107,0.44451,0.091398,-0.23151,0
-0.74499,-0.21365,0.5174,0.16315,1
-0.14233,0.83423,0.26762,-0.56256,0
0.31705,0.48624,0.19788,-0.10806,0
0.20188,-0.22954,0.31273,-0.39356,0
-0.35444,-0.67414,0.29777,0.53732,1
-0.55288,0.36207,-0.62084,0.96272,1
-0.90507,-0.18977,0.091739,0.39141,1
-0.069073,-0.49571,0.64453,-0.63078,0
0.24126,0.40706,0.078055,-0.47434,0
0.35791,0.79033,0.069342,-0.93419,0
-0.94675,-0.35673,-0.54892,0.72567,1
0.93809,0.86356,0.067078,-0.29215,0
-0.8279,-0.54525,0.84851,0.50066,1
-0.37099,0.77432,0.89346,-0.026517,0
0.048325,0.52531,0.28786,-0.05342,0
-0.61237,0.63484,0.50845,-0.87419,0
-0.90027,0.35917,0.97634,-0.80606,0
-0.59336,-0.25449,0.73854,0.74188,1
-0.46549,0.046645,0.57217,0.23037,1
0.67014,0.98712,0.21525,-0.54427,0
-0.33425,0.55595,0.34369,-0.66718,0
0.34374,0.48111,0.70202,-0.76895,0
-0.081513,0.7751,0.76212,-0.55969,0
-0.65675,0.40298,-0.49771,0.12741,1
0.97425,0.58154,0.76978,-0.96557,0
-0.68867,0.93146,0.50619,-0.87146,0
-0.67756,-0.12145,0.53751,0.13881,1
0.94031,0.90226,0.39977,-0.32234,0
-0.71073,0.48565,-0.075986,0.80791,1
-0.50287,-0.25407,-0.56376,0.96485,1
-0.75117,-0.87326,-0.23664,0.68854,1
-0.66379,-0.46748,-0.39561,0.19022,1
0.78217,0.89076,0.99501,-0.34474,0
-0.46003,0.44501,0.91062,-0.72838,0
-0.17115,-0.55238,0.65578,0.50496,1
-0.36304,0.78173,0.76724,-0.18466,0
-0.057515,0.0044478,0.95115,-0.080175,0
-0.71977,0.98682,0.93437,-0.58526,0
-0.93378,-0.54592,0.37686,0.035639,1
-0.61013,-0.6218,0.011816,0.63987,1
0.29219,0.35449,0.37076,-0.97547,0
0.24575,0.38187,0.73665,-0.72913,0
-0.6331,0.15092,-0.10851,0.64876,1
-0.69104,-0.76712,0.62236,0.23582,1
0.036722,0.55251,0.53723,-0.41104,0
-0.84976,-0.91913,0.039484,0.53836,1
0.22829,-0.19971,0.81135,-0.1282,0
-0.46483,0.82788,0.71913,-0.76191,0
-0.46003,-0.12367,-0.093686,0.92417,1
-0.41877,0.25717,0.28436,-0.38164,0
-0.36921,-0.26835,0.91153,0.1193,1
0.079202,0.63542,1,-0.88595,0
-0.75255,0.46267,-0.27647,0.52801,1
0.34666,0.84957,0.95241,-0.64926,0
-0.27914,-0.89998,0.34025,0.28187,1
-0.94639,0.33904,0.89929,-0.40721,0
-0.98923,0.0040314,0.28632,0.72459,1
-0.20356,-0.45734,0.075941,0.48853,1
-0.60075,-0.97567,0.6292,0.82856,1
-0.1998,-0.26361,0.089347,-0.31918,0
0.89801,0.6661,0.23928,-0.79055,0
-0.9738,-0.29279,-0.40206,0.62885,1
0.60879,0.81031,0.46748,-0.33315,0
-0.5994,-0.2324,-0.37523,0.5853,1
-0.51064,-0.0092661,-0.30949,0.69605,1
-0.18567,-0.11451,0.69546,-0.76755,0
0.17862,0.0075133,0.61396,-0.9475,0
-0.71094,0.36536,0.76422,0.11471,1
-0.86401,-0.11269,0.76073,0.97638,1
-0.51142,0.90685,0.24978,-0.64458,0
-0.78613,-0.49617,0.7969,0.26742,1
0.90067,0.73422,0.35207,-0.95418,0
-0.30545,-0.34002,0.63133,0.65707,1
0.39824,0.64603,0.10892,-0.81356,0
-0.47148,-0.043751,0.43686,0.79268,1
-0.56937,-0.92919,-0.84329,0.60337,1
-0.64945,-0.942,0.062035,0.91432,1
0.036072,-0.33273,0.51089,-0.45236,0
-0.87535,-0.38261,0.88523,0.57577,1
-0.010071,0.75218,0.10073,-0.49066,0
-0.59762,-0.12229,0.17664,0.20861,1
-0.7522,0.77031,0.52,-0.85257,0
-0.55059,-0.54722,0.45926,0.34725,1
-0.14324,-0.64241,0.45363,0.26174,1
-0.58659,0.014307,0.45062,0.56946,1
0.23849,0.42249,0.42686,-0.40659,0
-0.94392,-0.035546,0.82356,-0.25817,1
-0.2255,-0.23343,0.2156,-0.068363,0
-0.72197,0.72946,0.55362,-0.68464,0
-0.05331,0.80965,0.42184,-0.71556,0
0.34447,0.34373,0.12113,-0.28311,0
0.9706,0.32316,0.16445,-0.48359,0
-0.52977,0.33595,0.54427,0.24288,1
-0.074949,0.83364,0.71557,-0.9741,0
-0.24051,0.75124,0.56685,-0.10803,0
-0.078769,0.098298,0.8778,-0.11855,0
-0.74046,-0.83073,0.32259,0.5466,1
0.28155,0.68805,0.88168,-0.56166,0
-0.91713,-0.73626,0.43913,1,1
-0.64427,-0.5948,-0.012645,0.3185,1
-0.27489,-0.48995,0.60706,0.0013498,1
0.19563,-0.32271,0.42756,-0.24893,0
-0.98083,-0.70982,0.65484,0.83594,1
-0.41569,-0.040458,0.20688,0.48847,1
-0.55115,0.16899,-0.35107,0.85113,1
-0.34592,0.10081,0.22052,-0.3395,0
0.42214,0.80009,0.42914,-0.64979,0
-0.28388,-0.17766,0.46939,0.86281,1
-0.78697,0.43881,0.20357,0.32314,1
-0.79399,-0.69592,-0.50159,0.94159,1
-0.38544,-0.84845,0.078066,0.86528,1
-0.47907,0.25885,-0.83455,0.27695,1
-0.40621,0.6208,0.65959,-0.41794,0
-0.31664,0.14355,0.94993,-0.56051,0
0.45104,0.69254,0.52881,-0.43511,0
-0.95917,-0.2399,0.24472,-0.016926,1
-0.69151,0.97086,0.81943,-0.60797,0
-0.53902,0.051544,0.47,0.023017,1
0.9048,0.63125,0.37341,-0.67822,0
-0.073648,0.73187,0.31645,-0.75425,0
-0.76519,-0.38043,-0.35105,0.14889,1
-0.52638,0.22823,0.44496,0.99909,1
0.2635,0.4516,0.70586,-0.75606,0
0.10158,0.9857,0.98251,-0.20842,0
-0.7702,-0.79327,-0.76915,0.60952,1
-0.18408,-0.41019,0.92381,0.57908,1
-0.49357,0.49233,0.58117,-0.92764,0
-0.8347,0.35135,-0.37783,0.093393,1
0.50105,0.75731,0.7958,-0.88717,0
-0.37318,-0.44912,0.025027,0.74001,1
-0.44512,-0.71086,0.8848,0.94598,1
-0.44916,0.97281,0.81333,-0.43971,0
-0.63069,0.19943,-0.34372,0.80656,1
-0.1284,0.91132,0.29637,-0.28972,0
-0.46638,-0.74134,0.46875,-0.076765,1
-0.23482,0.402,0.90872,-0.07494,0
-0.85026,-0.91544,0.11754,0.33111,1
0.036542,0.77274,0.25484,-0.93409,0
-0.69579,0.10205,0.54504,-0.032731,1
0.062857,0.73324,0.62537,-0.89796,0
-0.91671,-0.0869,0.34863,0.75049,1
0.64025,0.97514,0.92495,-0.9372,0
-0.48699,0.17834,0.70309,0.2428,1
-0.15926,-0.72825,-0.029836,0.13119,1
0.48662,0.42437,0.57856,-0.53589,0
0.39019,0.45363,0.95405,-0.4674,0
0.00014339,0.15706,0.9992,-0.33021,0
-0.007949,-0.17347,0.78433,-0.63712,0
0.90207,0.85074,0.29119,-0.85869,0
-0.25074,0.72393,0.6579,-0.322,0
0.71909,0.61385,0.082375,-0.26184,0
-0.66144,-0.94715,-0.72381,0.98998,1
-0.39504,0.46681,0.29457,-0.3041,0
-0.62259,-0.3195,0.31805,0.43641,1
-0.38705,-0.94661,0.87703,0.71485,1
-0.64353,0.88585,0.49482,-0.97221,0
-0.17255,-0.25893,0.48919,-0.20552,0
-0.3152,0.70673,0.32643,-0.53455,0
-0.47338,-0.18744,0.14237,0.22031,1
-0.43923,0.93051,0.15516,-0.92079,0
0.99024,0.96827,0.79458,-0.16365,0
-0.82141,0.075911,-0.72328,0.35257,1
0.36961,0.74779,0.65158,-0.16985,0
-0.45901,0.74305,0.94544,-0.080668,0
-0.7925,0.31739,0.75845,-0.13477,1
-0.69392,-0.73917,0.96315,-0.13167,1
-0.028948,-0.30671,0.35733,-0.67058,0
-0.029551,-0.97334,0.23704,0.88655,1
-0.52757,-0.23569,0.088105,0.76059,1
-0.2407,0.050858,0.32973,-0.17932,0
-0.30112,-0.20418,0.64177,0.73929,1
-0.63831,-0.86026,0.72184,0.40819,1
0.8241,0.68656,0.54482,-0.72905,0
-0.11069,0.44827,0.87786,-0.89136,0
0.64594,0.89224,0.5092,-0.77911,0
-0.31454,-0.51403,0.6755,0.33337,1
-0.8927,-0.71067,-0.93314,0.47206,1
0.64999,0.80564,0.53839,-0.51377,0
-0.35146,-0.48414,-0.49873,0.73187,1
0.88032,0.58169,0.64096,-0.34948,0
-0.21592,-0.030979,0.50109,-0.9657,0
-0.91361,-0.34207,0.46672,0.020196,1
-0.10105,0.61791,0.51542,-0.79435,0
0.036982,0.81327,0.10779,-0.63109,0
-0.68407,0.52495,-0.71451,0.55421,1
-0.81647,-0.67127,0.53973,0.36546,1
0.94573,0.26765,0.079654,-0.56509,0
-0.46257,-0.71919,0.92996,-0.042072,1
-0.35332,-0.35576,0.57189,0.15141,1
-0.99512,-0.51233,0.37511,0.11648,1
-0.36548,-0.94789,0.56042,0.43611,1
0.12589,0.97205,0.4721,-0.24441,0
-0.74973,-0.94016,0.031762,0.9782,1
0.88706,0.6951,0.83206,-0.52965,0
0.2249,-0.0019905,0.59464,-0.65596,0
0.91478,0.78249,0.25077,-0.78103,0
-0.55403,0.63014,0.54532,-0.99818,0
-0.34063,0.21925,0.20969,-0.68937,0
-0.79423,-0.49504,-0.29367,0.15489,1
-0.70721,-0.28581,0.31655,0.50054,1
0.93414,0.34353,0.31677,-0.25589,0
-0.84097,0.053698,0.44987,0.74058,1
-0.0049362,-0.16613,0.665,-0.0984,0
0.77793,0.57068,0.5542,-0.41012,0
0.14094,0.069821,0.94844,-0.41604,0
0.23585,0.24296,0.68135,-0.80408,0
-0.27904,0.36152,0.6232,-0.85558,0
0.84538,0.54473,0.64144,-0.7085,0
0.27135,0.33916,0.49216,-0.87073,0
0.051201,0.76481,0.1816,-0.67255,0
-0.15264,-0.057203,0.74238,-0.075856,0
0.62746,0.94785,0.082018,-0.96914,0
0.03834,0.041069,0.12971,-0.16339,0
-0.20097,-0.20493,0.68101,-0.84661,0
-0.041368,-0.46384,0.095188,-0.67505,0
-0.37117,0.47087,0.39071,-0.60858,0
