@RELATION stream2

@ATTRIBUTE a1 numeric
@ATTRIBUTE a2 numeric
@ATTRIBUTE a3 numeric
@ATTRIBUTE a4 numeric
@ATTRIBUTE class {0,1}

@DATA
-0.97877,-0.678,-0.64396,0.080856,0
0.39819,-0.59081,-0.49021,0.55596,1
-0.8006,0.23426,-0.9439,0.18296,0
0.81484,-0.5071,-0.50306,0.41383,1
-0.32455,0.21463,-0.36916,-0.95114,0
-0.36674,0.33412,-0.14706,-0.19886,0
0.27604,-0.39334,-0.86933,0.87624,1
-0.85139,0.21825,-0.64274,-0.94082,0
0.41649,-0.44452,-0.76852,0.38256,1
0.59359,0.41583,-0.067749,0.60678,1
0.59806,-0.3005,-0.74015,0.78415,1
0.75084,-0.17518,0.058609,0.26619,1
-0.83685,0.54292,-0.2813,0.20633,0
0.932,-0.36534,-0.017245,0.93981,1
-0.3861,0.21622,-0.5219,-0.055847,0
-0.96335,0.91842,-0.87078,-0.76494,0
0.79947,0.23362,-0.016248,0.70179,1
-0.33304,0.64546,-0.60793,-0.47554,0
-0.13215,-0.22478,-0.98832,0.8164,1
-0.32343,-0.028364,-0.98405,-0.34638,0
-0.50923,0.3842,-0.30124,-0.39398,0
-0.6291,-0.072565,-0.84847,-0.4062,0
0.13551,-0.58594,-0.20903,0.3011,1
-0.38743,0.57684,-0.49329,-0.28404,0
0.43857,-0.37177,0.035762,0.93789,1
-0.0056325,-0.052258,-0.23673,0.46928,1
-0.087011,0.64163,-0.71419,-0.50303,0
-0.086055,-0.85943,-0.20011,0.77605,1
-0.03914,0.34276,-0.58307,-0.66075,0
-0.77028,0.81935,-0.43651,-0.52533,0
0.32783,-0.70045,-0.0055016,0.90853,1
-0.57888,0.92203,-0.42044,-0.019094,0
-0.74684,0.11157,-0.84327,-0.82057,0
0.70822,-0.71284,-0.10604,0.89654,1
0.71201,-0.95416,-0.062207,0.10484,1
0.30097,-0.89212,-0.031174,0.78726,1
-0.74455,-0.23011,-0.32259,-0.69246,0
-0.2016,-0.57716,-0.79543,0.7301,1
-0.14345,0.33463,-0.24567,-0.34461,0
-0.85428,0.16115,-0.60157,-0.74077,0
0.46524,-0.56456,-0.21021,0.24471,1
0.48282,0.1648,-0.65372,0.50672,1
-0.66321,0.84329,-0.8544,-0.1254,0
0.83322,-0.37667,-0.77681,0.69325,1
0.43284,0.11021,-0.22482,0.78843,1
-0.88201,-0.67961,-0.78519,0.45573,0
0.97879,-0.0022482,-0.86051,0.56905,1
-0.3279,0.077317,-0.32294,-0.10357,0
-0.072469,-0.34598,-0.52615,0.48715,1
-0.93418,0.4411,-0.87894,0.10455,0
0.87161,-0.19988,0.068595,0.59582,1
0.96762,-0.76861,-0.68113,0.70279,1
-0.57481,-0.26613,-0.35129,0.10509,0
0.93067,0.36467,-0.72714,0.36148,1
-0.89119,-0.50259,-0.43707,-0.47356,0
0.7699,0.17088,-0.99796,0.22042,1
-0.89737,-0.70458,-0.62192,0.030281,0
0.033587,-0.35192,-0.74667,0.48961,1
0.54318,-0.95061,-0.27382,0.73342,1
-0.63305,-0.04242,-0.30937,-0.70896,0
-0.40169,-0.14608,-0.50088,-0.86221,0
-0.57194,-0.20832,-0.84396,-0.92176,0
0.71379,0.32084,-0.20607,0.32671,1
0.46218,-0.9937,-0.31118,0.67817,1
0.93719,0.49299,-0.42482,0.5834,1
0.028201,0.24312,-0.84581,-0.95894,0
-0.13459,0.13172,-0.42225,-0.8993,0
-0.67949,0.91556,-0.88886,-0.95583,0
0.91071,-0.56901,0.10478,0.75859,1
0.23427,-0.87867,-0.46808,0.80025,1
0.98162,-0.087297,-0.64712,0.79537,1
0.73792,-0.52198,-0.58048,0.7209,1
-0.77382,-0.060464,-0.29055,-0.98204,0
-0.51673,-0.2998,-0.889,-0.28024,0
0.77378,-0.30342,0.045653,0.76453,1
-0.55635,-0.25657,-0.30536,-0.40991,0
-0.64808,0.77679,-0.62975,0.077862,0
0.77967,-0.49051,-0.31298,0.68835,1
0.58227,-0.74522,-0.53117,0.7545,1
-0.66532,-0.1208,-0.97958,-0.59537,0
-0.34969,-0.16347,-0.99707,0.18565,0
-0.45788,0.013185,-0.95074,0.14463,0
0.6509,0.31819,-0.60969,0.4035,1
0.11803,-0.75104,-0.28097,0.33328,1
-0.82876,-0.15919,-0.11641,-0.027937,0
0.58794,-0.31274,-0.79462,0.70667,1
-0.1182,-0.085172,-0.52535,0.12103,0
-0.14081,-0.073242,-0.85395,-0.42978,0
0.39087,0.069227,-0.96962,0.25769,1
0.40954,-0.16425,-0.25075,0.49758,1
0.41087,-0.47152,-0.83086,0.51375,1
0.97636,0.32015,-0.7454,0.48815,1
0.70744,0.34058,-0.96307,0.74682,1
0.79496,-0.097721,0.045362,0.51525,1
-0.42845,-0.11682,-0.28836,-0.44263,0
0.97019,-0.80754,-0.66633,0.30941,1
-0.54761,0.34095,-0.20368,-0.52521,0
-0.78248,0.55225,-0.12766,0.022589,0
0.61173,0.1292,-0.66813,0.2741,1
0.4132,0.16427,-0.33909,0.24328,1
-0.0077959,0.2757,-0.13246,-0.17871,0
0.36878,-0.56985,-0.0032245,0.89739,1
0.94352,0.38518,-0.51514,0.7979,1
0.69377,-0.51577,0.073647,0.70325,1
-0.5532,0.57985,-0.69876,-0.097744,0
-0.82833,-0.099405,-0.48275,-0.80628,0
-0.58959,0.71394,-0.98976,-0.12499,0
0.3531,-0.090117,-0.11446,0.43909,1
-0.74678,-0.32904,-0.50095,-0.042717,0
0.76163,-0.31832,-0.28021,0.33118,1
-0.5862,-0.49357,-0.53782,-0.47065,0
-0.54533,-0.35141,-0.39621,-0.27494,0
0.7588,-0.33331,-0.83782,0.91393,1
-0.22573,0.48282,-0.54786,-0.7984,0
0.071495,0.44386,-0.69529,-0.40886,0
-0.70186,-0.11435,-0.56722,0.3414,0
-0.73666,-0.24537,-0.90884,-0.14076,0
0.10647,-0.99117,-0.88112,0.48545,1
-0.95596,-0.63676,-0.30868,-0.72557,0
0.45643,-0.4318,-0.92969,0.43558,1
-0.67371,0.88118,-0.44237,-0.74093,0
0.12415,-0.23549,-0.89451,0.36138,1
0.50365,0.28081,-0.034091,0.5398,1
-0.57779,0.95205,-0.36692,-0.68341,0
0.020263,0.38603,-0.21624,-0.71194,0
0.61039,0.057707,-0.28957,0.74922,1
0.64788,0.60169,-0.93895,-0.93178,0
-0.064305,0.071211,-0.52312,-0.35263,0
0.84331,0.016446,-0.20778,0.79922,1
0.95985,-0.58731,-0.071002,0.64947,1
0.08062,0.12015,-0.98785,-0.38483,0
0.7669,0.29981,-0.058711,0.44292,1
0.087931,0.33717,-0.78313,-0.496,0
-0.55681,0.077587,-0.9743,-0.46331,0
0.29833,-0.38461,0.010375,0.89283,1
-0.73344,0.69398,-0.79436,-0.22454,0
-0.60093,0.83826,-0.63624,-0.95616,0
-0.1507,-0.33647,-0.42506,0.87498,1
-0.86945,-0.18893,-0.74657,-0.40956,0
0.80098,-0.096869,-0.39588,0.97973,1
-0.60396,-0.17949,-0.70895,-0.77288,0
-0.78662,0.45003,-0.66905,-0.2272,0
0.34262,-0.70616,-0.74362,0.61963,1
0.73197,-0.29816,-0.2738,0.96839,1
0.035736,-0.67052,-0.7754,0.37063,1
0.40754,-0.68224,-0.23138,0.9142,1
-0.56664,0.040294,-0.17087,-0.60984,0
0.51078,-0.55461,-0.75983,0.30417,1
0.55148,0.88523,-0.98813,-0.8368,0
0.0096144,0.24695,-0.57297,-0.53198,0
0.73523,-0.70547,-0.60234,0.70039,1
-0.084969,0.43221,-0.91873,-0.65494,0
0.035486,-0.40597,-0.34608,0.96449,1
-0.78906,-0.1918,-0.34369,0.079999,0
-0.23509,0.37282,-0.34641,-0.26618,0
-0.42023,-0.91247,-0.51126,0.93289,1
0.58967,0.44849,-0.89765,-0.51244,0
-0.91714,-0.36399,-0.24988,0.080443,0
0.040075,-0.68107,-0.12679,0.68594,1
0.5174,0.16307,-0.19141,0.9504,1
0.26763,-0.56255,-0.087812,0.80079,1
-0.20592,-0.099416,-0.64841,-0.39286,0
-0.48442,-0.30193,-0.61068,-0.24292,0
0.68922,0.28809,-0.47381,0.36023,1
0.73104,0.10918,-0.4136,0.42597,1
-0.72773,-0.67473,-0.92175,-0.99904,0
0.27639,-0.81192,-0.71258,0.84908,1
-0.56172,0.018547,-0.94848,-0.67357,0
-0.78297,-0.37499,-0.89511,0.23447,0
0.95576,-0.37638,-0.30747,0.91068,1
-0.67039,0.2342,-0.84304,-0.3647,0
-0.27139,0.37831,-0.88834,-0.070798,0
0.85797,0.23999,-0.83861,0.56835,1
0.45804,-0.22386,-0.0031595,0.16821,1
0.89346,-0.026575,-0.63467,0.52225,1
0.78736,-0.22665,-0.93261,0.8594,1
-0.63652,-0.51048,-0.10137,-0.24276,0
-0.7749,0.3307,-0.24003,-0.058691,0
0.58127,-0.90123,-0.031496,0.056548,1
0.95604,-0.42553,-0.67968,0.68572,1
-0.64312,-0.34919,-0.29192,-0.78752,0
0.27843,-0.0024312,-0.87099,0.84275,1
-0.65667,0.40298,-0.49771,0.12744,0
-0.79857,0.10853,-0.30318,-0.745,0
-0.94459,0.15603,-0.38825,-0.15715,0
-0.72255,-0.30458,-0.62891,-0.24593,0
-0.52651,0.53689,-0.96642,-0.8192,0
0.018906,0.096314,-0.37168,-0.6346,0
0.25587,-0.79046,-0.99041,0.33283,1
-0.93964,0.66179,-0.75103,-0.87324,0
-0.31827,-0.90539,-0.46311,0.94787,1
-0.77022,0.41934,-0.31339,-0.97787,0
0.12461,-0.91477,-0.17774,0.88434,1
0.96009,-0.37962,-0.66626,0.47158,1
-0.66371,-0.46748,-0.39561,0.19025,0
0.40498,-0.86704,-0.83914,0.30182,1
0.014821,-0.42382,-0.10567,0.60383,1
0.62348,-0.17546,-0.55977,0.59012,1
-0.14575,0.52186,-0.55039,-0.44212,0
0.14387,0.025133,-0.195,0.16792,1
0.92771,0.87973,0.89468,0.87434,1
-0.14238,-0.38388,0.43483,0.92501,0
0.36004,-0.44007,0.2081,0.69943,0
0.35241,0.43112,0.48694,0.85838,1
-0.060021,0.63935,0.9385,-0.30002,1
0.59359,0.41583,-0.067749,0.60678,0
0.75084,-0.17518,0.058609,0.26619,0
0.061162,0.82596,0.88768,0.86917,1
0.4732,0.63802,0.16409,-0.10452,1
0.33792,-0.37541,0.77711,0.44365,0
0.62279,0.059204,0.4429,0.057994,0
0.932,-0.36534,-0.017245,0.93981,0
0.79947,0.23362,-0.016248,0.70179,0
0.49489,0.36352,0.92504,-0.9117,1
0.72521,0.36333,0.87197,0.97929,0
-0.2425,0.9916,0.23871,0.39008,1
0.54491,-0.10152,0.29446,0.73414,0
0.51404,0.32261,0.57334,0.46817,0
0.43857,-0.37177,0.035762,0.93789,0
-0.039877,0.77456,0.78046,0.61438,1
0.45294,-0.82307,0.81384,0.59893,0
-0.22902,0.97958,0.43506,-0.45919,1
0.98968,-0.51464,0.93457,0.89006,0
-0.15495,0.7323,0.26538,0.34945,1
0.30501,-0.10353,0.20562,0.086874,0
0.50259,-0.19714,0.51975,0.65835,0
-0.11342,0.5548,0.17892,0.16227,1
0.90121,-0.057986,0.60887,0.04984,0
0.46364,0.81927,0.2447,0.91352,1
0.29034,0.57899,0.70837,-0.26457,1
0.84971,-0.26162,0.79772,0.8046,0
0.61871,-0.46581,0.8259,0.43253,0
0.57724,0.61141,-0.25031,0.62139,1
0.22893,-0.48946,0.29516,0.63785,0
0.4867,0.84632,0.76327,0.60285,1
0.45202,0.81561,0.57054,-0.86785,1
0.49393,-0.65417,0.4435,0.15939,0
0.30279,0.92012,0.44149,0.24588,1
0.64758,0.12187,0.43331,0.32051,0
0.90003,-0.60845,0.77819,0.52404,0
0.10576,-0.0272,0.627,0.77198,0
-0.54829,0.87911,0.8905,-0.079507,1
0.57221,0.25933,0.56552,0.15259,0
0.95224,0.14652,0.90306,0.58492,0
0.87161,-0.19988,0.068595,0.59582,0
0.44532,0.3406,0.56318,0.47686,1
0.057328,0.45625,0.31492,0.72746,1
0.97268,0.063924,0.76705,0.57975,0
0.60738,0.7575,0.92347,0.50515,1
-0.26371,0.90972,0.38293,-0.32274,1
0.54025,0.77827,0.04645,0.79932,1
0.73584,0.25323,0.92535,0.76932,0
0.75284,0.47607,0.67092,0.6354,0
0.68803,0.058948,0.325,0.55912,0
0.68763,-0.39438,0.80967,0.70999,0
0.36121,0.5353,0.3468,-0.45343,1
0.33201,0.11361,0.98114,0.21645,0
0.56152,-0.054492,0.45921,0.89591,0
0.017396,-0.30267,0.36411,0.57747,0
0.13782,-0.15778,0.73194,0.70204,0
0.23924,0.80732,0.23384,0.8745,1
0.91071,-0.56901,0.10478,0.75859,0
0.3637,0.78926,0.39492,-0.14955,1
0.38858,-0.90063,0.45399,0.668,0
0.81955,0.49222,0.89066,0.97873,0
0.24831,0.42279,-0.0015787,0.79501,1
0.11401,-0.018474,0.30844,0.60043,0
0.43633,0.8444,-0.15847,0.64939,1
0.69358,0.85701,0.085206,0.16581,1
0.77378,-0.30342,0.045653,0.76453,0
0.79208,-0.21566,0.89744,0.85141,0
0.44876,0.40819,0.39915,0.1823,1
0.63345,0.40844,0.84426,0.062267,0
0.79569,0.092701,0.61041,0.57178,0
0.30586,0.43477,0.72328,0.39192,1
0.83169,0.4032,0.33126,0.29057,0
0.96551,-0.05959,0.68552,0.18991,0
0.071153,0.74255,0.2734,-0.040652,1
0.15721,0.35133,0.9427,0.83001,1
-0.16654,0.70822,0.67942,-0.51755,1
0.17378,0.63478,0.67647,-0.75779,1
0.38236,0.14175,0.87822,0.8657,0
0.72288,0.92318,-0.040082,0.96013,1
0.19375,-0.26938,0.61365,0.41694,0
0.28388,0.93772,0.0038247,0.047939,1
0.99647,0.95802,0.75284,-0.94955,1
-0.64048,0.95691,0.71338,-0.030209,1
0.79245,0.894,-0.42717,0.87235,1
0.79496,-0.097721,0.045362,0.51525,0
0.37893,0.033299,0.42327,0.2495,0
0.087439,0.60513,0.014617,0.019528,1
0.40495,0.27162,0.28349,0.15655,0
0.33968,0.9084,0.41699,0.82602,1
-0.085433,0.86561,0.26774,0.62143,1
0.041529,0.19108,0.24713,0.031193,1
0.66487,0.24782,0.93271,0.027103,0
0.69377,-0.51577,0.073647,0.70325,0
0.75065,0.61848,0.71065,-0.38446,1
0.4189,0.90494,0.85304,0.92164,1
0.98357,-0.6745,0.20559,0.081278,0
0.79346,0.52853,0.24588,0.69071,0
0.78935,0.60013,0.60036,-0.47087,1
0.099557,0.53759,0.24764,0.59145,1
0.89765,0.0075825,0.26494,0.84099,0
0.1773,-0.60226,0.93661,0.3441,0
0.62457,0.55019,0.54684,0.39902,1
0.41286,0.61661,0.60676,0.57395,1
0.5572,-0.13122,0.44344,0.23333,0
0.46021,0.7628,0.049749,0.24682,1
0.50365,0.28081,-0.034091,0.5398,0
0.61176,0.19072,0.38232,0.75563,0
0.17185,0.23181,0.48083,-0.057172,1
0.86143,0.085993,0.98405,0.51456,0
-0.025715,0.79045,0.41298,0.31466,1
-0.16226,0.13411,0.83157,-0.10297,1
0.54207,0.84922,0.58611,0.54713,1
0.65704,0.86695,0.91113,-0.40972,1
0.28608,-0.82672,0.74636,0.62455,0
0.37751,0.21459,0.71891,0.77477,0
0.67965,0.96096,0.59125,0.2269,1
0.12972,-0.50669,0.93645,0.31061,0
0.046611,0.25542,0.15305,0.041958,1
0.7669,0.29981,-0.058711,0.44292,0
0.80112,-0.12314,0.55059,0.11471,0
0.4495,0.1897,0.4348,0.76789,0
0.6787,0.055046,0.86671,0.83744,0
0.73726,0.18524,0.20794,0.64296,0
0.61956,0.01465,0.21202,0.80407,0
0.32049,0.56429,0.39269,0.63967,1
0.25558,-0.74546,0.31077,0.83552,0
0.28073,-0.059714,0.66322,0.46343,0
0.10009,0.61224,0.75135,0.30367,1
0.57655,-0.18925,0.71222,0.94744,0
0.051984,-0.30621,0.64615,0.98472,0
0.78493,-0.011764,0.85989,0.65618,0
0.6814,0.65046,0.6736,0.34929,1
0.38307,-0.57589,0.2832,0.94284,0
0.76072,0.72972,0.94353,-0.36816,1
0.028143,0.88292,0.33326,-0.19897,1
0.017831,0.68394,0.94321,-0.3241,1
0.61738,-0.040425,0.74632,0.68121,0
0.60273,0.70275,0.84685,-0.55384,1
0.4363,-0.011317,0.13759,0.31054,0
-0.18194,0.8271,0.95581,0.088426,1
0.31648,0.48624,0.19788,-0.10802,1
0.69316,-0.092061,0.64587,0.44936,0
0.31274,-0.39357,0.93219,0.55507,0
0.73241,-0.59057,0.34356,0.28524,0
-0.15176,0.99853,0.061332,0.14548,1
-0.085428,0.5513,0.23877,0.15777,1
0.26139,-0.32466,0.48722,0.70019,0
0.36218,0.89503,0.93131,-0.65161,1
0.069928,-0.53704,0.94324,0.79463,0
0.9635,0.23602,0.97755,0.71443,0
0.78544,-0.87682,0.4709,0.2288,0
0.19228,0.81815,0.904,-0.022982,1
0.68887,0.078111,0.72735,0.9392,0
0.28786,-0.053475,0.1382,0.36871,0
0.46639,0.01873,0.84924,0.035791,0
0.57217,0.23027,0.99102,0.74955,0
0.24812,-0.61818,0.94785,0.53078,0
0.21625,0.30925,0.32696,-0.015645,1
0.34316,0.48111,0.70202,-0.76888,1
0.89218,-0.078396,0.50784,0.28949,0
-0.081816,0.7751,0.76212,-0.55964,1
0.035907,0.34774,0.58249,0.37645,1
0.50619,-0.87141,0.9612,0.45138,0
0.50945,-0.44469,0.20488,0.98256,0
0.93933,0.90226,0.39977,-0.32229,1
0.24431,0.12833,0.10942,0.85812,0
0.40749,-0.61324,0.33827,0.79481,0
0.56404,-0.90364,0.86161,0.32617,0
0.36006,-0.26677,0.31052,0.83944,0
0.7813,0.89076,0.99501,-0.34469,1
0.40686,-0.81353,0.69383,0.49245,0
-0.021957,0.50061,0.69254,0.37859,1
0.70214,0.96398,0.71196,0.43776,1
0.65125,0.59593,0.92779,-0.7186,1
0.91082,-0.40026,0.17224,0.48781,0
-0.057835,0.0044478,0.95115,-0.080135,1
0.89227,0.52498,0.15118,0.22464,0
0.011818,0.63972,0.41121,-0.35392,1
-0.03309,0.66687,0.74228,-0.75903,1
0.13856,0.2633,0.25938,0.82386,1
0.43714,0.39385,0.72405,0.40927,1
0.39563,0.84878,0.033472,0.98178,1
0.036341,0.55251,0.53723,-0.41099,1
0.81274,0.82165,0.21964,0.56073,1
0.031266,0.60046,0.49128,0.51965,1
0.044867,0.6523,0.96532,-0.98587,1
0.24328,0.24229,0.052891,0.13659,1
0.35093,0.64618,0.96745,0.65729,1
-0.073078,0.88617,0.92851,0.17284,1
-0.35405,0.96088,0.41351,0.63639,1
0.28632,0.72444,0.58893,0.88951,1
0.79447,0.82114,0.40587,-0.13951,1
0.91631,0.99876,0.76839,0.44234,1
0.22279,0.68598,0.50649,0.1454,1
0.28985,0.80616,0.67306,0.70673,1
-0.13791,0.92271,0.76665,0.69118,1
0.92771,0.87973,0.89468,0.87434,0
0.48817,-0.71604,-0.036468,0.089173,1
0.96896,-0.5866,-0.25068,-0.07326,1
0.0083593,0.99797,0.26095,0.81934,0
-0.58409,0.76071,0.41427,0.44686,0
0.4887,-0.15359,-0.24836,-0.45743,1
0.52772,-0.35473,0.025528,-0.042604,1
-0.11103,0.38301,0.43834,0.55603,0
0.5542,-0.51552,-0.64866,-0.11038,1
0.76022,-0.87918,-0.85659,-0.54152,1
-0.41405,0.771,0.088792,0.40373,0
0.92266,-0.52385,-0.093562,-0.037779,1
0.70409,-0.90183,0.77992,-0.94476,1
0.7692,0.31493,0.2867,-0.86447,1
0.20557,0.10435,0.06116,0.82613,0
-0.017243,0.93962,0.3541,0.53776,0
0.89443,-0.4498,-0.32296,-0.040771,1
-0.05658,0.53544,0.64257,0.032137,0
-0.099171,-0.14559,0.038883,0.40209,0
0.55324,0.51096,0.29966,-0.67192,1
-0.94328,0.18479,0.78962,0.14601,0
-0.46245,0.75382,0.26328,0.62731,0
-0.61097,0.83981,0.82405,0.98973,0
0.29446,0.73397,0.73235,0.90295,0
-0.23673,0.46914,0.35282,0.70042,0
-0.039877,0.77456,0.78046,0.61438,0
0.38813,0.53731,0.3762,0.85297,0
0.65445,-0.7419,0.32807,-0.31293,1
-0.20011,0.77588,-0.039143,0.34289,0
-0.11083,0.070657,0.72265,0.39566,0
0.76544,-0.48234,-0.8796,-0.91989,1
-0.15495,0.7323,0.26538,0.34945,0
0.89049,-0.80946,0.81937,-0.74605,1
0.71201,-0.95416,-0.062207,0.10484,1
0.43229,-0.55521,-0.014859,-0.28297,1
0.39299,0.58672,0.46585,0.91486,0
0.55681,-0.35835,0.049148,-0.93583,1
0.19335,-0.832,0.75359,-0.71922,1
-0.58132,0.95035,0.97912,0.54387,0
0.72479,-0.92352,-0.34673,-0.58498,1
0.81152,0.34385,0.27789,-0.23819,1
0.37097,-0.49326,-0.58667,-0.78295,1
-0.16581,0.077943,0.54219,0.39737,0
0.37172,-0.072518,-0.74456,-0.23003,1
-0.79542,0.72994,-0.14346,0.33475,0
-0.71117,0.59333,0.17746,0.83932,0
0.54526,-0.41194,0.69491,-0.95018,1
0.37361,-0.30401,-0.47722,-0.1024,1
0.35786,-0.32755,-0.332,-0.41134,1
-0.032728,-0.92612,0.57111,-0.95812,1
0.73191,-0.14814,-0.45355,-0.86876,1
-0.046915,0.65664,0.11011,0.69754,0
0.8905,-0.079599,0.42661,-0.69811,1
-0.69523,0.64968,0.46926,0.12171,0
0.90443,0.096335,-0.27986,-0.7373,1
0.61275,-0.12161,-0.14212,0.098488,1
-0.98043,0.95344,0.95224,0.14663,0
0.043759,-0.38197,0.13069,0.45983,0
0.075645,0.8567,0.3934,0.57491,0
-0.99796,0.22031,0.70459,0.17231,0
0.56319,0.47672,-0.38071,-0.8068,1
0.057328,0.45625,0.31492,0.72746,0
0.38455,-0.42839,-0.88176,-0.99885,1
0.82934,-0.83074,0.44319,-0.96793,1
-0.56734,0.96105,0.48111,0.46971,0
0.46524,-0.87079,0.91258,-0.89304,1
0.60738,0.7575,0.92347,0.50515,0
0.35293,-0.023169,-0.11951,-0.23408,1
0.65788,-0.18774,0.52142,-0.32668,1
-0.97335,0.58727,-0.024629,0.8507,0
0.716,-0.18971,-0.097873,-0.75911,1
0.80057,0.22955,-0.084301,-0.21871,1
-0.34783,0.36138,0.40433,0.67425,0
0.27559,-0.61248,-0.34246,-0.1844,1
0.13198,0.78357,0.73584,0.25335,0
-0.50085,0.70753,0.045167,0.68257,0
0.30741,-0.14863,0.79363,-0.89668,1
-0.11045,0.13123,0.30282,0.81207,0
0.36982,0.6395,0.52015,0.43584,0
0.33201,0.11361,0.98114,0.21645,0
-0.2637,-0.13491,0.028199,0.24324,0
0.10478,0.75842,0.42255,0.66074,0
0.51541,-0.98883,-0.45737,-0.56543,1
-0.9701,0.83845,0.083599,0.025627,0
-0.49704,0.85963,0.92091,0.49674,0
0.79357,-0.27368,0.704,-0.957,1
0.017788,0.68248,0.14472,0.21469,0
0.93842,-0.34942,-0.42403,-0.25538,1
0.37535,-0.56446,-0.70232,-0.1532,1
0.12582,0.16084,0.050572,0.59609,0
0.074131,0.49397,0.78976,0.4956,0
-0.89095,0.36233,-0.089695,0.46886,0
-0.85395,0.58456,0.79157,0.05639,0
0.50662,0.83683,0.18759,0.55939,0
-0.8536,0.44415,0.087888,0.87842,0
-0.12818,-0.1282,0.13035,0.56703,0
0.10041,-0.6963,0.75158,-0.94287,1
-0.10715,0.63405,0.18414,0.94825,0
0.2724,-0.34851,-0.34725,-0.46092,1
-0.041026,-0.11503,0.15721,0.35147,0
-0.28097,0.33315,0.40733,0.08778,0
0.67973,-0.67639,-0.82877,-0.1591,1
0.44089,-0.9386,-0.1182,-0.085081,1
-0.16779,0.94838,-0.060432,0.42013,0
0.19375,-0.26938,0.61365,0.41694,0
0.43619,0.50328,0.4147,0.5074,0
0.44817,0.2962,0.55347,-0.90345,1
-0.69051,0.67729,0.13961,0.88639,0
0.29744,-0.0076713,0.49645,0.64945,0
0.62787,-0.45636,-0.95552,-0.51236,1
0.44988,-0.90247,0.66289,-0.67383,1
0.2293,-0.66555,0.0099214,-0.5073,1
0.91181,-0.28013,-0.26119,-0.56931,1
-0.28806,0.49769,0.036927,0.99744,0
0.54001,0.66984,0.88703,0.44382,0
0.33968,0.9084,0.41699,0.82602,0
-0.085433,0.86561,0.26774,0.62143,0
0.041529,0.19108,0.24713,0.031193,0
0.71702,0.22379,-0.72972,-0.8895,1
0.1888,-0.85267,-0.019271,-0.81525,1
0.31389,-0.77751,-0.50005,-0.75223,1
-0.23046,-0.2369,0.93231,0.71523,0
-0.22123,-0.11211,0.75065,0.61864,0
0.22491,-0.71429,-0.34836,-0.46053,1
-0.18227,-0.2026,0.53757,0.17451,0
0.4189,0.90494,0.85304,0.92164,0
0.74127,-0.028807,0.61516,-0.60689,1
-0.83781,0.91375,0.099555,0.53774,0
-0.86979,0.99436,-0.17405,0.93228,0
-0.49536,0.56265,0.37302,0.61846,0
0.70511,-0.89871,0.81451,-0.6128,1
0.53954,-0.99843,0.095781,-0.52686,1
0.69816,-0.25691,-0.70186,-0.11426,1
-0.21466,0.67622,-0.072653,0.46609,0
0.41286,0.61661,0.60676,0.57395,0
0.67993,-0.59443,-0.65982,-0.41555,1
0.48083,-0.057266,0.56075,-0.77274,1
0.37949,-0.78721,0.25008,-0.91027,1
-0.96387,0.95055,0.91858,0.35655,0
0.65723,-0.94952,-0.41736,-0.95316,1
0.051641,-0.76505,0.78765,-0.54718,1
-0.025715,0.79045,0.41298,0.31466,0
0.59626,-0.55179,-0.034606,-0.43478,1
0.052638,-0.60643,0.10517,-0.086948,1
-0.14267,-0.26786,0.64788,0.60185,0
0.48683,-0.45257,-0.71497,-0.23113,1
-0.0018505,0.19561,0.58092,0.43756,0
0.54207,0.84922,0.58611,0.54713,0
0.79608,-0.91542,0.27852,-0.94023,1
-0.0040277,-0.43816,0.83827,0.77091,0
0.23964,0.42736,0.90416,0.28467,0
0.74636,0.62439,0.87379,0.62866,0
-0.25654,0.74445,0.31533,0.93443,0
0.71891,0.7746,0.67965,0.96115,0
0.59125,0.22678,0.12972,-0.50664,1
0.83225,-0.76754,0.48083,-0.3351,1
0.32049,0.56429,0.39269,0.63967,0
0.77022,-0.42817,-0.14337,-0.14267,1
0.0024444,-0.64035,0.081323,-0.15502,1
0.71222,0.94725,0.87463,0.86201,0
0.37636,-0.55178,-0.1616,-0.49459,1
0.051984,-0.30621,0.64615,0.98472,0
0.6736,0.34916,0.38307,-0.57585,1
0.99399,-0.068832,-0.79633,0.030713,1
0.94381,-0.3242,0.08736,-0.017538,1
0.15779,0.12144,0.38342,0.75645,0
-0.25029,0.58098,0.63231,0.81309,0
0.9179,-0.82269,0.84602,-0.61394,1
0.95732,-0.20458,-0.042609,-0.96275,1
-0.60233,0.70023,-0.084972,0.43235,0
0.58487,0.50756,-0.85217,-0.64529,1
0.011142,0.70053,0.2429,0.8809,0
0.27893,-0.33354,0.91483,-0.9278,1
-0.24987,0.080336,0.36247,0.3378,0
0.57658,-0.27327,-0.88837,-0.2587,1
-0.19141,0.95021,0.60273,0.70291,0
0.95581,0.088319,0.50495,-0.56519,1
0.47024,0.28888,-0.20593,-0.099326,1
-0.87782,0.93085,0.70849,0.27008,0
0.30497,-0.16753,-0.90321,-0.83417,1
-0.33089,0.31324,0.25189,0.48815,0
0.76761,-0.21726,0.060542,-0.8818,1
0.31656,0.69684,0.42651,0.71223,0
0.62976,0.26939,-0.33131,-0.77696,1
-0.15176,0.99853,0.061332,0.14548,0
0.79493,0.44918,-0.13175,-0.24037,1
-0.085428,0.5513,0.23877,0.15777,0
0.54488,-0.99874,-0.48417,-0.49996,1
0.35414,0.31557,0.51951,0.67418,0
0.5846,-0.96876,-0.94636,-0.43339,1
0.41362,-0.3535,-0.3811,-0.67694,1
0.25171,0.14598,0.42743,0.29854,0
0.79898,-0.016532,-0.93789,-0.12855,1
0.13014,-0.96973,-0.086193,-0.9652,1
0.33251,-0.71014,0.19121,-0.77196,1
0.85229,-0.68053,0.16338,-0.057857,1
0.35003,-0.46857,-0.50463,-0.98581,1
0.7362,-0.48072,-0.63652,-0.51043,1
0.84924,0.035688,0.98003,-0.82055,1
0.54776,-0.85412,0.15938,-0.56072,1
0.45984,0.77348,-0.91272,-0.084561,1
-0.32455,0.21463,-0.36916,-0.95114,1
-0.067746,0.60662,-0.83594,-0.040744,1
0.10891,0.83352,-0.23927,-0.65505,1
0.058611,0.26607,-0.67801,-0.50752,1
0.70409,-0.90183,0.77992,-0.94476,0
0.7692,0.31493,0.2867,-0.86447,0
0.33792,-0.37541,0.77711,0.44365,0
0.0010729,-0.34774,-0.98605,-0.52519,1
-0.016246,0.70163,-0.60732,-0.048877,1
-0.33304,0.64546,-0.60793,-0.47554,1
0.6362,0.5788,0.56016,0.83591,0
0.20767,0.58257,-0.070201,-0.8846,1
0.55324,0.51096,0.29966,-0.67192,0
0.72521,0.36333,0.87197,0.97929,0
0.23871,0.38995,-0.6055,-0.19551,1
0.43857,-0.37177,0.035762,0.93789,0
0.33473,-0.90379,0.79586,-0.25362,0
-0.087011,0.64163,-0.71419,-0.50303,1
0.65445,-0.7419,0.32807,-0.31293,0
0.45294,-0.82307,0.81384,0.59893,0
0.34614,-0.29082,0.18023,0.87576,0
0.58035,-0.80596,0.83525,0.89504,0
0.89049,-0.80946,0.81937,-0.74605,0
0.28597,-0.30072,0.50259,-0.19706,0
0.072174,-0.93011,0.3433,0.07069,0
0.11002,-0.9931,0.67399,0.29633,0
0.60761,0.86842,-0.27518,-0.44794,1
0.81152,0.34385,0.27789,-0.23819,0
0.84971,-0.26162,0.79772,0.8046,0
0.6368,0.72267,-0.41649,-0.31363,1
0.73979,-0.80128,0.84118,-0.12055,0
-0.048955,-0.58186,-0.69838,-0.6066,1
0.8259,0.43239,0.14533,0.79876,0
0.22893,-0.48946,0.29516,0.63785,0
0.54526,-0.41194,0.69491,-0.95018,0
0.4435,0.15928,0.60809,0.409,0
0.64758,0.12187,0.43331,0.32051,0
-0.20601,0.60104,-0.80984,-0.74641,1
-0.0069937,-0.37594,-0.58981,-0.6746,1
0.77819,0.5239,-0.33471,-0.034927,1
0.8905,-0.079599,0.42661,-0.69811,0
0.030566,0.72388,-0.56664,-0.89048,1
0.67492,-0.031117,0.3338,-0.11929,0
-0.3279,0.077317,-0.32294,-0.10357,1
0.95193,-0.28008,0.70713,-0.14388,0
0.87161,-0.19988,0.068595,0.59582,0
-0.35128,0.10498,-0.93034,-0.55654,1
0.82934,-0.83074,0.44319,-0.96793,0
0.46524,-0.87079,0.91258,-0.89304,0
0.74809,0.57473,-0.81957,-0.019126,1
-0.14497,-0.20173,-0.396,-0.15717,1
0.65788,-0.18774,0.52142,-0.32668,0
0.75284,0.47607,0.67092,0.6354,0
0.84304,-0.80811,0.68803,0.059052,0
0.32501,0.55897,-0.57194,-0.20824,1
-0.13459,0.13172,-0.42225,-0.8993,1
0.54049,-0.038887,0.68083,-0.26352,0
0.38003,-0.91096,0.23573,0.9683,0
0.37043,0.50802,-0.0037309,-0.51073,1
0.38858,-0.90063,0.45399,0.668,0
0.79357,-0.27368,0.704,-0.957,0
-0.059635,0.55148,-0.56943,-0.07937,1
0.25261,0.57587,-0.37041,-0.26552,1
0.56213,0.99297,-0.73637,-0.34569,1
0.54197,0.71927,-0.30054,-0.10888,1
0.54385,0.29317,0.75282,-0.36697,0
0.23347,0.14907,-0.16674,-0.76136,1
0.70837,-0.96363,0.36384,0.35688,0
-0.26742,0.77971,-0.74138,-0.25803,1
0.084791,0.33567,-0.936,-0.20831,1
-0.098434,0.083254,-0.82608,-0.065504,1
0.63345,0.40844,0.84426,0.062267,0
0.79569,0.092701,0.61041,0.57178,0
0.25144,-0.26746,0.30586,0.43491,0
0.83169,0.4032,0.33126,0.29057,0
0.26749,-0.080836,-0.066695,-0.48002,1
-0.070674,-0.19369,-0.99123,-0.90434,1
0.18125,0.68716,-0.72436,-0.046773,1
0.15989,-0.62065,0.49355,0.68073,0
0.94392,0.47165,-0.74912,-0.88531,1
-0.058924,-0.48995,-0.14081,-0.073149,1
0.74159,0.92515,-0.10987,-0.18181,1
-0.080409,0.4222,-0.46795,-0.35711,1
0.44817,0.2962,0.55347,-0.90345,0
0.13065,-0.28113,-1,-0.39251,1
0.79496,-0.097721,0.045362,0.51525,0
0.37893,0.033299,0.42327,0.2495,0
0.44988,-0.90247,0.66289,-0.67383,0
0.15768,-0.86597,0.3656,0.12,0
0.8128,-0.99019,0.34191,-0.096015,0
-0.0077959,0.2757,-0.13246,-0.17871,1
0.66487,0.24782,0.93271,0.027103,0
0.42599,-0.66504,0.46861,0.62746,0
0.71065,-0.38453,0.25063,0.50503,0
0.47189,-0.4057,0.96709,-0.43677,0
0.12402,0.91645,-0.30477,-0.91556,1
0.20559,0.081172,-0.82833,-0.099315,1
0.74127,-0.028807,0.61516,-0.60689,0
-0.11446,0.43895,-0.74678,-0.32897,1
0.76535,0.72976,-0.91473,-0.14146,1
0.89765,0.0075825,0.26494,0.84099,0
-0.22573,0.48282,-0.54786,-0.7984,1
0.62457,0.55019,0.54684,0.39902,0
0.70511,-0.89871,0.81451,-0.6128,0
0.86761,0.60069,-0.61904,-0.13599,1
-0.086527,-0.54521,-0.26872,-0.31187,1
0.022362,-0.69572,0.8835,0.51168,0
0.45572,-0.82396,0.78698,0.20715,0
0.88055,0.37303,-0.36879,-0.17888,1
0.79328,0.51495,-0.17426,-0.87388,1
0.83155,-0.97009,0.40808,0.85187,0
0.48083,-0.057266,0.56075,-0.77274,0
0.020263,0.38603,-0.21624,-0.71194,1
-0.064305,0.071211,-0.52312,-0.35263,1
0.79608,-0.91542,0.27852,-0.94023,0
0.40057,0.46504,-0.16022,-0.50475,1
0.08062,0.12015,-0.98785,-0.38483,1
0.90809,-0.15253,0.30834,-0.095149,0
0.59125,0.22678,0.12972,-0.50664,0
0.087931,0.33717,-0.78313,-0.496,1
0.80112,-0.12314,0.55059,0.11471,0
0.95809,-0.93822,0.44949,0.18981,0
0.30721,-0.59189,0.6787,0.05515,0
0.86671,0.83726,-0.44532,-0.16925,1
0.83225,-0.76754,0.48083,-0.3351,0
0.73726,0.18524,0.20794,0.64296,0
-0.042418,-0.31281,-0.62435,-0.27645,1
0.010378,0.89265,-0.20125,-0.66694,1
-0.029613,0.19355,-0.21266,-0.46015,1
-0.077925,-0.2387,-0.36361,-0.223,1
0.89777,0.82952,-0.57604,-0.51276,1
0.61956,0.01465,0.21202,0.80407,0
-0.60093,0.83826,-0.63624,-0.95616,1
0.39357,-0.19576,0.10008,0.6124,0
0.080728,-0.45887,-0.73004,-0.85763,1
0.78493,-0.011764,0.85989,0.65618,0
0.6736,0.34916,0.38307,-0.57585,0
0.2832,0.94266,-0.84352,-0.53871,1
0.94381,-0.3242,0.08736,-0.017538,0
0.075814,-0.024203,-0.5501,-0.72872,1
0.55148,0.88523,-0.98813,-0.8368,1
0.9179,-0.82269,0.84602,-0.61394,0
0.63135,0.93607,-0.76033,-0.77941,1
0.41779,0.52999,-0.60618,-0.69271,1
0.13024,0.32521,-0.049093,-0.51731,1
0.61738,-0.040425,0.74632,0.68121,0
0.84685,-0.55389,0.4363,-0.011219,0
0.95581,0.088319,0.50495,-0.56519,0
0.65712,0.90951,-0.74553,-0.97675,1
0.73241,-0.59057,0.34356,0.28524,0
0.81059,0.68539,-0.02492,-0.8529,1
-0.27139,0.37831,-0.88834,-0.070798,1
0.26139,-0.32466,0.48722,0.70019,0
0.53506,-0.73257,0.36218,0.89521,0
0.78544,-0.87682,0.4709,0.2288,0
0.68887,0.078111,0.72735,0.9392,0
0.85229,-0.68053,0.16338,-0.057857,0
-0.45718,0.82731,-0.2544,-0.86335,1
0.84924,0.035688,0.98003,-0.82055,0
0.54776,-0.85412,0.15938,-0.56072,0
0.40759,0.89957,-0.072761,-0.048214,1
0.51889,-0.95467,0.78143,-0.75534,0
0.24812,-0.61818,0.94785,0.53078,0
0.74352,0.3162,0.36107,-0.16824,0
0.81297,0.91805,-0.53502,-0.35761,1
0.76239,0.42963,0.43724,-0.3287,0
0.58249,0.37632,0.43171,-0.85673,0
0.6896,-0.96197,0.011355,0.66614,0
0.20488,0.98237,-0.54079,-0.62128,1
-0.52651,0.53689,-0.96642,-0.8192,1
0.65761,-0.16673,0.26932,0.76857,0
0.88453,0.82691,-0.62059,-0.15949,1
0.018906,0.096314,-0.37168,-0.6346,1
0.64655,0.62111,-0.8873,-0.21391,1
0.40749,-0.61324,0.33827,0.79481,0
0.36006,-0.26677,0.31052,0.83944,0
0.25031,0.15361,-0.83698,-0.51405,1
0.65781,-0.95574,0.25467,-0.012667,0
0.90481,-0.54161,0.97507,-0.24919,0
0.66233,-0.26433,0.21244,-0.080676,0
-0.14575,0.52186,-0.55039,-0.44212,1
0.034935,-0.34715,-0.7265,-0.2992,1
-0.31778,0.88974,-0.6163,-0.45397,1
0.88246,0.68014,-0.076196,-0.98719,1
0.68537,0.16247,0.21978,0.051572,0
-0.30037,0.37309,-0.97844,-0.24269,1
-0.34537,0.31316,-0.73269,-0.37049,1
-0.13526,-0.30842,-0.7984,-0.72849,1
0.29293,0.56377,-0.5184,-0.52086,1
0.012942,0.026467,-0.085339,-0.25309,1
0.69928,0.92371,-0.7981,-0.45782,1
0.40498,0.61076,-0.72846,-0.20163,1
0.10596,-0.51515,-0.33191,-0.72624,1
0.13998,-0.27611,-0.24502,-0.98381,1
-0.45004,0.35724,-0.44154,-0.49823,1
-0.1352,-0.44836,-0.61855,-0.18703,1
0.42688,0.27528,-0.23884,-0.22416,1
-0.27424,0.76709,-0.81222,-0.82237,1
0.049283,0.31727,-0.57197,-0.96188,1
0.96896,-0.5866,-0.25068,-0.07326,1
0.39819,-0.59081,-0.49021,0.55596,1
-0.8006,0.23426,-0.9439,0.18296,0
0.81484,-0.5071,-0.50306,0.41383,1
-0.32455,0.21463,-0.36916,-0.95114,0
-0.36674,0.33412,-0.14706,-0.19886,0
0.27604,-0.39334,-0.86933,0.87624,1
-0.22251,-0.46958,-0.93539,0.33967,1
-0.85139,0.21825,-0.64274,-0.94082,0
0.41649,-0.44452,-0.76852,0.38256,1
0.63812,0.4957,-0.24025,-0.78465,0
0.59806,-0.3005,-0.74015,0.78415,1
0.10891,0.83352,-0.23927,-0.65505,0
-0.3861,0.21622,-0.5219,-0.055847,0
0.89443,-0.4498,-0.32296,-0.040771,1
0.64257,0.032035,-0.70497,-0.11245,1
-0.96335,0.91842,-0.87078,-0.76494,0
-0.33304,0.64546,-0.60793,-0.47554,0
-0.13215,-0.22478,-0.98832,0.8164,1
-0.32343,-0.028364,-0.98405,-0.34638,0
-0.50923,0.3842,-0.30124,-0.39398,0
0.91962,0.0052068,-0.78342,-0.044753,1
-0.6291,-0.072565,-0.84847,-0.4062,0
0.13551,-0.58594,-0.20903,0.3011,1
-0.38743,0.57684,-0.49329,-0.28404,0
-0.0056325,-0.052258,-0.23673,0.46928,1
-0.087011,0.64163,-0.71419,-0.50303,0
-0.086055,-0.85943,-0.20011,0.77605,1
-0.03914,0.34276,-0.58307,-0.66075,0
0.7627,0.034459,-0.11083,0.070763,1
-0.77028,0.81935,-0.43651,-0.52533,0
0.32783,-0.70045,-0.0055016,0.90853,1
-0.57888,0.92203,-0.42044,-0.019094,0
-0.74684,0.11157,-0.84327,-0.82057,0
0.70822,-0.71284,-0.10604,0.89654,1
0.71201,-0.95416,-0.062207,0.10484,1
0.4179,0.98246,-0.38958,-0.68797,0
0.30097,-0.89212,-0.031174,0.78726,1
-0.74455,-0.23011,-0.32259,-0.69246,0
0.14534,0.79859,-0.29271,-0.33834,0
-0.2016,-0.57716,-0.79543,0.7301,1
-0.14345,0.33463,-0.24567,-0.34461,0
-0.85428,0.16115,-0.60157,-0.74077,0
0.46524,-0.56456,-0.21021,0.24471,1
0.48282,0.1648,-0.65372,0.50672,1
-0.66321,0.84329,-0.8544,-0.1254,0
0.83322,-0.37667,-0.77681,0.69325,1
0.43284,0.11021,-0.22482,0.78843,1
0.97879,-0.0022482,-0.86051,0.56905,1
-0.3279,0.077317,-0.32294,-0.10357,0
-0.072469,-0.34598,-0.52615,0.48715,1
-0.93418,0.4411,-0.87894,0.10455,0
0.96762,-0.76861,-0.68113,0.70279,1
0.93067,0.36467,-0.72714,0.36148,1
-0.89119,-0.50259,-0.43707,-0.47356,0
0.7699,0.17088,-0.99796,0.22042,1
-0.73423,-0.86156,-0.78177,0.90498,1
0.033587,-0.35192,-0.74667,0.48961,1
0.54318,-0.95061,-0.27382,0.73342,1
-0.63305,-0.04242,-0.30937,-0.70896,0
0.12789,-0.83524,-0.27306,0.21642,1
-0.40169,-0.14608,-0.50088,-0.86221,0
-0.57194,-0.20832,-0.84396,-0.92176,0
0.71379,0.32084,-0.20607,0.32671,1
-0.78043,-0.78939,-0.86516,0.61722,1
0.46218,-0.9937,-0.31118,0.67817,1
0.93719,0.49299,-0.42482,0.5834,1
0.028201,0.24312,-0.84581,-0.95894,0
0.088819,-0.65036,-0.57533,0.076592,1
-0.13459,0.13172,-0.42225,-0.8993,0
0.23573,0.96811,-0.12715,-0.9737,0
-0.61887,-0.72482,-0.58846,0.94699,1
-0.67949,0.91556,-0.88886,-0.95583,0
-0.012939,-0.58899,-0.49888,0.20028,1
0.23427,-0.87867,-0.46808,0.80025,1
0.98162,-0.087297,-0.64712,0.79537,1
0.73792,-0.52198,-0.58048,0.7209,1
-0.77382,-0.060464,-0.29055,-0.98204,0
-0.51673,-0.2998,-0.889,-0.28024,0
0.36384,0.35675,-0.63932,-0.25291,0
-0.13274,-0.76697,-0.89095,0.36246,1
-0.55635,-0.25657,-0.30536,-0.40991,0
-0.64808,0.77679,-0.62975,0.077862,0
0.77967,-0.49051,-0.31298,0.68835,1
0.58227,-0.74522,-0.53117,0.7545,1
-0.66532,-0.1208,-0.97958,-0.59537,0
-0.34969,-0.16347,-0.99707,0.18565,0
0.16175,0.27603,0.06594,-0.93137,0
-0.45788,0.013185,-0.95074,0.14463,0
0.6509,0.31819,-0.60969,0.4035,1
0.11803,-0.75104,-0.28097,0.33328,1
0.58794,-0.31274,-0.79462,0.70667,1
-0.1182,-0.085172,-0.52535,0.12103,0
-0.14081,-0.073242,-0.85395,-0.42978,0
0.39087,0.069227,-0.96962,0.25769,1
0.40954,-0.16425,-0.25075,0.49758,1
0.41087,-0.47152,-0.83086,0.51375,1
0.97636,0.32015,-0.7454,0.48815,1
0.70744,0.34058,-0.96307,0.74682,1
-0.42845,-0.11682,-0.28836,-0.44263,0
0.97019,-0.80754,-0.66633,0.30941,1
-0.54761,0.34095,-0.20368,-0.52521,0
0.88703,0.44368,-0.95008,-0.042203,1
0.3328,-0.057736,-0.56274,-0.0027783,1
0.61173,0.1292,-0.66813,0.2741,1
0.4132,0.16427,-0.33909,0.24328,1
-0.0077959,0.2757,-0.13246,-0.17871,0
-0.61994,0.87178,0.047064,-0.82398,0
0.36878,-0.56985,-0.0032245,0.89739,1
0.94352,0.38518,-0.51514,0.7979,1
-0.5532,0.57985,-0.69876,-0.097744,0
0.12402,0.91645,-0.30477,-0.91556,0
-0.82833,-0.099405,-0.48275,-0.80628,0
-0.58959,0.71394,-0.98976,-0.12499,0
0.3531,-0.090117,-0.11446,0.43909,1
0.76163,-0.31832,-0.28021,0.33118,1
-0.5862,-0.49357,-0.53782,-0.47065,0
-0.54533,-0.35141,-0.39621,-0.27494,0
0.7588,-0.33331,-0.83782,0.91393,1
-0.22573,0.48282,-0.54786,-0.7984,0
0.071495,0.44386,-0.69529,-0.40886,0
-0.73666,-0.24537,-0.90884,-0.14076,0
0.10647,-0.99117,-0.88112,0.48545,1
-0.95596,-0.63676,-0.30868,-0.72557,0
0.45643,-0.4318,-0.92969,0.43558,1
-0.5904,-0.21277,-0.10799,-0.97836,0
-0.67371,0.88118,-0.44237,-0.74093,0
0.12415,-0.23549,-0.89451,0.36138,1
-0.57779,0.95205,-0.36692,-0.68341,0
0.020263,0.38603,-0.21624,-0.71194,0
0.61039,0.057707,-0.28957,0.74922,1
0.64788,0.60169,-0.93895,-0.93178,0
-0.064305,0.071211,-0.52312,-0.35263,0
0.84331,0.016446,-0.20778,0.79922,1
0.95985,-0.58731,-0.071002,0.64947,1
0.08062,0.12015,-0.98785,-0.38483,0
0.087931,0.33717,-0.78313,-0.496,0
-0.55681,0.077587,-0.9743,-0.46331,0
0.29833,-0.38461,0.010375,0.89283,1
-0.73344,0.69398,-0.79436,-0.22454,0
-0.60093,0.83826,-0.63624,-0.95616,0
-0.1507,-0.33647,-0.42506,0.87498,1
-0.86945,-0.18893,-0.74657,-0.40956,0
0.80098,-0.096869,-0.39588,0.97973,1
-0.60396,-0.17949,-0.70895,-0.77288,0
-0.78662,0.45003,-0.66905,-0.2272,0
0.15524,-0.056567,-0.30562,0.03165,1
0.25172,-0.4833,-0.64731,0.015282,1
0.49471,-0.35563,-0.26196,0.035286,1
0.34262,-0.70616,-0.74362,0.61963,1
0.73197,-0.29816,-0.2738,0.96839,1
0.035736,-0.67052,-0.7754,0.37063,1
0.40754,-0.68224,-0.23138,0.9142,1
-0.56664,0.040294,-0.17087,-0.60984,0
0.51078,-0.55461,-0.75983,0.30417,1
0.55148,0.88523,-0.98813,-0.8368,0
0.0096144,0.24695,-0.57297,-0.53198,0
0.73523,-0.70547,-0.60234,0.70039,1
-0.084969,0.43221,-0.91873,-0.65494,0
0.035486,-0.40597,-0.34608,0.96449,1
-0.23509,0.37282,-0.34641,-0.26618,0
-0.42023,-0.91247,-0.51126,0.93289,1
0.58967,0.44849,-0.89765,-0.51244,0
0.040075,-0.68107,-0.12679,0.68594,1
0.13024,0.32521,-0.049093,-0.51731,0
0.5174,0.16307,-0.19141,0.9504,1
0.26763,-0.56255,-0.087812,0.80079,1
-0.20592,-0.099416,-0.64841,-0.39286,0
-0.48442,-0.30193,-0.61068,-0.24292,0
0.68922,0.28809,-0.47381,0.36023,1
0.73104,0.10918,-0.4136,0.42597,1
-0.72773,-0.67473,-0.92175,-0.99904,0
0.6196,0.085457,-0.87612,-0.0018299,1
0.27639,-0.81192,-0.71258,0.84908,1
-0.56172,0.018547,-0.94848,-0.67357,0
0.95576,-0.37638,-0.30747,0.91068,1
-0.67039,0.2342,-0.84304,-0.3647,0
-0.27139,0.37831,-0.88834,-0.070798,0
0.85797,0.23999,-0.83861,0.56835,1
0.45804,-0.22386,-0.0031595,0.16821,1
0.89346,-0.026575,-0.63467,0.52225,1
0.78736,-0.22665,-0.93261,0.8594,1
-0.7749,0.3307,-0.24003,-0.058691,0
0.58127,-0.90123,-0.031496,0.056548,1
0.95604,-0.42553,-0.67968,0.68572,1
0.6968,-0.64956,-0.31444,-0.00069747,1
-0.64312,-0.34919,-0.29192,-0.78752,0
0.27843,-0.0024312,-0.87099,0.84275,1
-0.65667,0.40298,-0.49771,0.12744,0
-0.79857,0.10853,-0.30318,-0.745,0
-0.94459,0.15603,-0.38825,-0.15715,0
-0.72255,-0.30458,-0.62891,-0.24593,0
0.16133,0.64072,-0.080985,-0.6493,0
-0.52651,0.53689,-0.96642,-0.8192,0
0.018906,0.096314,-0.37168,-0.6346,0
-0.93964,0.66179,-0.75103,-0.87324,0
-0.77022,0.41934,-0.31339,-0.97787,0
-0.14575,0.52186,-0.55039,-0.44212,0
-0.7181,0.15039,-0.10169,-0.69003,0
-0.6207,0.035043,-0.20387,-0.57272,0
