@RELATION sup_abrupt_stream2_uni_l5

@ATTRIBUTE a0 numeric
@ATTRIBUTE a1 numeric
@ATTRIBUTE a2 numeric
@ATTRIBUTE a3 numeric
@ATTRIBUTE class {0,1}

@DATA
-0.14238,-0.38388,0.43483,0.92501,1
0.39819,-0.59081,-0.49021,0.55596,1
-0.57043,0.66753,-0.4886,0.28123,0
-0.077166,-0.76081,0.021256,0.48598,1
-0.83594,-0.040839,0.92266,-0.5238,0
0.061162,0.82596,0.88768,0.86917,0
0.0097201,-0.60508,-0.38406,-0.16481,1
-0.74626,0.0093445,0.34054,-0.75498,0
0.13551,-0.58594,-0.20903,0.3011,1
0.73235,0.90277,-0.50696,-0.45999,0
0.43857,-0.37177,0.035762,0.93789,1
-0.77028,0.81935,-0.43651,-0.52533,0
0.71201,-0.95416,-0.062207,0.10484,1
0.73979,-0.80128,0.84118,-0.12055,1
0.64758,0.12187,0.43331,0.32051,1
0.46524,-0.56456,-0.21021,0.24471,1
-0.19822,-0.9265,-0.19888,-0.94712,1
0.97268,0.063924,0.76705,0.57975,1
0.716,-0.18971,-0.097873,-0.75911,1
-0.13459,0.13172,-0.42225,-0.8993,0
-0.18221,-0.75967,-0.2827,-0.51262,1
0.79357,-0.27368,0.704,-0.957,1
0.27003,0.74696,0.54345,-0.96011,0
0.5056,-0.76095,-0.33953,-0.81094,1
-0.025387,0.24363,-0.082445,0.14585,0
-0.16779,0.94838,-0.060432,0.42013,0
0.21285,-0.83498,-0.39392,-0.25794,1
0.79245,0.894,-0.42717,0.87235,0
0.69377,-0.51577,0.073647,0.70325,1
0.46861,0.6273,0.32464,-0.84001,0
0.1773,-0.60226,0.93661,0.3441,1
0.70511,-0.89871,0.81451,-0.6128,1
-0.72666,0.12897,-0.55192,0.95274,0
0.5572,-0.13122,0.44344,0.23333,1
0.48683,-0.45257,-0.71497,-0.23113,1
0.90416,0.28455,0.095001,0.00022202,1
0.08062,0.12015,-0.98785,-0.38483,0
-0.98449,-0.068185,0.084996,-0.05253,0
0.035736,-0.67052,-0.7754,0.37063,1
0.11449,-0.94233,-0.49118,-0.79368,1
-0.74553,-0.97676,0.62074,-0.22493,1
-0.66197,0.70189,0.8513,-0.87224,0
-0.22474,0.36295,-0.64683,0.4113,0
0.55538,0.58748,-0.59415,0.71052,0
0.21625,0.30925,0.32696,-0.015645,0
0.16133,0.64072,-0.080985,-0.6493,0
-0.2078,-0.20159,-0.22572,0.59787,0
0.73342,0.37259,-0.61009,-0.62176,1
0.33014,-0.1748,0.97341,0.69617,1
0.35658,-0.093155,0.38664,0.24957,1
0.75511,0.027756,-0.28991,0.50234,1
-0.37741,-0.91851,0.31253,0.27374,1
0.34025,0.28177,-0.25015,-0.32454,0
0.80723,0.36243,-0.98894,0.0041308,1
0.70683,0.46033,0.40075,0.98999,1
-0.665,-0.65854,-0.42273,-0.84465,0
-0.13791,0.92271,0.76665,0.69118,0
-0.86005,-0.41486,-0.018488,0.20192,0
-0.85005,0.61945,0.28125,0.67725,0
-0.44819,-0.92296,0.61853,0.18735,1
-0.53281,0.37738,-0.053635,0.80982,0
0.34389,0.34373,0.12113,-0.28306,0
-0.33354,0.38477,0.76412,0.017989,0
-0.34981,-0.89532,-0.75941,-0.37104,1
-0.010419,-0.83541,0.68629,-0.62776,1
-0.69176,0.85426,-0.74794,-0.22946,0
-0.53313,-0.67513,0.16563,0.29987,1
-0.44518,-0.71086,0.8848,0.94598,1
0.91768,0.78525,0.6818,-0.045245,0
-0.67397,-0.4217,0.11904,-0.52556,0
-0.56502,0.89284,-0.27251,-0.82677,0
0.36966,-0.83402,0.028301,0.088201,1
-0.8779,-0.97965,-0.65241,-0.36684,1
0.5071,0.12448,0.82014,-0.58361,1
-0.89336,0.094076,-0.18528,0.55994,0
-0.52399,0.64155,0.22433,0.072966,0
-0.45906,0.74305,0.94544,-0.080628,0
-0.65587,-0.68445,-0.10512,0.88454,1
0.18005,-0.97086,0.71355,-0.11296,1
0.20536,-0.11554,-0.37904,0.44406,1
-0.17234,0.54433,-0.050899,-0.09603,0
0.091708,0.97526,-0.074933,-0.90322,0
-0.29857,-0.066256,0.34596,0.10741,0
0.74238,-0.075908,-0.83479,-0.72112,1
-0.24799,-0.052071,0.67736,-0.96425,0
-0.70918,0.65899,0.29776,0.090424,0
-0.73075,0.60758,-0.20413,0.040502,0
0.93442,0.88277,0.36251,0.45238,0
0.99743,-0.57272,0.45951,-0.050434,1
0.82417,-0.29691,-0.93,0.35131,1
0.9252,0.83244,-0.33152,0.1466,0
-0.81479,-0.33179,-0.5698,0.77664,0
0.17174,-0.70316,-0.78007,0.12179,1
-0.39242,-0.088636,0.77041,0.17523,0
0.37023,0.61666,0.1567,-0.85374,0
-0.53314,0.23579,-0.73118,0.67739,0
0.45571,0.20952,0.48427,0.56219,1
0.74904,0.54631,-0.12511,-0.23679,0
-0.1802,-0.95308,0.18137,0.56762,1
0.85764,0.60881,-0.13247,0.36088,0
0.8379,-0.74625,0.55739,0.44784,1
0.31046,-0.90712,0.65161,0.22222,1
0.77517,0.40491,-0.55252,0.91092,1
0.087027,-0.51696,0.83474,-0.16175,1
0.9353,0.69469,0.58055,-0.065401,0
0.47428,-0.99719,-0.5423,0.82967,1
0.73024,-0.046166,-0.63315,-0.55353,1
0.54012,0.56412,-0.71796,-0.55938,0
-0.52964,-0.080957,0.43238,0.40287,0
-0.4343,-0.93089,0.54592,-0.22635,1
0.80662,0.20273,0.45694,-0.58539,1
0.30543,-0.20376,-0.99946,0.25606,1
0.64231,-0.068388,-0.21952,0.48714,1
0.30336,-0.56415,-0.2981,0.59694,1
-0.58574,0.2507,-0.52633,0.52387,0
0.71793,0.98656,-0.32156,0.93472,0
0.02076,0.78536,-0.9121,0.36038,0
0.87044,0.52734,0.98286,0.67261,1
0.011681,0.66513,-0.7219,0.8258,0
-0.21739,-0.7871,-0.67529,0.10402,1
-0.89321,0.43841,0.068615,-0.48848,0
-0.61774,0.030929,-0.92535,-0.83991,0
0.067337,-0.72668,-0.72584,0.22499,1
0.52865,0.32334,-0.86138,0.097683,1
-0.43474,0.37963,-0.75978,0.32671,0
0.20328,0.31094,-0.34754,0.49791,0
0.72377,-0.48824,0.0026856,0.38987,1
-0.65786,0.96126,0.18037,0.63855,0
0.46412,0.58498,0.92235,-0.80328,0
-0.34618,0.8405,-0.99118,0.91436,0
0.63258,-0.68492,0.95969,0.68997,1
0.58233,-0.43287,0.26554,-0.31955,1
-0.78691,0.62499,-0.03078,-0.016057,0
0.051371,-0.46194,0.57309,0.94845,1
0.40254,-0.3503,-0.97596,0.81993,1
-0.67225,-0.4567,-0.53982,-0.55821,0
-0.061026,0.47964,0.66712,0.81115,0
-0.5633,0.75169,-0.55059,0.56905,0
0.089898,-0.84541,-0.70354,-0.45201,1
0.85067,-0.468,-0.61711,-0.89401,1
0.29483,-0.15982,-0.51349,-0.61403,1
-0.57116,0.96178,-0.43571,0.68174,0
-0.0013803,0.55009,-0.23478,0.58811,0
0.81983,-0.88396,0.57372,0.84351,1
0.98764,0.81277,0.88342,0.28447,0
0.95608,-0.21152,0.71356,0.88887,1
0.94019,-0.84145,0.93845,0.63459,1
0.36375,-0.21659,0.19012,-0.22851,1
0.069242,-0.33123,0.18598,0.5187,1
0.5083,-0.62845,0.81686,-0.58786,1
0.69701,-0.72028,0.97053,-0.69062,1
0.19845,-0.28388,0.47068,-0.085665,1
-0.25989,0.82439,-0.79205,0.50247,0
-0.67662,-0.90555,0.76546,-0.58638,1
-0.51806,-0.73297,-0.22197,0.75508,1
-0.69364,0.51195,-0.75303,0.092123,0
-0.011808,-0.45029,0.63014,-0.70991,1
-0.46461,0.64641,-0.85954,0.66369,0
0.38257,-0.75294,-0.85647,-0.43446,1
0.85945,0.17938,-0.96793,0.97912,1
0.9725,0.57691,0.63998,0.33197,1
-0.47152,0.22314,0.69535,-0.79869,0
0.52828,0.57268,-0.26109,-0.54467,0
-0.81013,0.010399,-0.57367,-0.35716,0
0.26822,0.9621,0.90612,0.33164,0
0.54747,0.25105,-0.90622,0.25319,1
-0.64353,0.97909,-0.0014548,-0.31366,0
0.95626,0.013737,-0.25278,-0.34364,1
-0.92043,0.3996,0.37852,-0.019072,0
-0.69564,0.8105,0.7697,0.11829,0
-0.53256,-0.073588,-0.25549,0.23444,0
0.21523,-0.59859,0.89585,0.43524,1
0.20841,0.96622,-0.45344,-0.013873,0
-0.21344,-0.60599,0.48957,0.41109,1
-0.52703,0.55149,-0.93868,-0.56682,0
-0.80091,0.36208,-0.14436,-0.7526,0
-0.57648,0.067887,-0.20983,-0.24916,0
0.86522,-0.96563,0.33044,-0.4057,1
-0.74676,-0.36708,0.70568,0.54644,0
0.2058,0.68984,0.62091,0.71748,0
0.74057,0.55669,0.98894,0.84442,0
0.14071,0.64911,0.91598,0.51779,0
-0.73247,-0.28518,0.33682,0.94727,0
0.54556,0.37546,-0.36896,0.75533,1
-0.54412,0.90125,-0.0077601,-0.89427,0
-0.62025,0.17621,0.013235,0.88304,0
0.30119,0.2103,-0.1755,-0.12056,1
-0.24469,-0.47673,0.1502,-0.77451,1
-0.81259,-0.43001,-0.064751,0.58438,0
0.6606,0.038896,-0.83076,-0.48287,1
-0.10451,-0.41286,0.85374,0.14669,1
0.60806,-0.81867,-0.60637,0.49869,1
-0.34665,-0.49596,-0.041153,0.26453,1
-0.49412,-0.60484,-0.51916,0.11885,1
-0.72177,0.5273,0.58927,-0.21539,0
0.57204,-0.87445,0.020677,0.82307,1
0.45097,0.37229,0.24906,0.70993,0
-0.03512,-0.63529,0.75835,-0.012787,1
-0.22999,-0.59285,-0.29575,-0.21011,1
0.058417,-0.2344,0.77826,0.32391,1
-0.76816,0.54105,0.31994,-0.68655,1
-0.55,0.96621,0.60746,0.67278,1
-0.29234,0.19723,-0.41583,0.75304,1
0.63812,0.4957,-0.24025,-0.78465,1
-0.94328,0.18479,0.78962,0.14601,1
-0.86197,-0.59332,0.82302,-0.50954,1
-0.11342,0.5548,0.17892,0.16227,1
-0.028299,-0.49939,-0.41498,-0.98334,0
-0.75483,0.83301,0.70699,-0.86603,1
0.19335,-0.832,0.75359,-0.71922,0
-0.27517,-0.448,0.81152,0.34398,0
-0.87768,0.0037943,0.32369,-0.54288,1
0.12606,-0.4066,0.81872,-0.27634,0
-0.072469,-0.34598,-0.52615,0.48715,0
0.54318,-0.95061,-0.27382,0.73342,0
-0.51673,-0.2998,-0.889,-0.28024,1
-0.73638,-0.86803,-0.99712,-0.051376,0
0.21577,-0.72224,0.10041,-0.69627,0
-0.99122,-0.90436,-0.18268,0.16708,1
-0.52953,-0.69598,0.45328,0.66969,0
-0.10406,0.77652,0.28913,-0.87941,1
0.8128,-0.99019,0.34191,-0.096015,0
-0.11174,0.78427,-0.72521,0.1718,1
0.94352,0.38518,-0.51514,0.7979,0
0.3531,-0.090117,-0.11446,0.43909,0
-0.16658,-0.84466,0.66035,-0.52612,0
-0.31352,-0.95555,-0.85575,-0.52122,0
-0.98449,-0.068185,0.084996,-0.05253,1
-0.1587,0.27808,-0.34954,0.28279,1
-0.78906,-0.1918,-0.34369,0.079999,1
-0.18194,0.8271,0.95581,0.088426,1
-0.56172,0.018547,-0.94848,-0.67357,1
0.33251,-0.71014,0.19121,-0.77196,0
-0.63652,-0.51048,-0.10137,-0.24276,1
0.58127,-0.90123,-0.031496,0.056548,0
-0.9607,0.96501,0.3439,-0.62575,1
-0.021957,0.50061,0.69254,0.37859,1
0.30289,-0.62488,0.36535,-0.31125,0
-0.98889,0.9263,0.49501,0.68024,1
0.39563,0.84878,0.033472,0.98178,1
0.75718,0.54372,-0.76019,-0.11682,1
0.81274,0.82165,0.21964,0.56073,1
-0.96921,-0.11242,0.37173,0.69593,1
0.62497,-0.92591,-0.47064,-0.072135,0
0.72236,-0.27402,-0.21133,-0.33953,0
0.80783,-0.48204,0.30682,0.77049,0
0.70683,0.46033,0.40075,0.98999,0
0.22279,0.68598,0.50649,0.1454,1
-0.63639,0.20461,-0.5306,0.66747,1
0.28985,0.80616,0.67306,0.70673,1
0.19728,-0.96619,0.31496,-0.056145,0
-0.44053,-0.60033,-0.1314,-0.58102,0
-0.64496,0.28587,-0.72185,0.72962,1
0.76351,0.73361,-0.038079,-0.44412,1
0.2044,0.3698,0.027823,0.62688,1
0.27104,-0.72208,0.97905,0.93714,0
-0.4328,0.64078,0.69067,0.61046,1
-0.77729,-0.59212,0.24518,-0.39777,1
0.036485,-0.50349,-0.42483,0.080022,0
0.58562,-0.30049,0.20909,0.23259,0
-0.76028,0.20621,-0.24146,-0.21192,1
-0.013059,0.37339,-0.10792,-0.89011,1
-0.67387,-0.33489,-0.12159,0.7628,1
0.51735,-0.057265,-0.12868,0.9115,0
-0.47647,0.36334,0.0057247,0.92105,1
-0.24059,-0.74466,0.27883,0.19212,0
0.029322,0.36206,0.44029,0.40895,1
-0.0002141,0.15706,0.9992,-0.33016,1
0.62681,0.67716,-0.055877,0.74449,1
-0.225,-0.13479,-0.86995,0.84066,1
0.15517,-0.92074,-0.050847,0.36506,0
0.083354,0.4829,-0.93577,-0.9875,1
0.6314,0.27686,-0.64687,0.63396,0
0.26739,0.48223,-0.82,-0.035904,1
-0.21614,-0.030979,0.50109,-0.96563,1
0.46672,0.020132,0.042351,-0.48276,0
-0.97996,-0.7113,-0.86621,0.29182,1
-0.11797,-0.96252,-0.41085,-0.19337,0
-0.32515,0.41198,0.29668,0.26786,1
0.50036,0.47074,-0.82094,-0.6056,1
0.75479,0.36034,0.79715,-0.4039,0
-0.86377,0.7166,0.54968,0.99509,1
0.78329,0.34948,0.069064,-0.49728,0
0.64144,-0.70848,0.94673,0.83838,0
-0.74195,-0.61741,-0.79632,0.2549,1
0.31955,0.53974,-0.19948,0.24837,1
-0.56718,-0.82426,0.76521,-0.54398,0
0.46694,-0.58811,0.33663,-0.54574,0
0.71431,0.17068,0.5177,-0.79673,0
-0.10508,0.85865,0.14612,0.18256,1
-0.57814,0.38144,-0.86238,0.42861,1
-0.29716,-0.80529,0.89901,0.32117,0
0.82417,-0.29691,-0.93,0.35131,0
0.37016,-0.066163,0.88564,0.24718,0
-0.094603,-0.34999,0.51275,-0.59284,0
0.077027,0.86632,0.098973,-0.88259,1
0.52747,-0.83312,0.64465,-0.24772,0
0.4417,-0.77997,-0.063972,0.76813,0
-0.60895,0.59394,0.29706,0.74182,1
0.93117,0.90032,-0.44101,0.22087,1
0.26948,-0.97424,-0.16928,-0.30894,0
-0.082472,-0.94652,0.3869,0.68967,0
-0.66742,0.89248,-0.60092,0.014009,1
0.096252,-0.49062,0.93303,-0.26108,0
-0.01072,-0.33923,-0.68696,0.94911,0
0.42599,-0.35758,0.11739,0.55447,0
-0.73751,0.71647,0.12343,-0.76357,1
-0.59555,0.65811,-0.74643,-0.90852,1
0.11093,-0.74329,0.97399,0.53865,0
0.087027,-0.51696,0.83474,-0.16175,0
0.9353,0.69469,0.58055,-0.065401,1
0.66734,-0.68738,0.39671,0.97207,0
-0.31427,0.81206,0.30877,-0.6211,1
-0.38938,0.023391,-0.38624,-0.36205,1
0.72209,0.9571,0.84656,0.72679,1
-0.17689,-0.39544,-0.43417,-0.65383,0
0.6525,0.42695,0.61595,0.71366,0
0.27263,-0.58481,-0.99786,-0.11951,0
-0.68036,-0.65553,0.64357,0.67158,1
-0.57393,0.89637,-0.75271,0.18183,1
0.48949,-0.63462,-0.00046729,0.56686,0
0.53889,-0.35518,0.82699,0.17972,0
-0.9507,0.40975,-0.84613,0.78912,1
0.090648,0.46697,0.42385,-0.43925,1
-0.76123,0.60921,0.4878,-0.94324,1
0.87044,0.52734,0.98286,0.67261,0
-0.88288,0.87681,-0.084686,-0.59875,1
0.39619,-0.25778,0.664,-0.1569,0
-0.5841,0.76057,-0.4771,-0.59862,1
-0.18047,-0.81652,0.39225,0.035574,0
0.96101,-0.36738,0.84322,-0.565,0
0.48243,0.70863,-0.35205,0.91472,1
0.70716,0.38114,0.92873,-0.87417,0
-0.71504,0.47652,-0.14972,-0.33665,1
-0.50978,-0.3065,-0.44364,0.10479,1
0.27849,-0.39579,-0.67867,-0.33039,0
0.37231,-0.36432,-0.55343,0.20291,0
0.23548,-0.9695,-0.51258,0.30987,0
-0.54445,-0.48608,-0.10621,0.55906,1
0.25697,-0.82442,0.032472,-0.39471,0
0.85492,-0.48881,-0.47833,0.97341,0
-0.084598,-0.23341,0.44556,-0.20379,0
0.85067,-0.468,-0.61711,-0.89401,0
0.42323,0.91242,0.2185,0.79465,1
0.15223,-0.9013,0.3466,-0.37886,0
0.62166,-0.8064,0.32325,-0.86148,0
0.6728,-0.55234,0.44022,0.83866,0
-0.84267,0.12246,0.40081,-0.68522,1
0.017926,-0.41411,-0.74923,-0.16644,0
0.75831,0.74012,0.93024,0.73706,1
-0.23266,0.11977,0.47954,0.14339,1
0.34598,-0.83812,0.8287,0.77728,0
0.36375,-0.21659,0.19012,-0.22851,0
0.19182,0.80855,-0.29293,-0.0023494,1
0.60811,-0.9446,0.81587,-0.91713,0
-0.48629,-0.9879,-0.13339,-0.55125,0
0.84004,0.78952,0.86353,-0.23071,1
0.62785,0.55655,-0.41319,0.16709,1
0.6774,-0.056108,0.92746,0.35518,0
0.33854,0.65246,-0.56277,-0.14699,1
-0.68353,-0.19359,-0.21844,-0.90915,1
0.38257,-0.75294,-0.85647,-0.43446,0
-0.67414,-0.81143,-0.52667,0.15307,0
-0.80095,-0.85184,0.91653,0.74566,0
0.67498,0.47209,-0.85249,-0.76666,0
0.19524,-0.014924,0.73786,-0.028952,0
-0.82375,0.28093,0.10152,0.92246,1
0.45248,-0.062632,0.79908,-0.40722,0
0.30468,0.75297,-0.070989,0.34261,1
-0.69837,-0.89795,-0.31671,0.010011,0
-0.43602,0.88043,0.7824,0.1709,1
0.0069693,-0.31728,0.24669,0.66682,0
0.371,-0.81139,-0.73253,-0.79209,0
-0.078427,-0.28905,-0.91207,0.46467,0
-0.92043,0.3996,0.37852,-0.019072,1
-0.70171,0.81358,-0.97923,-0.10564,1
0.40633,-0.37427,0.59208,-0.33608,0
-0.12306,-0.31616,-0.8578,-0.40789,0
-0.84054,0.76619,-0.26411,0.13638,1
-0.18133,-0.54417,0.45593,0.40627,0
-0.48598,-0.36907,-0.9234,0.16917,1
0.30899,-0.63326,0.76183,-0.40401,0
-0.25072,-0.59314,-0.93868,-0.081213,0
-0.89328,-0.2071,0.022736,0.33997,1
-0.48302,0.2662,-0.57139,0.85024,1
0.51067,0.60098,-0.98626,-0.70874,1
-0.69259,-0.043591,-0.94925,-0.59729,1
-0.10279,0.97528,-0.4995,-0.95327,1
0.30578,0.38967,-0.79836,0.60532,1
0.38986,0.30938,0.65996,-0.39835,1
0.4801,-0.0084234,-0.76612,-0.73682,0
-0.43495,0.84256,-0.99479,0.31186,1
-0.073094,-0.0215,-0.84562,-0.11067,1
0.91835,-0.47589,0.92108,0.28316,0
-0.81196,0.047464,-0.3704,-0.73252,1
0.71945,-0.26365,0.66692,-0.65635,0
0.20602,0.62155,-0.50485,0.38906,1
0.631,0.24351,0.23573,-0.92289,0
0.59471,0.79765,0.28298,-0.13313,1
0.89168,0.25714,-0.92544,-0.031321,0
0.57721,-0.029452,0.60719,-0.4976,0
0.60432,-0.30906,0.41543,0.36866,0
0.75874,-0.60002,-0.90679,-0.58832,0
0.37156,0.33573,0.53197,0.64415,1
-0.072516,0.88509,0.30354,0.85827,1
0.9,0.82601,-0.76817,-0.1917,1
0.056838,-0.42626,0.57491,0.51614,0
-0.29795,0.33911,-0.75906,0.050159,1
0.56121,0.63254,-0.027599,0.35909,1
0.59411,0.91174,-0.077013,0.72332,1
0.046167,-0.8142,0.24634,-0.0053423,0
-0.34665,-0.49596,-0.041153,0.26453,0
0.321,-0.69448,0.015025,0.96102,0
0.51142,0.85994,0.92959,0.13939,1
0.68569,-0.70479,-0.51993,0.82164,0
0.68022,0.79316,-0.8912,-0.59469,1
0.48817,-0.71604,-0.036468,0.089173,1
-0.63396,-0.3054,-0.92054,-0.50145,1
-0.73354,-0.043306,0.75084,-0.17509,1
-0.87621,-0.81586,-0.14702,-0.57946,1
-0.97194,0.28471,0.61037,-0.72839,0
0.036874,-0.6514,-0.059093,0.26137,1
0.54526,-0.41194,0.69491,-0.95018,1
0.37361,-0.30401,-0.47722,-0.1024,1
0.8905,-0.079599,0.42661,-0.69811,1
0.93719,0.49299,-0.42482,0.5834,0
0.45921,0.89573,-0.96113,0.18318,0
-0.9701,0.83845,0.083599,0.025627,0
-0.51673,-0.2998,-0.889,-0.28024,1
-0.43769,-0.44516,0.44876,0.40833,1
-0.26367,-0.34954,0.27003,0.74713,1
0.57899,0.66478,0.77967,-0.49045,0
0.25144,-0.26746,0.30586,0.43491,1
-0.59222,0.2216,0.72775,0.61863,1
-0.9152,0.54013,-0.31052,-0.30144,0
0.43619,0.50328,0.4147,0.5074,0
-0.079264,-0.094277,0.7492,0.019806,0
-0.21841,-0.14991,0.60503,-0.80022,0
0.8128,-0.99019,0.34191,-0.096015,1
-0.0077959,0.2757,-0.13246,-0.17871,0
-0.11174,0.78427,-0.72521,0.1718,0
-0.38594,-0.45044,-0.85972,-0.52276,1
0.78147,0.8846,0.60121,-0.65701,0
-0.57974,-0.56745,0.33668,-0.0053667,1
-0.025715,0.79045,0.41298,0.31466,0
-0.36174,-0.28301,0.48943,0.9843,1
0.95809,-0.93822,0.44949,0.18981,1
-0.54689,0.4332,0.10098,-0.045686,1
0.66323,0.46329,-0.16684,0.26907,1
0.39357,-0.19576,0.10008,0.6124,1
0.051984,-0.30621,0.64615,0.98472,0
0.2832,0.94266,-0.84352,-0.53871,0
-0.23137,0.91402,-0.56664,0.040397,0
-0.42023,-0.91247,-0.51126,0.93289,1
0.78544,-0.87682,0.4709,0.2288,1
0.85229,-0.68053,0.16338,-0.057857,1
0.6968,-0.64956,-0.31444,-0.00069747,1
-0.51966,-0.32497,0.73739,-0.36722,1
-0.52651,0.53689,-0.96642,-0.8192,0
-0.66371,-0.46748,-0.39561,0.19025,1
-0.14575,0.52186,-0.55039,-0.44212,0
0.679,0.30778,0.86159,0.92691,1
-0.0014119,0.70779,0.79038,0.87708,0
0.080744,-0.24558,-0.02122,0.40716,0
0.11626,0.35102,0.33735,0.50976,0
-0.63909,-0.89545,-0.78524,-0.83676,1
0.057965,0.97475,-0.83429,-0.35037,0
-0.97672,0.13606,0.13549,-0.29873,0
-0.8286,0.7124,0.054992,0.76374,0
-0.86144,-0.90338,-0.25009,-0.6524,1
0.16945,-0.24788,-0.13706,0.91669,0
-0.38554,-0.84845,0.078066,0.86528,1
0.68008,-0.042533,-0.77643,-0.34719,1
-0.4936,0.49233,0.58117,-0.92757,0
-0.041115,0.79671,-0.89727,0.86131,0
-0.56502,0.89284,-0.27251,-0.82677,0
-0.57823,-0.82469,-0.77202,-0.80935,1
-0.79233,0.31739,0.75845,-0.13472,1
-0.8529,-0.87914,-0.47352,-0.10224,1
-0.72525,-0.74735,0.67845,-0.68458,1
0.0048013,-0.22939,-0.054887,0.089043,0
-0.3712,0.68943,0.32543,0.31496,0
-0.1529,-0.057203,0.74238,-0.075816,0
-0.78143,0.63368,0.45785,-0.31708,0
0.46109,0.63337,-0.37344,-0.73536,0
-0.62363,-0.05954,0.069169,-0.48979,1
0.32093,0.59547,-0.81153,0.3466,0
0.5177,-0.79675,0.38882,-0.54656,1
0.57305,0.69362,-0.72114,-0.21367,0
-0.16532,0.77168,-0.80643,-0.26943,0
-0.39378,-0.16855,0.72385,-0.47484,1
-0.64085,-0.0029637,0.94172,0.41823,1
-0.83273,0.91328,-0.74807,-0.34737,0
-0.51402,0.26888,-0.10346,-0.91178,1
0.87742,-0.83126,0.96136,-0.095393,1
-0.07666,0.86891,-0.75492,0.099593,0
-0.0047433,0.99249,-0.28147,-0.38417,0
-0.41031,-0.75363,0.20491,-0.84725,1
0.65948,-0.95528,0.67323,0.61998,1
0.59141,-0.67684,0.09159,-0.30211,1
-0.49819,-0.9746,-0.26248,-0.23203,1
-0.85776,0.86244,-0.25482,0.34536,0
0.077744,0.52579,0.66768,-0.12224,0
-0.30788,-0.67436,-0.99184,-0.87701,1
0.1868,0.3488,-0.70407,-0.71984,0
0.37611,0.65895,-0.058312,0.97792,0
0.50099,-0.72177,-0.84273,-0.37591,1
0.24196,0.94204,0.67054,0.73386,0
-0.23029,-0.63742,-0.78016,0.41389,1
-0.80305,0.98217,0.485,-0.52233,0
0.01363,-0.32579,-0.24974,-0.64904,0
-0.046871,0.54146,-0.86195,0.036123,0
0.47953,0.12996,-0.79276,0.42975,1
0.56039,0.64708,0.59972,0.25987,0
-0.97476,0.57109,0.43136,0.96963,0
0.32804,0.80921,0.60778,0.29734,0
0.70047,0.57048,0.67475,-0.31102,1
0.12306,-0.46268,-0.39272,0.57574,0
0.067337,-0.72668,-0.72584,0.22499,1
-0.49536,-0.67714,0.89517,-0.024106,1
-0.84666,-0.42244,-0.85064,-0.55597,1
0.59354,-0.87626,0.95673,-0.41389,1
-0.74997,-0.84526,-0.61888,-0.39893,1
-0.92854,-0.41412,-0.15797,-0.67153,1
-0.57311,0.85663,0.50645,0.5677,0
-0.10371,-0.33369,0.92647,-0.037899,0
-0.5127,0.67424,-0.92555,0.94213,0
0.26276,0.46142,0.99438,0.24153,0
-0.031789,-0.95534,-0.6231,0.44077,1
-0.95708,-0.39351,0.32487,0.72735,1
0.10132,0.082071,0.42111,0.36303,0
0.83753,-0.99075,0.46897,-0.44741,1
-0.26305,0.74241,0.54429,0.33053,0
-0.63114,0.79929,-0.76807,-0.53131,0
-0.63796,0.86572,-0.62042,0.1436,0
-0.081087,0.13664,-0.55879,-0.45454,0
-0.83966,0.6119,0.90785,-0.20832,0
0.15929,-0.83849,0.18057,0.47509,1
-0.75053,-0.51813,0.045957,-0.31079,1
0.45023,0.188,0.83702,0.62896,1
-0.34383,0.54149,-0.74721,0.8384,0
-0.78006,0.55679,0.06924,-0.33116,0
0.082494,-0.90949,-0.20885,-0.64504,1
-0.94388,-0.39685,-0.035663,-0.14919,1
0.7931,0.80155,0.32375,-0.15392,0
0.40534,-0.016543,-0.6926,0.19891,1
0.81051,-0.51825,0.73578,-0.73593,1
-0.8881,-0.41866,0.048444,0.093761,1
0.08862,-0.058827,-0.68353,-0.19351,0
-0.40605,-0.099119,0.61893,0.74938,1
0.54453,-0.076736,0.26693,0.45063,1
0.58149,0.72547,-0.02318,-0.30515,0
-0.49162,0.76359,-0.43294,0.70758,0
0.28596,0.3054,-0.24658,-0.93011,0
0.16399,-0.86408,-0.45607,-0.059092,1
-0.8177,0.2344,-0.14196,-0.78798,1
0.13446,0.42848,-0.2631,0.5666,0
-0.43602,0.88043,0.7824,0.1709,0
0.090065,0.5126,0.20539,-0.33772,0
0.8605,-0.92757,-0.54386,-0.40823,1
-0.48431,0.68669,0.84518,-0.83617,0
-0.23133,-0.83418,0.42002,0.22368,1
0.76492,0.24696,0.86961,0.64375,1
0.89532,0.5749,0.89993,0.25924,0
-0.36601,-0.55717,-0.65028,0.017596,1
-0.56756,-0.78908,-0.87803,0.232,1
0.74681,-0.047879,0.22695,0.24711,1
-0.35279,0.69615,0.43901,0.055383,0
-0.061675,-0.24871,-0.04797,-0.83421,0
-0.78997,0.76064,-0.084737,-0.42076,0
0.89564,0.68517,-0.75882,-0.13471,0
-0.57209,-0.49895,-0.41764,-0.1354,1
0.45937,-0.65622,0.87466,0.7167,1
0.36152,0.99035,0.83409,-0.7437,0
-0.53734,0.27882,-0.99541,-0.21157,1
-0.3509,-0.511,0.85127,0.67804,1
0.59514,-0.3587,0.53726,-0.028583,1
0.63551,0.36443,0.9299,0.38427,1
-0.72711,-0.1577,-0.25984,-0.56318,1
-0.21013,-0.90322,0.40627,0.043401,1
0.96363,0.47771,0.45365,0.57229,0
-0.47076,0.85532,-0.53984,-0.89751,0
0.16258,-0.96445,0.35757,-0.35606,1
0.0016643,0.074313,0.1414,-0.23286,0
-0.37541,0.58126,-0.28506,0.22834,0
-0.61137,0.12997,0.48307,0.93588,1
0.30119,0.2103,-0.1755,-0.12056,0
-0.49553,0.44024,0.20211,0.91979,0
0.85374,0.14658,-0.94535,-0.69808,1
0.99042,-0.79096,0.39552,0.18065,1
-0.25758,-0.25483,0.21166,0.93285,1
0.64194,-0.31213,-0.61682,0.15162,1
0.321,-0.69448,0.015025,0.96102,1
-0.6867,-0.25229,0.12088,-0.7197,1
0.4887,-0.15359,-0.24836,-0.45743,0
-0.45425,-0.97764,0.58827,-0.79931,0
0.89443,-0.4498,-0.32296,-0.040771,0
-0.61097,0.83981,0.82405,0.98973,1
0.8259,0.43239,0.14533,0.79876,0
0.22893,-0.48946,0.29516,0.63785,0
-0.1182,-0.80057,0.24476,-0.49215,0
-0.40178,0.043771,-0.64019,0.23609,0
-0.20601,0.60104,-0.80984,-0.74641,1
-0.99796,0.22031,0.70459,0.17231,1
0.33201,0.11361,0.98114,0.21645,1
-0.068772,-0.051527,-0.28328,0.30881,1
-0.89928,0.81465,0.31241,-0.45982,1
0.075156,0.75468,-0.68972,0.366,1
-0.33565,0.9349,-0.096336,-0.44468,1
-0.54761,0.34095,-0.20368,-0.52521,0
0.71702,0.22379,-0.72972,-0.8895,0
0.22491,-0.71429,-0.34836,-0.46053,0
-0.80201,-0.45769,0.75977,0.70635,0
0.89765,0.0075825,0.26494,0.84099,0
0.70511,-0.89871,0.81451,-0.6128,0
-0.55192,0.95256,-0.77927,-0.50524,1
0.45572,-0.82396,0.78698,0.20715,0
0.020263,0.38603,-0.21624,-0.71194,1
0.052638,-0.60643,0.10517,-0.086948,0
-0.38919,-0.81739,0.89599,-0.012519,0
-0.99243,0.78876,-0.79421,-0.048525,1
0.087931,0.33717,-0.78313,-0.496,1
-0.73344,0.69398,-0.79436,-0.22454,1
0.94381,-0.3242,0.08736,-0.017538,0
0.61738,-0.040425,0.74632,0.68121,0
0.063616,0.93842,-0.53448,0.19349,1
0.047936,0.52531,0.28786,-0.053381,1
-0.46554,0.046645,0.57217,0.23039,0
-0.081816,0.7751,0.76212,-0.55964,1
-0.15777,0.31308,-0.52907,0.89276,1
0.93933,0.90226,0.39977,-0.32229,1
0.59943,-0.69311,-0.1611,-0.45278,0
0.12461,-0.91477,-0.17774,0.88434,0
0.91082,-0.40026,0.17224,0.48781,0
0.2388,-0.50718,-0.24253,0.11023,0
-0.46488,0.82788,0.71913,-0.76185,1
0.66449,0.30622,-0.31645,0.58865,0
0.76839,0.4422,0.75371,-0.64246,0
-0.13791,0.92271,0.76665,0.69118,1
-0.018486,0.2018,-0.57397,0.5979,1
0.14679,-0.097732,-0.56665,0.19725,1
-0.010421,0.75218,0.10073,-0.49061,1
0.71638,-0.29236,0.53359,-0.13119,0
0.9696,0.32316,0.16445,-0.48353,1
0.2044,0.3698,0.027823,0.62688,1
0.99755,-0.11349,0.91391,-0.40019,0
0.48709,-0.36896,0.60376,-0.68122,0
0.77294,0.43109,0.80872,0.16529,0
-0.14901,0.73694,0.9789,0.16818,1
0.24518,-0.39783,0.97309,-0.75815,0
-0.78681,0.43881,0.20357,0.32317,0
-0.47911,0.25885,-0.83455,0.27697,0
-0.43629,0.9712,-0.53877,0.8082,1
0.39557,0.50301,0.13122,0.20201,1
-0.54088,-0.71314,0.22251,-0.62202,0
-0.013059,0.37339,-0.10792,-0.89011,1
0.0057268,0.92086,-0.13335,-0.53264,1
-0.54531,-0.64952,-0.97491,-0.81892,0
-0.76041,0.64958,0.027314,0.44738,1
0.20528,0.18807,0.93488,0.45408,1
0.36966,-0.83402,0.028301,0.088201,0
-0.041472,0.72825,0.35306,0.13389,1
-0.63825,-0.86026,0.72184,0.40821,0
-0.45419,0.42074,-0.81081,-0.3523,1
-0.36726,0.52408,-0.60131,0.29873,1
0.055994,0.97054,0.15037,0.57088,1
-0.46262,-0.71919,0.92996,-0.042034,0
-0.28069,-0.59834,-0.65735,-0.34634,0
-0.19454,0.39084,-0.44907,0.79753,1
-0.83479,-0.72115,0.62382,0.83403,0
-0.21684,-0.7584,-0.13493,-0.65548,0
0.85661,-0.57661,-0.54354,-0.78907,0
0.46109,0.63337,-0.37344,-0.73536,1
-0.056283,0.31824,-0.71956,-0.90234,1
-0.71823,0.78408,-0.24516,0.1409,1
0.44019,-0.099322,0.68407,0.75867,0
0.5177,-0.79675,0.38882,-0.54656,0
0.79482,0.83845,0.60011,-0.24986,1
0.94331,0.050354,0.80098,-0.78558,0
-0.57618,-0.98621,-0.99354,-0.32907,0
0.60894,0.36106,0.48055,-0.68557,0
0.75224,0.89267,0.25999,0.74877,1
0.38558,-0.63669,0.070634,-0.83045,0
0.092433,0.24109,-0.2186,-0.64497,1
0.91578,-0.97529,0.83903,0.62368,0
0.29126,-0.82609,-0.0092778,-0.22452,0
-0.59555,0.65811,-0.74643,-0.90852,1
0.34419,-0.84474,-0.81222,-0.72852,0
0.64428,0.69115,0.15202,0.60578,1
0.59141,-0.67684,0.09159,-0.30211,0
0.36086,-0.97773,0.041548,0.76694,0
-0.53644,-0.57896,0.13545,-0.40809,0
-0.75628,-0.84779,-0.49752,-0.78264,0
-0.65946,-0.079155,-0.74651,-0.6081,0
-0.83151,-0.54417,-0.74122,-0.62636,0
0.83906,0.27005,0.047037,-0.6027,0
0.27612,0.44492,0.97242,-0.12458,1
-0.30788,-0.67436,-0.99184,-0.87701,0
-0.12568,-0.20848,-0.52964,-0.080866,1
0.14794,0.42425,-0.0036737,-0.17672,1
-0.0095678,0.31911,-0.53987,0.11889,1
-0.76863,-0.056716,0.090605,0.45654,0
-0.23156,0.84472,-0.53289,-0.7827,1
0.86046,-0.6056,-0.63816,-0.83933,0
-0.42229,0.4227,0.82599,0.36952,1
0.22145,-0.082934,-0.10538,0.41755,1
-0.52632,0.52373,-0.54817,0.42457,1
-0.84668,0.8137,-0.58434,-0.8067,1
-0.25502,-0.79497,-0.89059,0.55958,0
0.0056349,0.576,0.78824,-0.057213,1
-0.48124,0.64493,0.86096,-0.80078,1
-0.56775,0.63211,0.8091,-0.038823,1
0.88166,0.69414,0.5162,0.02104,1
-0.97476,0.57109,0.43136,0.96963,1
0.47006,-0.38938,-0.3492,-0.77102,0
0.25362,0.26306,-0.63792,-0.46558,1
-0.49536,-0.67714,0.89517,-0.024106,0
-0.4741,0.74983,-0.5329,0.099798,1
-0.86222,-0.16225,0.55626,-0.82422,0
-0.40975,0.6163,0.67254,-0.35356,1
0.34637,-0.46328,-0.85359,0.20864,0
0.25338,1.5343e-05,0.22371,-0.36822,1
-0.94083,-0.62588,-0.96845,-0.4085,0
0.18247,0.17389,-0.87608,0.72526,1
-0.69747,-0.88162,-0.067876,0.9797,0
-0.78874,-0.044536,-0.54087,0.55438,0
-0.70717,0.81288,-0.97432,0.65535,1
-0.48042,-0.31022,0.93773,0.28544,0
-0.4614,-0.44805,-0.095293,-0.084253,0
-0.84118,0.77577,-0.22685,-0.83958,1
-0.519,0.39608,0.61684,0.60723,0
0.81596,-0.6982,0.6223,-0.97929,0
-0.81877,0.40154,-0.86473,-0.23541,0
0.62748,0.63638,0.76232,0.96143,1
0.21004,0.60017,-0.28283,-0.87678,1
0.11086,0.56007,-0.079731,-0.2214,1
-0.37841,0.75947,0.23317,0.47927,1
0.4329,-0.41545,-0.87475,0.055247,0
-0.51396,0.25156,0.090311,-0.31379,0
0.51127,0.54712,-0.61939,0.40195,1
0.095322,-0.078346,0.28237,0.89079,1
0.04198,-0.010999,0.18252,-0.36698,1
-0.28693,-0.58018,0.43439,0.74373,0
0.17482,0.10739,-0.84368,0.015944,1
0.97931,-0.83287,-0.50029,0.43718,0
0.0005777,0.29512,0.10034,-0.16312,1
0.36387,0.20395,-0.41114,0.17543,1
0.50106,0.74599,-0.50183,0.65506,1
-0.14594,-0.30508,-0.33495,0.60628,1
0.1667,0.42408,-0.15667,0.17665,1
-0.89505,-0.43449,-0.13703,0.6539,0
0.11053,-0.33241,0.692,-0.75948,1
-0.39698,-0.88311,-0.18405,0.84627,0
-0.49755,-0.65089,-0.55413,-0.44217,0
-0.78929,-0.83425,-0.24085,0.088936,0
0.50887,-0.98003,0.99656,-0.73567,0
0.37971,0.92181,0.63763,-0.089487,1
0.58149,0.72547,-0.02318,-0.30515,1
0.18283,-0.38772,-0.40773,0.34022,1
-0.83629,-0.41223,0.89536,0.90167,0
0.95996,0.11456,0.67772,0.87151,1
-0.86969,-0.25209,-0.7899,-0.71198,0
-0.43602,0.88043,0.7824,0.1709,1
-0.23178,-0.16504,-0.43969,0.75883,1
0.20985,-0.1049,0.026397,0.60717,1
-0.97668,0.35438,0.24733,0.58895,1
-0.58774,0.30403,-0.72461,0.81419,0
-0.90209,0.33331,0.89871,-0.39242,1
-0.23133,-0.83418,0.42002,0.22368,0
0.90489,-0.058856,0.048623,0.57053,0
-0.36601,-0.55717,-0.65028,0.017596,0
-0.12159,-0.45478,0.84519,-0.84345,1
0.04592,0.10844,-0.81448,-0.4581,1
0.78364,0.092116,-0.56626,0.5294,0
-0.58199,0.72279,-0.027302,-0.18472,1
-0.82786,-0.98714,0.88167,0.2994,0
-0.38708,-0.69563,-0.51438,-0.36484,0
0.11421,-0.25191,-0.096304,0.65593,1
-0.61154,0.84761,-0.19392,-0.22381,1
-0.28483,0.52619,0.16937,-0.43222,1
0.68378,0.78447,-0.44317,0.50391,1
0.56939,-0.16323,0.028588,0.51174,0
0.11918,-0.043986,0.3703,-0.019133,1
0.48259,-0.83037,-0.74677,-0.36701,0
-0.5628,-0.039834,0.60658,0.34387,0
-0.64524,-0.67887,0.86347,0.77694,0
0.41057,0.33223,0.83571,-0.41138,1
-0.90679,-0.58836,0.52715,-0.55835,0
0.24955,-0.87585,0.32052,-0.7387,0
0.37878,-0.19822,-0.9346,-0.76649,0
0.97932,-0.60184,0.45883,0.095205,0
0.66768,-0.8625,-0.56808,0.73971,0
-0.70642,0.42042,-0.17378,0.58626,0
-0.24652,0.52554,0.98359,0.8017,1
0.17833,0.9139,0.10919,0.98896,1
-0.79737,0.22492,0.27929,0.13571,0
0.95622,0.6945,-0.23723,0.70781,1
-0.72092,-0.35168,0.44237,0.27484,0
0.73006,0.20582,0.70764,0.25924,0
-0.75946,0.18847,0.046716,0.46495,0
-0.25758,-0.25483,0.21166,0.93285,0
0.64194,-0.31213,-0.61682,0.15162,0
-0.044826,0.36644,0.98495,-0.79575,1
-0.341,0.029139,0.67052,-0.97925,1
-0.98579,-0.88481,-0.035487,0.55157,0
-0.58462,-0.33463,0.93582,-0.98786,0
0.27604,-0.39334,-0.86933,0.87624,1
0.72521,0.36333,0.87197,0.97929,1
-0.83527,0.49303,0.036872,-0.65136,0
-0.16581,0.077943,0.54219,0.39737,0
-0.14345,0.33463,-0.24567,-0.34461,0
0.42661,-0.69814,-0.90416,-0.064396,1
-0.66544,-0.63183,0.60977,0.54983,0
0.6218,-0.77824,0.16385,-0.54528,1
-0.96113,0.18306,0.21192,-0.87394,0
0.21268,-0.29369,-0.88664,-0.84061,1
0.23573,0.96811,-0.12715,-0.9737,0
0.43253,0.87053,0.029533,-0.65036,0
-0.61887,-0.72482,-0.58846,0.94699,1
-0.037735,-0.19245,0.73902,-0.4755,1
0.84985,0.32278,0.58134,-0.57799,1
0.37535,-0.56446,-0.70232,-0.1532,1
0.83169,0.4032,0.33126,0.29057,1
-0.10121,-0.85252,0.040703,-0.71044,1
-0.10715,0.63405,0.18414,0.94825,0
-0.57414,-0.68264,-0.33808,-0.17636,1
0.13964,0.42909,-0.83726,-0.099912,0
0.52999,-0.83028,-0.22123,-0.11202,1
-0.49251,-0.079277,-0.82611,0.35759,0
0.071495,0.44386,-0.69529,-0.40886,0
0.84846,0.64826,-0.49922,0.7449,0
-0.86945,-0.18893,-0.74657,-0.40956,0
0.80098,-0.096869,-0.39588,0.97973,1
-0.84352,-0.53876,0.99399,-0.068739,0
-0.23971,-0.41575,0.55508,-0.31085,1
-0.084969,0.43221,-0.91873,-0.65494,0
-0.1587,0.27808,-0.34954,0.28279,0
0.035486,-0.40597,-0.34608,0.96449,1
0.70849,0.26996,-0.45501,-0.6929,1
-0.89092,-0.7971,0.77015,-0.38866,0
-0.18879,-0.63294,-0.52335,-0.91769,1
-0.88586,0.054415,-0.69506,0.77857,0
-0.25439,-0.86337,0.7362,-0.48066,1
0.58127,-0.90123,-0.031496,0.056548,1
-0.79857,0.10853,-0.30318,-0.745,0
-0.72255,-0.30458,-0.62891,-0.24593,0
0.11786,-0.083415,-0.75255,0.027376,1
0.93933,0.90226,0.39977,-0.32229,0
0.40749,-0.61324,0.33827,0.79481,1
-0.46008,0.44501,0.91062,-0.72832,0
-0.44338,-0.25743,-0.33442,0.47486,0
0.37686,0.035573,-0.84962,-0.48579,1
0.73342,0.37259,-0.61009,-0.62176,1
0.86159,0.92673,-0.80031,0.38778,0
0.031266,0.60046,0.49128,0.51965,0
0.87745,-0.95508,0.27447,0.72348,1
-0.83546,0.16627,-0.64804,0.49726,0
-0.65999,0.1457,0.17314,-0.97549,0
0.46749,-0.33317,0.75877,0.90737,1
0.14734,-0.50606,0.25751,0.70156,1
0.14744,0.45238,-0.24897,0.94413,0
-0.55799,-0.16604,0.4052,0.027625,0
0.42686,-0.4066,0.87675,-0.16807,1
-0.16529,-0.10678,-0.46754,-0.081696,0
0.54512,-0.78105,-0.46975,-0.40178,1
-0.87436,0.85909,-0.16978,-0.27658,0
0.051424,-0.5584,0.21218,0.25409,1
-0.21328,0.088406,0.82478,0.36385,0
-0.4442,0.13184,0.99513,0.40538,0
0.55803,-0.21854,0.99431,-0.1744,1
0.027316,0.44724,0.026351,0.089308,0
-0.15951,-0.72825,-0.029836,0.13122,1
0.34174,-0.49683,0.99278,0.77714,1
-0.15062,0.075272,0.42261,-0.73144,0
0.73255,-0.23881,0.035484,-0.98215,1
0.9186,-0.55656,-0.41917,0.024314,1
-0.65037,0.7082,-0.69382,-0.73913,0
-0.3883,-0.72018,-0.10434,0.63133,1
-0.63825,-0.86026,0.72184,0.40821,1
0.28299,0.29699,-0.46604,-0.41876,0
-0.35158,-0.48414,-0.49873,0.73188,1
-0.59292,0.035081,-0.79126,0.50412,0
0.8764,-0.49589,0.29705,-0.60405,1
-0.78507,-0.4604,0.7059,0.87264,0
0.91382,0.78249,0.25077,-0.78096,0
0.61166,-0.18349,0.27689,0.17768,1
0.78669,-0.55459,-0.78776,0.17282,1
0.82675,0.373,0.7017,0.80344,1
0.49216,-0.87068,-0.11575,0.57689,1
0.85421,-0.37671,-0.86086,-0.79,1
-0.14789,0.39085,0.21473,-0.79424,0
0.94172,0.4181,-0.80389,-0.8299,1
0.21914,0.1489,0.32992,-0.35238,0
-0.46072,-0.92539,0.39853,-0.40684,1
0.88896,0.44313,0.93173,0.060964,1
-0.85855,-0.89275,-0.90883,0.32156,1
-0.78584,0.86674,-0.2013,0.97643,0
0.78406,-0.1496,0.58077,0.23278,1
-0.01072,-0.33923,-0.68696,0.94911,1
0.35278,-0.89289,0.29126,-0.82607,1
0.69596,-0.35649,-0.66365,-0.70384,1
-0.73751,0.71647,0.12343,-0.76357,0
0.9353,0.69469,0.58055,-0.065401,0
0.47428,-0.99719,-0.5423,0.82967,1
0.14439,0.36953,-0.15398,0.35258,0
0.4026,-0.61938,0.075398,0.58082,1
0.80763,-0.12922,-0.45413,-0.43713,1
0.58672,0.40833,-0.9997,0.80035,1
-0.33981,0.57738,-0.81219,0.72567,0
-0.89234,0.39336,-0.89333,0.35281,0
-0.10546,0.49391,-0.31092,0.46574,0
0.3459,0.090538,0.25004,-0.993,1
-0.77566,0.51463,0.63169,-0.25479,0
-0.65379,0.29516,0.21279,0.9917,0
-0.27614,-0.83506,-0.18537,-0.99496,1
0.62189,0.37734,0.4704,0.00049284,1
-0.64349,-0.90647,0.22123,-0.60693,1
-0.56792,0.032574,0.63953,0.60664,0
-0.89321,0.43841,0.068615,-0.48848,0
0.11444,-0.21456,-0.98021,-0.074913,1
-0.39163,-0.12806,-0.34733,-0.22616,0
-0.9388,0.00094711,0.74286,-0.516,0
0.067337,-0.72668,-0.72584,0.22499,1
0.55626,-0.82425,-0.90851,-0.0778,1
0.10533,-0.66121,0.9324,0.89721,1
0.62896,-0.26147,-0.62755,0.81554,1
0.52865,0.32334,-0.86138,0.097683,1
-0.89087,-0.57193,0.64781,0.8983,0
0.27849,-0.39579,-0.67867,-0.33039,1
0.19266,-0.27053,-0.15691,0.49217,1
-0.024767,0.41471,0.085979,-0.025976,0
-0.020505,0.29941,-0.16791,-0.33864,0
-0.086952,-0.2077,-0.98188,0.99882,1
-0.41507,0.17717,0.94332,0.15125,0
-0.90426,0.75925,0.77919,0.69572,0
0.5249,-0.55847,0.95148,-0.38313,1
0.39785,-0.10407,0.21882,-0.77808,1
0.99712,-0.88459,0.10757,-0.21339,1
-0.54823,0.54963,-0.94016,0.74651,0
-0.18395,0.61192,0.64458,-0.2461,0
0.45023,0.188,0.83702,0.62896,1
-0.28693,-0.58018,0.43439,0.74373,1
0.1787,-0.65222,0.50194,-0.57568,1
0.0005777,0.29512,0.10034,-0.16312,0
0.92781,-0.89111,0.36387,0.20407,1
0.36375,-0.21659,0.19012,-0.22851,1
-0.86616,-0.98968,-0.26159,-0.015597,1
0.97104,0.97998,0.3738,0.8936,0
-0.15014,-0.26823,0.45596,-0.72537,1
-0.018247,0.71647,-0.95781,0.52464,0
0.62785,0.55655,-0.41319,0.16709,0
0.20232,-0.9225,0.55939,0.33507,1
0.44633,0.59296,-0.052986,0.98772,0
-0.52438,-0.59641,-0.13812,0.28522,1
0.37971,0.92181,0.63763,-0.089487,0
-0.74643,-0.89275,0.41265,-0.13982,1
-0.0052507,0.39035,-0.47413,0.42377,0
0.94561,-0.084306,0.16577,-0.99228,1
-0.0597,0.13051,0.48525,-0.66336,0
0.30468,0.75297,-0.070989,0.34261,0
0.5374,0.85492,-0.90404,0.36629,0
-0.0049989,-0.11586,0.47131,0.72236,1
-0.83883,-0.28871,-0.87476,0.56392,0
-0.33201,-0.032394,-0.19303,0.97907,0
0.62315,-0.071763,-0.15888,-0.5477,1
-0.92776,0.34629,0.37292,0.39146,0
0.74027,-0.09916,0.27244,0.091358,1
-0.41378,0.2594,-0.058759,0.78055,0
-0.78997,0.76064,-0.084737,-0.42076,0
-0.70321,-0.87604,-0.88637,-0.23089,1
0.8088,-0.89648,-0.54724,0.10971,1
0.38545,-0.072907,-0.34132,-0.5763,1
0.069329,-0.83744,0.52767,-0.27145,1
-0.095992,0.92241,-0.52172,-0.1416,0
-0.42697,-0.37123,-0.20302,0.56471,0
0.73961,-0.90974,0.059049,0.84353,1
-0.43495,0.84256,-0.99479,0.31186,0
-0.064007,0.044508,0.5748,-0.71584,0
-0.33635,-0.78519,-0.72385,-0.0026179,1
0.71945,-0.26365,0.66692,-0.65635,1
0.41235,-0.23567,0.1368,-0.48942,1
0.27974,0.66571,-0.41515,0.17276,0
-0.77192,-0.45697,0.48922,-0.57187,0
0.12592,0.65843,-0.74538,-0.98101,0
-0.01803,0.20639,0.77206,-0.68159,0
0.34967,-0.87125,0.58552,-0.21302,1
0.31369,-0.90449,0.54041,-0.83576,1
0.60302,0.16728,0.036932,0.7395,1
0.23885,0.7852,-0.96981,-0.87158,0
-0.69662,-0.05244,-0.33875,-0.70212,0
-0.32481,0.61387,0.52364,0.080272,0
0.70764,0.25912,-0.26453,-0.64585,1
-0.20877,0.56314,-0.34699,0.61387,0
0.3279,0.99566,-0.62423,-0.91329,0
-0.49412,-0.60484,-0.51916,0.11885,1
-0.62187,0.71518,-0.40435,-0.56698,0
0.759,-0.14671,-0.46487,0.94035,1
-0.61682,0.15151,-0.040936,0.72962,0
0.81021,-0.36863,-0.41797,0.063076,1
-0.22999,-0.59285,-0.29575,-0.21011,1
