@RELATION sup_gradual_stream10_uni_l20

@ATTRIBUTE a0 numeric
@ATTRIBUTE a1 numeric
@ATTRIBUTE a2 numeric
@ATTRIBUTE a3 numeric
@ATTRIBUTE a4 numeric
@ATTRIBUTE a5 numeric
@ATTRIBUTE a6 numeric
@ATTRIBUTE class {0,1}

@DATA
-1,-1,-1,1,-1,1,-1,1
1,-1,1,-1,-1,-1,1,0
0,-1,1,-1,1,-1,-1,1
-1,-1,1,-1,1,-1,-1,1
1,-1,1,-1,-1,-1,1,0
-1,-1,1,-1,-1,-1,1,0
-1,-1,1,-1,-1,1,-1,0
1,-1,-1,1,-1,-1,1,1
-1,-1,1,-1,1,-1,-1,1
-1,-1,-1,1,1,-1,-1,1
0,-1,1,-1,-1,-1,1,0
1,1,-1,-1,-1,-1,1,0
0,1,-1,-1,-1,1,-1,0
0,-1,1,-1,-1,1,-1,0
-1,-1,1,-1,-1,-1,1,0
1,1,-1,-1,-1,1,-1,0
0,-1,1,-1,1,-1,-1,1
1,-1,1,-1,-1,1,-1,0
-1,1,-1,-1,-1,-1,1,0
-1,-1,-1,1,-1,1,-1,1
1,1,-1,-1,1,-1,-1,1
0,1,-1,-1,-1,-1,1,0
-1,-1,-1,1,1,-1,-1,1
-1,-1,-1,1,-1,1,-1,1
1,-1,-1,1,-1,-1,1,1
-1,-1,-1,1,1,-1,-1,1
-1,-1,-1,1,1,-1,-1,1
0,-1,1,-1,-1,1,-1,0
-1,-1,-1,1,1,-1,-1,1
-1,-1,-1,1,-1,1,-1,1
0,-1,-1,1,-1,1,-1,1
1,-1,1,-1,-1,-1,1,0
-1,-1,-1,1,-1,-1,1,1
1,1,-1,-1,-1,1,-1,0
1,-1,-1,1,-1,1,-1,1
-1,1,-1,-1,-1,1,-1,0
-1,-1,1,-1,-1,1,-1,0
-1,-1,-1,1,-1,1,-1,1
0,1,-1,-1,-1,-1,1,0
0,1,-1,-1,1,-1,-1,1
-1,1,-1,-1,1,-1,-1,1
1,-1,-1,1,-1,1,-1,1
1,1,-1,-1,1,-1,-1,1
-1,-1,1,-1,-1,1,-1,0
0,-1,-1,1,-1,1,-1,1
-1,1,-1,-1,1,-1,-1,1
-1,1,-1,-1,1,-1,-1,1
1,-1,1,-1,1,-1,-1,1
0,-1,1,-1,-1,-1,1,0
-1,-1,-1,1,-1,1,-1,1
0,-1,-1,1,-1,1,-1,1
0,1,-1,-1,1,-1,-1,1
-1,-1,1,-1,-1,-1,1,0
0,1,-1,-1,1,-1,-1,1
0,1,-1,-1,-1,1,-1,0
1,-1,1,-1,-1,-1,1,0
1,1,-1,-1,1,-1,-1,1
0,1,-1,-1,-1,-1,1,0
-1,1,-1,-1,-1,-1,1,0
-1,-1,1,-1,1,-1,-1,1
-1,-1,-1,1,-1,1,-1,1
0,1,-1,-1,1,-1,-1,1
-1,1,-1,-1,-1,-1,1,0
1,-1,1,-1,-1,-1,1,0
0,1,-1,-1,-1,-1,1,0
-1,-1,-1,1,-1,1,-1,1
1,1,-1,-1,-1,1,-1,0
0,-1,1,-1,-1,1,-1,0
0,1,-1,-1,1,-1,-1,1
1,-1,1,-1,-1,-1,1,0
-1,1,-1,-1,-1,-1,1,0
-1,1,-1,-1,-1,-1,1,0
0,-1,1,-1,-1,-1,1,0
1,-1,-1,1,1,-1,-1,1
1,-1,1,-1,1,-1,-1,1
1,-1,-1,1,1,-1,-1,1
-1,-1,1,-1,-1,-1,1,0
-1,-1,1,-1,-1,1,-1,0
-1,-1,1,-1,1,-1,-1,1
-1,-1,-1,1,1,-1,-1,1
1,-1,-1,1,-1,-1,1,1
-1,-1,-1,1,1,-1,-1,1
-1,1,-1,-1,-1,1,-1,0
-1,1,-1,-1,1,-1,-1,1
1,1,-1,-1,-1,1,-1,0
-1,-1,-1,1,1,-1,-1,1
-1,1,-1,-1,-1,1,-1,0
-1,-1,-1,1,1,-1,-1,1
-1,1,-1,-1,-1,1,-1,0
1,1,-1,-1,-1,-1,1,0
-1,-1,1,-1,-1,1,-1,0
0,-1,1,-1,-1,-1,1,0
-1,-1,1,-1,-1,-1,1,0
1,-1,-1,1,-1,-1,1,1
-1,-1,1,-1,1,-1,-1,1
-1,-1,1,-1,-1,-1,1,0
1,1,-1,-1,-1,1,-1,0
0,-1,-1,1,-1,1,-1,1
-1,-1,1,-1,-1,1,-1,0
-1,-1,-1,1,-1,1,-1,1
0,1,-1,-1,-1,1,-1,0
-1,-1,-1,1,-1,1,-1,1
0,-1,1,-1,-1,1,-1,0
0,-1,-1,1,-1,-1,1,1
0,1,-1,-1,-1,1,-1,0
1,1,-1,-1,-1,-1,1,0
1,1,-1,-1,-1,-1,1,0
1,-1,1,-1,1,-1,-1,1
-1,1,-1,-1,1,-1,-1,1
0,-1,-1,1,-1,-1,1,1
-1,-1,-1,1,-1,-1,1,1
0,-1,-1,1,-1,-1,1,1
0,-1,-1,1,-1,1,-1,1
0,-1,1,-1,-1,-1,1,0
1,1,-1,-1,-1,1,-1,0
1,1,-1,-1,-1,-1,1,0
1,-1,-1,1,1,-1,-1,1
1,-1,1,-1,1,-1,-1,1
1,-1,-1,1,1,-1,-1,1
0,-1,-1,1,-1,-1,1,1
-1,-1,1,-1,-1,1,-1,0
-1,-1,-1,1,-1,-1,1,1
0,-1,1,-1,-1,-1,1,0
0,-1,-1,1,-1,-1,1,1
-1,-1,1,-1,-1,-1,1,0
1,-1,-1,1,-1,-1,1,1
-1,1,-1,-1,1,-1,-1,1
-1,-1,1,-1,-1,-1,1,0
-1,-1,-1,1,-1,-1,1,1
1,1,-1,-1,1,-1,-1,1
-1,-1,1,-1,1,-1,-1,1
0,1,-1,-1,1,-1,-1,1
0,1,-1,-1,-1,-1,1,0
-1,-1,1,-1,-1,-1,1,0
1,-1,1,-1,1,-1,-1,1
0,1,-1,-1,-1,-1,1,0
-1,-1,-1,1,-1,-1,1,1
-1,-1,-1,1,-1,-1,1,1
1,1,-1,-1,-1,-1,1,0
-1,1,-1,-1,1,-1,-1,1
1,-1,1,-1,-1,1,-1,0
-1,-1,-1,1,-1,-1,1,1
1,-1,1,-1,-1,-1,1,0
-1,-1,-1,1,-1,-1,1,1
0,-1,-1,1,-1,-1,1,1
1,1,-1,-1,1,-1,-1,1
0,-1,1,-1,-1,1,-1,0
0,1,-1,-1,1,-1,-1,1
0,-1,-1,1,-1,-1,1,1
0,-1,1,-1,-1,1,-1,0
1,-1,-1,1,-1,-1,1,1
1,1,-1,-1,-1,-1,1,0
-1,1,-1,-1,-1,1,-1,0
1,-1,-1,1,1,-1,-1,1
0,-1,-1,1,-1,1,-1,1
-1,-1,1,-1,-1,-1,1,0
1,-1,-1,1,1,-1,-1,1
1,-1,1,-1,-1,-1,1,0
0,-1,-1,1,-1,-1,1,1
-1,-1,-1,1,1,-1,-1,1
1,1,-1,-1,-1,-1,1,0
0,-1,1,-1,1,-1,-1,1
-1,-1,-1,1,1,-1,-1,1
-1,-1,1,-1,-1,-1,1,0
0,-1,1,-1,-1,1,-1,0
-1,-1,1,-1,-1,-1,1,0
0,1,-1,-1,-1,1,-1,0
-1,-1,1,-1,1,-1,-1,1
0,1,-1,-1,-1,-1,1,0
0,-1,1,-1,-1,1,-1,0
0,-1,-1,1,1,-1,-1,1
0,-1,-1,1,-1,1,-1,1
-1,-1,1,-1,-1,-1,1,0
1,-1,1,-1,-1,-1,1,0
0,-1,1,-1,-1,-1,1,0
-1,-1,1,-1,-1,1,-1,0
-1,-1,-1,1,-1,1,-1,1
-1,-1,-1,1,-1,-1,1,1
0,1,-1,-1,-1,1,-1,0
0,-1,1,-1,-1,1,-1,0
1,-1,1,-1,-1,1,-1,0
0,1,-1,-1,1,-1,-1,1
-1,1,-1,-1,-1,-1,1,0
0,1,-1,-1,-1,-1,1,0
0,-1,-1,1,1,-1,-1,1
1,1,-1,-1,-1,1,-1,0
-1,-1,-1,1,-1,1,-1,1
1,-1,-1,1,-1,-1,1,1
0,-1,-1,1,-1,1,-1,1
0,1,-1,-1,-1,-1,1,0
0,1,-1,-1,-1,1,-1,0
-1,-1,1,-1,1,-1,-1,1
1,-1,1,-1,-1,1,-1,0
-1,1,-1,-1,-1,-1,1,0
1,-1,-1,1,-1,1,-1,1
0,-1,-1,1,-1,1,-1,1
1,1,-1,-1,-1,-1,1,0
1,1,-1,-1,-1,-1,1,0
0,1,-1,-1,-1,1,-1,0
0,1,-1,-1,1,-1,-1,1
1,-1,-1,1,1,-1,-1,1
1,-1,1,-1,-1,1,-1,0
-1,-1,-1,1,-1,-1,1,1
1,-1,-1,1,-1,1,-1,1
0,-1,1,-1,-1,1,-1,0
0,1,-1,-1,-1,1,-1,0
0,1,-1,-1,-1,1,-1,0
-1,1,-1,-1,-1,1,-1,0
0,-1,1,-1,1,-1,-1,1
1,-1,-1,1,-1,1,-1,1
1,1,-1,-1,-1,-1,1,0
-1,-1,-1,1,1,-1,-1,1
0,1,-1,-1,-1,1,-1,0
0,-1,-1,1,1,-1,-1,1
-1,-1,1,-1,1,-1,-1,1
-1,-1,-1,1,1,-1,-1,1
1,1,-1,-1,1,-1,-1,1
-1,-1,1,-1,-1,1,-1,0
-1,1,-1,-1,-1,1,-1,0
-1,-1,1,-1,-1,-1,1,0
-1,-1,-1,1,-1,1,-1,1
0,-1,1,-1,-1,-1,1,0
1,-1,1,-1,-1,-1,1,0
0,-1,-1,1,-1,1,-1,1
0,-1,-1,1,-1,-1,1,1
-1,1,-1,-1,-1,1,-1,0
0,-1,1,-1,-1,-1,1,0
1,-1,1,-1,1,-1,-1,1
-1,-1,-1,1,-1,-1,1,1
1,1,-1,-1,-1,1,-1,0
-1,1,-1,-1,-1,1,-1,0
0,-1,-1,1,-1,-1,1,1
-1,1,-1,-1,-1,1,-1,0
1,1,-1,-1,-1,1,-1,0
-1,-1,1,-1,-1,1,-1,0
1,-1,1,-1,-1,-1,1,0
1,-1,-1,1,1,-1,-1,1
1,-1,1,-1,-1,1,-1,0
-1,1,-1,-1,1,-1,-1,1
1,-1,1,-1,1,-1,-1,1
0,1,-1,-1,-1,1,-1,0
0,-1,1,-1,1,-1,-1,1
0,-1,1,-1,-1,1,-1,0
0,1,-1,-1,-1,-1,1,0
0,-1,1,-1,-1,-1,1,0
-1,1,-1,-1,-1,1,-1,0
1,-1,1,-1,1,-1,-1,1
0,-1,1,-1,-1,1,-1,0
-1,-1,-1,1,1,-1,-1,1
1,-1,1,-1,1,-1,-1,1
1,1,-1,-1,-1,1,-1,0
-1,-1,-1,1,1,-1,-1,1
-1,-1,1,-1,1,-1,-1,1
0,1,-1,-1,1,-1,-1,1
-1,1,-1,-1,-1,-1,1,0
-1,-1,-1,1,-1,1,-1,1
0,1,-1,-1,1,-1,-1,1
-1,1,-1,-1,-1,-1,1,0
-1,1,-1,-1,1,-1,-1,1
0,-1,-1,1,-1,-1,1,1
1,-1,-1,1,-1,1,-1,1
1,-1,1,-1,-1,1,-1,0
-1,1,-1,-1,1,-1,-1,1
-1,1,-1,-1,-1,-1,1,0
0,-1,-1,1,1,-1,-1,1
1,1,-1,-1,-1,1,-1,0
-1,-1,-1,1,-1,-1,1,1
-1,-1,1,-1,-1,1,-1,0
-1,-1,1,-1,-1,-1,1,0
-1,1,-1,-1,1,-1,-1,1
1,-1,1,-1,-1,-1,1,0
1,1,-1,-1,-1,1,-1,0
-1,1,-1,-1,-1,-1,1,0
-1,-1,1,-1,-1,-1,1,0
0,1,-1,-1,-1,-1,1,0
1,-1,-1,1,-1,-1,1,1
1,1,-1,-1,1,-1,-1,1
0,-1,1,-1,1,-1,-1,1
0,1,-1,-1,1,-1,-1,1
1,-1,1,-1,-1,1,-1,0
1,-1,-1,1,-1,1,-1,1
-1,-1,-1,1,1,-1,-1,1
-1,-1,1,-1,-1,1,-1,0
0,-1,1,-1,-1,1,-1,0
-1,-1,1,-1,-1,-1,1,0
0,-1,-1,1,1,-1,-1,1
-1,1,-1,-1,-1,1,-1,0
0,-1,-1,1,1,-1,-1,1
1,-1,1,-1,-1,-1,1,0
-1,-1,-1,1,-1,-1,1,1
0,-1,1,-1,1,-1,-1,1
1,1,-1,-1,-1,-1,1,0
0,-1,1,-1,-1,1,-1,0
1,-1,1,-1,-1,1,-1,0
1,1,-1,-1,-1,-1,1,0
1,1,-1,-1,-1,1,-1,0
1,-1,-1,1,-1,1,-1,1
1,-1,1,-1,1,-1,-1,1
-1,-1,-1,1,-1,1,-1,1
-1,1,-1,-1,1,-1,-1,1
1,-1,-1,1,-1,1,-1,1
0,-1,1,-1,1,-1,-1,1
-1,-1,1,-1,1,-1,-1,1
1,-1,-1,1,-1,-1,1,1
-1,1,-1,-1,-1,1,-1,0
0,-1,1,-1,-1,-1,1,0
1,-1,1,-1,-1,1,-1,0
1,1,-1,-1,-1,-1,1,0
0,1,-1,-1,-1,1,-1,0
1,-1,-1,1,-1,1,-1,1
0,-1,1,-1,-1,-1,1,0
-1,-1,1,-1,1,-1,-1,1
0,1,-1,-1,-1,-1,1,0
1,-1,-1,1,-1,-1,1,1
1,-1,1,-1,-1,-1,1,0
-1,-1,-1,1,1,-1,-1,1
1,1,-1,-1,-1,1,-1,0
0,-1,1,-1,1,-1,-1,1
-1,1,-1,-1,-1,1,-1,0
1,-1,-1,1,1,-1,-1,1
-1,-1,1,-1,1,-1,-1,1
-1,1,-1,-1,1,-1,-1,1
0,-1,1,-1,-1,-1,1,0
-1,-1,-1,1,1,-1,-1,1
-1,-1,1,-1,1,-1,-1,1
1,1,-1,-1,-1,1,-1,0
-1,-1,-1,1,-1,1,-1,1
0,1,-1,-1,-1,-1,1,0
0,-1,-1,1,1,-1,-1,1
0,-1,-1,1,-1,1,-1,1
-1,-1,-1,1,1,-1,-1,1
-1,1,-1,-1,-1,1,-1,0
-1,1,-1,-1,1,-1,-1,1
0,-1,1,-1,-1,-1,1,0
0,-1,-1,1,-1,-1,1,1
0,1,-1,-1,-1,-1,1,0
1,1,-1,-1,-1,1,-1,0
1,-1,1,-1,-1,-1,1,0
0,1,-1,-1,1,-1,-1,1
-1,-1,1,-1,-1,1,-1,0
0,1,-1,-1,-1,1,-1,0
1,1,-1,-1,-1,-1,1,0
1,-1,1,-1,-1,-1,1,0
-1,1,-1,-1,-1,-1,1,0
-1,1,-1,-1,-1,-1,1,0
0,-1,1,-1,-1,-1,1,0
1,1,-1,-1,-1,1,-1,0
1,-1,-1,1,-1,1,-1,1
1,-1,-1,1,-1,-1,1,1
1,-1,-1,1,-1,-1,1,1
1,1,-1,-1,-1,-1,1,0
1,-1,1,-1,-1,-1,1,0
1,1,-1,-1,1,-1,-1,1
1,-1,-1,1,-1,-1,1,1
-1,1,-1,-1,-1,-1,1,0
1,-1,1,-1,-1,-1,1,0
-1,1,-1,-1,-1,1,-1,0
0,1,-1,-1,1,-1,-1,1
-1,-1,1,-1,-1,-1,1,0
0,1,-1,-1,-1,1,-1,0
-1,-1,-1,1,-1,1,-1,1
0,1,-1,-1,-1,-1,1,0
1,-1,1,-1,1,-1,-1,1
0,-1,-1,1,1,-1,-1,1
1,-1,1,-1,1,-1,-1,1
-1,-1,1,-1,-1,1,-1,0
0,-1,-1,1,1,-1,-1,1
1,1,-1,-1,-1,1,-1,0
1,1,-1,-1,-1,1,-1,0
0,-1,-1,1,-1,-1,1,1
0,1,-1,-1,-1,1,-1,0
1,-1,-1,1,-1,1,-1,1
0,1,-1,-1,-1,-1,1,0
0,-1,-1,1,1,-1,-1,1
1,-1,1,-1,-1,1,-1,0
0,-1,1,-1,-1,-1,1,0
1,1,-1,-1,-1,1,-1,0
0,1,-1,-1,1,-1,-1,1
1,-1,1,-1,-1,1,-1,0
0,-1,-1,1,-1,1,-1,1
0,-1,1,-1,-1,-1,1,0
-1,1,-1,-1,-1,1,-1,0
0,1,-1,-1,-1,1,-1,0
0,-1,1,-1,1,-1,-1,1
-1,1,-1,-1,-1,-1,1,0
0,-1,-1,1,-1,-1,1,1
-1,-1,1,-1,-1,-1,1,0
-1,-1,-1,1,1,-1,-1,1
1,-1,1,-1,-1,1,-1,0
0,1,-1,-1,1,-1,-1,1
1,-1,1,-1,-1,1,-1,0
0,-1,1,-1,-1,1,-1,0
0,-1,1,-1,-1,-1,1,0
0,-1,1,-1,1,-1,-1,1
0,1,-1,-1,-1,1,-1,0
1,1,-1,-1,-1,-1,1,0
0,-1,1,-1,-1,-1,1,0
0,-1,1,-1,1,-1,-1,1
0,1,-1,-1,-1,-1,1,0
0,1,-1,-1,-1,-1,1,0
-1,1,-1,-1,-1,1,-1,0
1,1,-1,-1,1,-1,-1,1
1,-1,1,-1,-1,1,-1,0
1,1,-1,-1,-1,1,-1,0
-1,-1,-1,1,-1,-1,1,1
-1,-1,1,-1,-1,-1,1,0
1,-1,-1,1,-1,-1,1,1
1,-1,-1,1,1,-1,-1,1
0,1,-1,-1,-1,1,-1,0
0,1,-1,-1,1,-1,-1,1
-1,-1,-1,1,1,-1,-1,1
1,-1,1,-1,-1,-1,1,0
0,1,-1,-1,-1,1,-1,0
1,1,-1,-1,-1,1,-1,0
0,-1,1,-1,-1,1,-1,0
1,-1,1,-1,-1,-1,1,0
-1,1,-1,-1,-1,-1,1,0
1,1,-1,-1,1,-1,-1,1
0,1,-1,-1,-1,1,-1,0
0,-1,1,-1,1,-1,-1,1
-1,-1,1,-1,-1,1,-1,0
-1,-1,-1,1,1,-1,-1,1
0,-1,1,-1,1,-1,-1,1
0,1,-1,-1,-1,-1,1,0
0,-1,-1,1,-1,1,-1,1
1,1,-1,-1,1,-1,-1,1
-1,1,-1,-1,-1,1,-1,0
0,-1,-1,1,1,-1,-1,1
1,1,-1,-1,-1,-1,1,0
-1,-1,-1,1,-1,1,-1,1
0,-1,-1,1,1,-1,-1,1
-1,1,-1,-1,-1,-1,1,0
-1,-1,1,-1,-1,1,-1,0
1,1,-1,-1,1,-1,-1,1
0,1,-1,-1,-1,1,-1,0
0,-1,1,-1,-1,1,-1,0
1,1,-1,-1,1,-1,-1,1
1,-1,1,-1,-1,-1,1,0
-1,-1,1,-1,-1,-1,1,0
0,-1,-1,1,1,-1,-1,1
-1,1,-1,-1,-1,1,-1,0
-1,1,-1,-1,1,-1,-1,1
0,1,-1,-1,-1,-1,1,0
0,1,-1,-1,1,-1,-1,1
-1,-1,1,-1,-1,1,-1,0
0,1,-1,-1,-1,1,-1,0
0,-1,-1,1,-1,-1,1,1
-1,-1,1,-1,-1,1,-1,0
0,-1,1,-1,-1,-1,1,0
0,1,-1,-1,-1,-1,1,0
1,-1,1,-1,1,-1,-1,1
-1,-1,-1,1,1,-1,-1,1
0,-1,1,-1,1,-1,-1,1
-1,-1,-1,1,1,-1,-1,1
1,1,-1,-1,-1,-1,1,0
0,-1,1,-1,1,-1,-1,1
1,1,-1,-1,-1,1,-1,0
1,1,-1,-1,1,-1,-1,1
0,1,-1,-1,-1,1,-1,0
-1,-1,-1,1,1,-1,-1,1
1,1,-1,-1,-1,-1,1,0
-1,1,-1,-1,-1,1,-1,0
-1,-1,1,-1,-1,-1,1,0
1,-1,-1,1,-1,1,-1,1
1,1,-1,-1,-1,1,-1,0
1,-1,-1,1,-1,1,-1,1
-1,1,-1,-1,-1,-1,1,0
-1,-1,-1,1,-1,-1,1,1
0,-1,1,-1,-1,1,-1,0
0,-1,1,-1,-1,-1,1,0
1,-1,1,-1,-1,1,-1,0
1,-1,1,-1,-1,1,-1,0
0,-1,-1,1,-1,-1,1,1
-1,-1,1,-1,-1,1,-1,0
-1,1,-1,-1,-1,1,-1,0
1,-1,1,-1,1,-1,-1,1
0,1,-1,-1,-1,1,-1,0
1,-1,1,-1,-1,-1,1,0
1,1,-1,-1,1,-1,-1,1
-1,-1,1,-1,-1,-1,1,0
1,1,-1,-1,-1,-1,1,0
1,1,-1,-1,-1,-1,1,0
-1,1,-1,-1,-1,1,-1,0
-1,-1,-1,1,-1,-1,1,1
0,-1,1,-1,-1,1,-1,0
0,1,-1,-1,-1,1,-1,0
1,-1,1,-1,1,-1,-1,1
-1,-1,1,-1,-1,-1,1,0
0,-1,1,-1,-1,-1,1,0
0,-1,1,-1,-1,1,-1,0
0,-1,1,-1,-1,-1,1,0
-1,-1,-1,1,-1,1,-1,1
1,1,-1,-1,-1,1,-1,0
1,-1,1,-1,-1,-1,1,0
0,-1,1,-1,-1,-1,1,0
-1,1,-1,-1,1,-1,-1,1
-1,1,-1,-1,-1,1,-1,0
1,-1,1,-1,1,-1,-1,1
1,-1,-1,1,-1,-1,1,1
0,-1,-1,1,-1,-1,1,1
0,1,-1,-1,-1,1,-1,0
-1,-1,1,-1,-1,-1,1,0
-1,-1,-1,1,1,-1,-1,1
0,1,-1,-1,-1,1,-1,0
1,-1,-1,1,-1,1,-1,1
-1,1,-1,-1,-1,1,-1,0
-1,1,-1,-1,1,-1,-1,1
1,-1,1,-1,1,-1,-1,1
0,-1,-1,1,-1,-1,1,1
0,1,-1,-1,1,-1,-1,1
-1,-1,-1,1,1,-1,-1,1
1,1,-1,-1,-1,-1,1,0
0,-1,-1,1,-1,1,-1,1
1,1,-1,-1,-1,-1,1,0
1,-1,-1,1,-1,-1,1,1
-1,-1,-1,1,1,-1,-1,1
0,1,-1,-1,-1,-1,1,0
1,-1,-1,1,1,-1,-1,1
-1,-1,1,-1,1,-1,-1,1
-1,-1,1,-1,-1,-1,1,0
1,-1,-1,1,1,-1,-1,1
0,-1,-1,1,-1,-1,1,1
-1,-1,1,-1,-1,-1,1,0
-1,-1,1,-1,1,-1,-1,1
-1,1,-1,-1,-1,1,-1,0
1,-1,-1,1,-1,1,-1,1
0,-1,-1,1,1,-1,-1,1
0,-1,-1,1,-1,-1,1,1
0,1,-1,-1,-1,-1,1,0
-1,-1,1,-1,-1,-1,1,0
0,-1,-1,1,1,-1,-1,1
-1,1,-1,-1,-1,-1,1,0
0,1,-1,-1,1,-1,-1,1
-1,-1,1,-1,-1,1,-1,0
1,-1,1,-1,-1,1,-1,0
0,1,-1,-1,-1,-1,1,0
1,-1,-1,1,-1,1,-1,1
0,1,-1,-1,1,-1,-1,1
1,-1,-1,1,1,-1,-1,1
0,1,-1,-1,-1,-1,1,0
-1,-1,-1,1,-1,-1,1,1
-1,1,-1,-1,-1,1,-1,0
0,1,-1,-1,-1,-1,1,0
1,-1,-1,1,-1,1,-1,1
-1,-1,1,-1,1,-1,-1,1
0,-1,1,-1,-1,-1,1,0
0,-1,1,-1,-1,1,-1,0
1,-1,1,-1,-1,-1,1,0
0,1,-1,-1,-1,-1,1,0
-1,-1,-1,1,-1,1,-1,1
0,-1,1,-1,1,-1,-1,1
-1,-1,-1,1,1,-1,-1,1
-1,-1,1,-1,-1,1,-1,0
0,1,-1,-1,-1,1,-1,0
1,1,-1,-1,-1,-1,1,0
-1,1,-1,-1,-1,1,-1,0
0,-1,1,-1,-1,-1,1,0
0,-1,-1,1,1,-1,-1,1
-1,1,-1,-1,-1,1,-1,0
1,-1,-1,1,1,-1,-1,1
1,-1,1,-1,-1,-1,1,0
1,-1,1,-1,-1,-1,1,0
0,-1,1,-1,-1,1,-1,0
-1,-1,-1,1,-1,1,-1,1
0,1,-1,-1,-1,-1,1,0
-1,-1,1,-1,-1,1,-1,0
0,1,-1,-1,1,-1,-1,1
-1,1,-1,-1,-1,1,-1,0
0,-1,1,-1,1,-1,-1,1
1,1,-1,-1,-1,1,-1,0
0,1,-1,-1,-1,1,-1,0
1,-1,-1,1,1,-1,-1,1
1,-1,-1,1,1,-1,-1,1
-1,-1,-1,1,-1,1,-1,1
1,1,-1,-1,-1,1,-1,0
-1,-1,1,-1,-1,-1,1,0
-1,1,-1,-1,-1,-1,1,0
-1,-1,-1,1,-1,1,-1,1
0,1,-1,-1,1,-1,-1,1
-1,1,-1,-1,1,-1,-1,1
1,-1,1,-1,-1,1,-1,0
1,-1,-1,1,-1,1,-1,1
1,-1,1,-1,-1,1,-1,0
1,-1,1,-1,-1,1,-1,0
1,-1,1,-1,-1,1,-1,0
1,-1,-1,1,-1,1,-1,1
0,1,-1,-1,-1,-1,1,0
-1,-1,1,-1,-1,-1,1,0
1,-1,-1,1,-1,-1,1,1
1,-1,1,-1,-1,-1,1,0
-1,1,-1,-1,1,-1,-1,1
1,-1,1,-1,1,-1,-1,1
0,1,-1,-1,-1,1,-1,0
-1,1,-1,-1,-1,-1,1,0
1,-1,-1,1,1,-1,-1,1
-1,-1,-1,1,-1,-1,1,1
-1,1,-1,-1,-1,1,-1,0
1,-1,-1,1,-1,1,-1,1
-1,-1,1,-1,-1,-1,1,0
1,-1,1,-1,-1,1,-1,0
0,1,-1,-1,-1,-1,1,0
-1,-1,1,-1,1,-1,-1,1
0,1,-1,-1,-1,-1,1,0
1,1,-1,-1,-1,1,-1,0
1,1,-1,-1,-1,1,-1,0
0,-1,1,-1,-1,1,-1,0
0,-1,-1,1,1,-1,-1,1
0,1,-1,-1,-1,-1,1,0
1,-1,1,-1,1,-1,-1,1
0,-1,-1,1,-1,-1,1,1
0,-1,1,-1,-1,-1,1,0
-1,1,-1,-1,-1,-1,1,0
-1,1,-1,-1,-1,-1,1,0
-1,1,-1,-1,-1,1,-1,0
1,1,-1,-1,-1,-1,1,0
1,1,-1,-1,-1,-1,1,0
-1,1,-1,-1,-1,-1,1,0
0,-1,1,-1,-1,1,-1,0
0,1,-1,-1,-1,-1,1,0
1,-1,-1,1,-1,1,-1,1
0,1,-1,-1,-1,-1,1,0
-1,-1,1,-1,-1,-1,1,0
1,-1,-1,1,-1,1,-1,1
-1,-1,-1,1,-1,-1,1,1
1,1,-1,-1,-1,1,-1,0
1,-1,-1,1,-1,1,-1,1
1,-1,1,-1,-1,1,-1,0
-1,1,-1,-1,-1,1,-1,0
-1,-1,-1,1,1,-1,-1,1
-1,-1,1,-1,-1,-1,1,0
1,-1,1,-1,-1,-1,1,0
1,1,-1,-1,-1,-1,1,0
0,-1,1,-1,1,-1,-1,1
-1,1,-1,-1,-1,-1,1,0
1,-1,-1,1,-1,1,-1,1
1,1,-1,-1,-1,1,-1,0
0,-1,-1,1,1,-1,-1,1
-1,-1,1,-1,1,-1,-1,1
-1,-1,-1,1,-1,-1,1,1
0,-1,-1,1,1,-1,-1,1
0,1,-1,-1,-1,1,-1,0
1,-1,-1,1,-1,1,-1,1
-1,1,-1,-1,1,-1,-1,1
0,-1,1,-1,-1,-1,1,0
-1,-1,1,-1,1,-1,-1,1
0,-1,1,-1,-1,-1,1,0
0,-1,1,-1,-1,1,-1,0
-1,-1,1,-1,-1,1,-1,0
-1,1,-1,-1,-1,1,-1,0
0,-1,-1,1,1,-1,-1,1
0,-1,1,-1,-1,1,-1,0
0,-1,-1,1,-1,-1,1,1
0,-1,-1,1,-1,-1,1,1
0,1,-1,-1,-1,-1,1,0
1,-1,1,-1,1,-1,-1,1
-1,-1,-1,1,1,-1,-1,1
1,-1,-1,1,-1,1,-1,1
0,-1,-1,1,1,-1,-1,1
1,1,-1,-1,-1,-1,1,0
1,1,-1,-1,-1,-1,1,0
1,1,-1,-1,1,-1,-1,1
-1,-1,-1,1,-1,1,-1,1
-1,-1,-1,1,-1,-1,1,0
-1,-1,-1,1,-1,1,-1,1
1,-1,1,-1,-1,-1,1,0
0,-1,1,-1,1,-1,-1,1
-1,-1,1,-1,-1,1,-1,0
-1,-1,-1,1,-1,1,-1,1
1,1,-1,-1,-1,1,-1,0
-1,-1,-1,1,-1,-1,1,1
-1,-1,1,-1,-1,1,-1,0
-1,-1,-1,1,1,-1,-1,1
1,-1,1,-1,-1,1,-1,0
0,-1,1,-1,-1,1,-1,0
1,-1,1,-1,1,-1,-1,1
-1,1,-1,-1,-1,1,-1,0
0,-1,1,-1,-1,1,-1,0
-1,-1,1,-1,-1,-1,1,0
-1,-1,1,-1,1,-1,-1,1
-1,-1,-1,1,1,-1,-1,1
1,1,-1,-1,-1,1,-1,0
0,1,-1,-1,-1,-1,1,0
0,-1,1,-1,1,-1,-1,1
0,-1,1,-1,-1,-1,1,0
1,-1,-1,1,-1,1,-1,1
-1,-1,1,-1,1,-1,-1,1
1,-1,1,-1,1,-1,-1,1
0,-1,1,-1,-1,-1,1,0
-1,-1,-1,1,-1,-1,1,1
1,1,-1,-1,-1,1,-1,0
1,1,-1,-1,1,-1,-1,1
0,1,-1,-1,-1,-1,1,0
1,1,-1,-1,-1,1,-1,0
1,1,-1,-1,1,-1,-1,1
1,1,-1,-1,-1,1,-1,0
0,-1,-1,1,1,-1,-1,1
1,1,-1,-1,-1,-1,1,0
1,1,-1,-1,-1,1,-1,0
1,-1,-1,1,1,-1,-1,1
0,-1,-1,1,-1,-1,1,1
-1,-1,1,-1,-1,-1,1,0
1,-1,1,-1,-1,-1,1,0
1,-1,1,-1,-1,1,-1,0
1,-1,-1,1,1,-1,-1,1
1,-1,-1,1,-1,1,-1,1
1,-1,1,-1,-1,-1,1,1
0,1,-1,-1,-1,1,-1,0
0,-1,1,-1,-1,1,-1,0
-1,-1,-1,1,-1,1,-1,1
-1,-1,1,-1,-1,-1,1,0
-1,1,-1,-1,-1,1,-1,0
1,-1,-1,1,-1,1,-1,1
1,-1,-1,1,-1,1,-1,1
1,1,-1,-1,-1,-1,1,0
-1,1,-1,-1,-1,1,-1,0
0,1,-1,-1,1,-1,-1,1
1,-1,1,-1,-1,-1,1,0
1,1,-1,-1,1,-1,-1,1
0,-1,1,-1,-1,-1,1,0
0,-1,-1,1,-1,-1,1,1
0,1,-1,-1,-1,1,-1,0
-1,-1,1,-1,-1,1,-1,0
0,-1,-1,1,-1,-1,1,1
-1,-1,1,-1,-1,1,-1,0
1,-1,-1,1,-1,-1,1,1
1,-1,-1,1,-1,1,-1,1
0,1,-1,-1,1,-1,-1,1
0,-1,1,-1,-1,-1,1,0
1,-1,1,-1,1,-1,-1,1
-1,-1,-1,1,1,-1,-1,1
-1,1,-1,-1,1,-1,-1,1
0,1,-1,-1,1,-1,-1,1
1,-1,1,-1,-1,1,-1,0
0,-1,1,-1,1,-1,-1,1
-1,-1,1,-1,-1,-1,1,0
-1,-1,1,-1,-1,-1,1,0
1,-1,-1,1,-1,-1,1,1
0,-1,1,-1,-1,-1,1,0
1,-1,-1,1,-1,-1,1,1
1,-1,-1,1,1,-1,-1,1
-1,-1,1,-1,-1,1,-1,0
-1,1,-1,-1,-1,-1,1,0
-1,1,-1,-1,-1,1,-1,0
0,-1,-1,1,1,-1,-1,1
-1,-1,1,-1,-1,1,-1,0
-1,-1,1,-1,-1,-1,1,0
1,-1,1,-1,-1,-1,1,0
0,-1,1,-1,-1,-1,1,1
-1,1,-1,-1,-1,-1,1,0
-1,-1,1,-1,-1,1,-1,0
0,-1,-1,1,-1,-1,1,1
1,-1,1,-1,1,-1,-1,1
-1,-1,1,-1,-1,1,-1,0
1,1,-1,-1,1,-1,-1,1
1,1,-1,-1,1,-1,-1,1
0,-1,-1,1,-1,-1,1,1
-1,-1,-1,1,-1,1,-1,0
0,-1,-1,1,1,-1,-1,1
0,-1,-1,1,-1,1,-1,1
-1,-1,1,-1,1,-1,-1,1
-1,-1,1,-1,-1,-1,1,0
-1,-1,1,-1,-1,-1,1,0
0,-1,1,-1,-1,1,-1,0
0,-1,-1,1,-1,1,-1,1
1,1,-1,-1,1,-1,-1,1
1,-1,1,-1,-1,1,-1,0
-1,1,-1,-1,1,-1,-1,0
-1,1,-1,-1,1,-1,-1,0
-1,1,-1,-1,-1,1,-1,0
-1,1,-1,-1,1,-1,-1,0
0,-1,-1,1,-1,1,-1,1
-1,1,-1,-1,-1,1,-1,0
-1,-1,1,-1,-1,1,-1,0
1,-1,-1,1,-1,1,-1,1
1,-1,1,-1,-1,1,-1,1
0,-1,1,-1,1,-1,-1,1
0,-1,1,-1,1,-1,-1,1
0,-1,-1,1,-1,-1,1,1
1,-1,1,-1,-1,1,-1,1
1,-1,1,-1,-1,1,-1,1
-1,-1,-1,1,-1,1,-1,0
-1,1,-1,-1,-1,1,-1,0
0,-1,-1,1,-1,-1,1,1
0,1,-1,-1,1,-1,-1,1
-1,-1,1,-1,-1,1,-1,0
0,-1,1,-1,1,-1,-1,1
0,-1,1,-1,-1,-1,1,1
0,-1,1,-1,1,-1,-1,1
1,-1,-1,1,1,-1,-1,1
-1,-1,-1,1,-1,1,-1,1
0,-1,1,-1,-1,-1,1,0
-1,1,-1,-1,-1,-1,1,0
-1,-1,1,-1,-1,1,-1,0
-1,1,-1,-1,1,-1,-1,0
0,-1,-1,1,1,-1,-1,1
1,-1,-1,1,-1,1,-1,1
0,-1,1,-1,-1,1,-1,0
-1,-1,1,-1,1,-1,-1,0
1,-1,-1,1,-1,-1,1,1
0,-1,1,-1,-1,-1,1,1
-1,-1,-1,1,-1,1,-1,0
-1,-1,1,-1,-1,-1,1,0
1,1,-1,-1,-1,1,-1,1
0,-1,-1,1,1,-1,-1,1
-1,1,-1,-1,-1,1,-1,0
0,-1,-1,1,-1,1,-1,1
-1,-1,-1,1,-1,-1,1,0
0,-1,-1,1,1,-1,-1,1
1,-1,1,-1,-1,1,-1,1
-1,-1,1,-1,1,-1,-1,0
-1,-1,-1,1,-1,1,-1,0
-1,1,-1,-1,-1,1,-1,0
0,1,-1,-1,-1,-1,1,0
-1,1,-1,-1,-1,-1,1,0
-1,-1,1,-1,-1,-1,1,0
0,1,-1,-1,-1,1,-1,1
-1,-1,-1,1,-1,-1,1,0
-1,1,-1,-1,-1,-1,1,0
-1,1,-1,-1,1,-1,-1,0
-1,1,-1,-1,1,-1,-1,0
-1,-1,-1,1,-1,-1,1,0
1,1,-1,-1,-1,-1,1,1
0,-1,1,-1,1,-1,-1,1
-1,-1,-1,1,-1,1,-1,0
1,-1,1,-1,1,-1,-1,1
0,-1,-1,1,1,-1,-1,1
1,1,-1,-1,-1,-1,1,1
-1,-1,1,-1,1,-1,-1,0
-1,-1,1,-1,1,-1,-1,0
0,-1,1,-1,-1,1,-1,1
-1,-1,-1,1,1,-1,-1,0
-1,1,-1,-1,-1,1,-1,0
1,-1,1,-1,-1,1,-1,1
-1,-1,-1,1,1,-1,-1,0
0,-1,1,-1,1,-1,-1,1
-1,1,-1,-1,-1,-1,1,0
-1,1,-1,-1,-1,-1,1,0
1,-1,1,-1,-1,1,-1,1
-1,1,-1,-1,1,-1,-1,0
0,-1,1,-1,-1,1,-1,0
-1,1,-1,-1,-1,1,-1,0
-1,-1,-1,1,-1,1,-1,0
0,-1,-1,1,-1,1,-1,1
-1,-1,-1,1,-1,1,-1,0
0,-1,1,-1,1,-1,-1,1
0,-1,1,-1,-1,-1,1,1
-1,-1,1,-1,-1,1,-1,0
0,-1,1,-1,-1,1,-1,1
-1,1,-1,-1,-1,1,-1,0
1,-1,-1,1,-1,-1,1,1
-1,1,-1,-1,-1,-1,1,0
1,-1,1,-1,-1,1,-1,1
-1,1,-1,-1,-1,-1,1,0
0,-1,-1,1,1,-1,-1,1
-1,-1,-1,1,-1,-1,1,0
1,-1,1,-1,-1,1,-1,1
1,-1,-1,1,1,-1,-1,1
0,-1,-1,1,-1,1,-1,1
-1,-1,1,-1,-1,-1,1,0
-1,-1,1,-1,-1,-1,1,0
0,1,-1,-1,1,-1,-1,1
-1,-1,1,-1,1,-1,-1,0
-1,1,-1,-1,-1,-1,1,0
-1,-1,1,-1,-1,1,-1,0
-1,-1,-1,1,-1,-1,1,0
0,-1,-1,1,1,-1,-1,1
-1,1,-1,-1,-1,1,-1,0
1,-1,1,-1,-1,-1,1,1
0,-1,1,-1,-1,1,-1,1
1,1,-1,-1,1,-1,-1,1
-1,-1,-1,1,1,-1,-1,0
-1,-1,-1,1,-1,1,-1,0
1,-1,-1,1,-1,-1,1,1
-1,-1,-1,1,-1,1,-1,0
-1,-1,1,-1,1,-1,-1,0
-1,-1,-1,1,1,-1,-1,0
-1,-1,-1,1,-1,1,-1,0
0,1,-1,-1,-1,1,-1,1
1,1,-1,-1,-1,-1,1,1
-1,-1,1,-1,-1,1,-1,0
1,-1,1,-1,-1,1,-1,1
0,1,-1,-1,1,-1,-1,1
0,1,-1,-1,-1,-1,1,1
-1,1,-1,-1,1,-1,-1,0
0,1,-1,-1,1,-1,-1,1
1,-1,-1,1,-1,1,-1,1
-1,1,-1,-1,1,-1,-1,0
1,1,-1,-1,1,-1,-1,1
1,-1,1,-1,-1,-1,1,1
1,-1,-1,1,-1,1,-1,1
-1,1,-1,-1,-1,-1,1,0
-1,-1,1,-1,-1,-1,1,0
-1,-1,-1,1,-1,-1,1,0
-1,1,-1,-1,1,-1,-1,0
-1,-1,-1,1,1,-1,-1,0
-1,-1,1,-1,-1,-1,1,0
-1,1,-1,-1,-1,-1,1,0
1,1,-1,-1,-1,1,-1,1
-1,1,-1,-1,-1,1,-1,0
-1,-1,1,-1,-1,-1,1,0
1,-1,-1,1,1,-1,-1,1
0,-1,-1,1,-1,-1,1,1
0,-1,-1,1,-1,1,-1,1
-1,-1,1,-1,1,-1,-1,0
-1,-1,-1,1,1,-1,-1,0
-1,-1,1,-1,-1,1,-1,0
-1,1,-1,-1,1,-1,-1,0
-1,-1,-1,1,-1,-1,1,0
1,-1,1,-1,-1,1,-1,1
0,-1,-1,1,-1,-1,1,1
-1,-1,-1,1,-1,-1,1,0
0,-1,1,-1,1,-1,-1,1
-1,-1,-1,1,-1,-1,1,0
0,-1,1,-1,-1,1,-1,1
1,1,-1,-1,-1,1,-1,1
-1,-1,1,-1,1,-1,-1,0
0,-1,-1,1,-1,1,-1,1
1,-1,-1,1,-1,-1,1,1
0,1,-1,-1,1,-1,-1,1
0,1,-1,-1,1,-1,-1,1
1,-1,1,-1,-1,1,-1,1
1,-1,1,-1,-1,1,-1,1
1,1,-1,-1,1,-1,-1,1
-1,-1,-1,1,-1,1,-1,0
-1,-1,-1,1,-1,1,-1,0
0,-1,1,-1,-1,1,-1,1
0,1,-1,-1,-1,-1,1,1
0,-1,-1,1,1,-1,-1,1
0,1,-1,-1,-1,-1,1,1
1,-1,1,-1,-1,1,-1,1
-1,1,-1,-1,-1,-1,1,0
1,-1,-1,1,-1,-1,1,1
1,-1,-1,1,1,-1,-1,1
-1,-1,1,-1,-1,-1,1,0
1,-1,1,-1,-1,-1,1,1
-1,-1,-1,1,-1,-1,1,0
-1,1,-1,-1,1,-1,-1,0
1,1,-1,-1,1,-1,-1,1
-1,-1,-1,1,-1,1,-1,0
-1,-1,1,-1,1,-1,-1,0
-1,-1,1,-1,1,-1,-1,0
0,-1,-1,1,-1,1,-1,1
0,-1,1,-1,-1,1,-1,1
-1,-1,-1,1,-1,1,-1,0
-1,1,-1,-1,-1,1,-1,0
1,-1,1,-1,1,-1,-1,1
-1,-1,-1,1,-1,1,-1,0
-1,1,-1,-1,1,-1,-1,0
-1,1,-1,-1,1,-1,-1,0
-1,-1,1,-1,1,-1,-1,0
1,1,-1,-1,-1,-1,1,1
-1,-1,-1,1,-1,-1,1,0
-1,-1,-1,1,-1,1,-1,0
-1,1,-1,-1,1,-1,-1,0
0,-1,-1,1,-1,1,-1,1
-1,-1,-1,1,-1,1,-1,0
0,-1,1,-1,1,-1,-1,1
0,-1,1,-1,-1,1,-1,1
-1,-1,-1,1,-1,-1,1,0
1,1,-1,-1,-1,-1,1,1
-1,-1,-1,1,1,-1,-1,0
-1,-1,1,-1,-1,1,-1,0
0,-1,-1,1,1,-1,-1,1
1,1,-1,-1,-1,-1,1,1
-1,-1,1,-1,-1,-1,1,0
0,-1,-1,1,-1,1,-1,1
1,-1,-1,1,-1,1,-1,1
-1,-1,-1,1,1,-1,-1,0
-1,-1,1,-1,-1,1,-1,0
1,-1,1,-1,1,-1,-1,1
-1,1,-1,-1,-1,1,-1,0
-1,-1,-1,1,1,-1,-1,0
-1,-1,-1,1,-1,1,-1,0
1,-1,-1,1,1,-1,-1,1
-1,-1,1,-1,-1,1,-1,0
-1,-1,-1,1,-1,-1,1,0
0,-1,1,-1,1,-1,-1,1
0,-1,-1,1,-1,-1,1,1
-1,1,-1,-1,1,-1,-1,0
-1,-1,1,-1,-1,-1,1,0
0,-1,-1,1,-1,-1,1,1
0,-1,-1,1,-1,1,-1,1
1,1,-1,-1,-1,1,-1,1
-1,-1,1,-1,-1,1,-1,0
1,-1,1,-1,-1,-1,1,1
-1,1,-1,-1,-1,-1,1,0
0,-1,1,-1,-1,-1,1,1
0,-1,-1,1,-1,1,-1,1
-1,1,-1,-1,-1,1,-1,0
-1,-1,1,-1,-1,-1,1,0
0,-1,-1,1,1,-1,-1,1
-1,-1,1,-1,-1,-1,1,0
0,-1,1,-1,-1,-1,1,1
-1,1,-1,-1,-1,-1,1,0
1,-1,-1,1,-1,-1,1,1
-1,-1,-1,1,1,-1,-1,0
0,-1,1,-1,-1,-1,1,1
0,1,-1,-1,1,-1,-1,1
0,-1,1,-1,-1,1,-1,1
-1,1,-1,-1,-1,1,-1,0
0,-1,-1,1,-1,1,-1,1
-1,-1,-1,1,-1,-1,1,0
-1,1,-1,-1,1,-1,-1,0
-1,-1,-1,1,-1,1,-1,0
1,1,-1,-1,-1,1,-1,1
-1,1,-1,-1,-1,1,-1,0
0,-1,1,-1,1,-1,-1,1
1,1,-1,-1,-1,-1,1,1
1,-1,-1,1,-1,1,-1,1
-1,-1,1,-1,1,-1,-1,0
0,1,-1,-1,-1,-1,1,1
-1,-1,1,-1,1,-1,-1,0
1,-1,-1,1,1,-1,-1,1
0,-1,-1,1,-1,-1,1,1
-1,1,-1,-1,1,-1,-1,0
-1,-1,1,-1,-1,-1,1,0
-1,-1,-1,1,-1,-1,1,0
-1,1,-1,-1,-1,-1,1,0
1,-1,-1,1,-1,-1,1,1
-1,-1,1,-1,1,-1,-1,0
-1,1,-1,-1,1,-1,-1,0
0,1,-1,-1,1,-1,-1,1
1,-1,1,-1,-1,1,-1,1
-1,-1,1,-1,-1,1,-1,0
0,-1,1,-1,-1,-1,1,1
-1,-1,-1,1,1,-1,-1,0
0,-1,-1,1,1,-1,-1,1
-1,1,-1,-1,-1,1,-1,0
0,-1,-1,1,1,-1,-1,1
1,-1,-1,1,-1,-1,1,1
-1,1,-1,-1,-1,1,-1,0
-1,-1,1,-1,-1,-1,1,0
0,-1,1,-1,-1,1,-1,1
-1,1,-1,-1,1,-1,-1,0
-1,-1,1,-1,-1,1,-1,0
0,1,-1,-1,1,-1,-1,1
1,-1,-1,1,-1,1,-1,1
-1,-1,1,-1,-1,-1,1,0
1,-1,-1,1,-1,1,-1,1
-1,-1,-1,1,1,-1,-1,0
-1,-1,-1,1,1,-1,-1,0
-1,-1,-1,1,1,-1,-1,0
0,-1,1,-1,-1,-1,1,1
0,-1,-1,1,-1,1,-1,1
0,-1,-1,1,-1,-1,1,1
-1,-1,1,-1,-1,-1,1,0
-1,-1,-1,1,-1,1,-1,0
1,-1,1,-1,-1,-1,1,1
-1,1,-1,-1,-1,-1,1,0
-1,1,-1,-1,-1,1,-1,0
-1,-1,1,-1,-1,1,-1,0
-1,1,-1,-1,-1,1,-1,0
1,1,-1,-1,1,-1,-1,1
0,-1,-1,1,-1,-1,1,1
0,-1,-1,1,-1,-1,1,1
-1,-1,1,-1,1,-1,-1,0
-1,-1,-1,1,-1,-1,1,0
1,1,-1,-1,-1,1,-1,1
0,-1,-1,1,-1,-1,1,1
-1,-1,-1,1,-1,-1,1,0
0,-1,-1,1,1,-1,-1,1
1,1,-1,-1,-1,1,-1,1
-1,-1,-1,1,-1,1,-1,0
0,1,-1,-1,1,-1,-1,1
1,1,-1,-1,-1,1,-1,1
-1,-1,-1,1,-1,1,-1,0
1,1,-1,-1,-1,-1,1,1
-1,1,-1,-1,1,-1,-1,0
1,1,-1,-1,1,-1,-1,1
-1,-1,1,-1,-1,1,-1,0
-1,-1,-1,1,1,-1,-1,0
-1,-1,1,-1,-1,1,-1,0
0,1,-1,-1,-1,1,-1,1
-1,-1,-1,1,-1,1,-1,0
0,-1,1,-1,-1,-1,1,1
0,1,-1,-1,1,-1,-1,1
0,-1,-1,1,-1,1,-1,1
1,-1,-1,1,-1,1,-1,1
0,-1,1,-1,1,-1,-1,1
-1,-1,-1,1,-1,1,-1,0
1,-1,1,-1,-1,-1,1,1
1,-1,-1,1,1,-1,-1,1
-1,-1,1,-1,1,-1,-1,0
0,-1,1,-1,-1,-1,1,1
-1,-1,1,-1,-1,-1,1,0
-1,1,-1,-1,-1,-1,1,0
0,-1,1,-1,-1,-1,1,1
0,1,-1,-1,1,-1,-1,1
1,-1,-1,1,1,-1,-1,1
1,-1,-1,1,1,-1,-1,1
-1,1,-1,-1,1,-1,-1,0
1,1,-1,-1,-1,1,-1,1
0,-1,-1,1,-1,-1,1,1
1,-1,-1,1,-1,1,-1,1
1,-1,1,-1,-1,-1,1,1
-1,1,-1,-1,-1,-1,1,0
0,-1,-1,1,-1,1,-1,1
-1,-1,1,-1,-1,1,-1,0
1,-1,-1,1,-1,-1,1,1
1,1,-1,-1,-1,-1,1,1
-1,-1,-1,1,-1,1,-1,0
-1,-1,-1,1,1,-1,-1,0
0,-1,-1,1,-1,1,-1,1
-1,-1,1,-1,-1,1,-1,0
1,-1,-1,1,-1,1,-1,1
1,1,-1,-1,-1,1,-1,1
1,1,-1,-1,-1,1,-1,1
-1,-1,1,-1,-1,1,-1,0
0,-1,1,-1,-1,-1,1,1
0,1,-1,-1,-1,-1,1,1
1,-1,1,-1,-1,-1,1,1
-1,1,-1,-1,1,-1,-1,0
-1,1,-1,-1,-1,1,-1,0
1,-1,-1,1,-1,1,-1,1
-1,1,-1,-1,1,-1,-1,0
1,1,-1,-1,-1,-1,1,1
1,1,-1,-1,-1,1,-1,1
-1,1,-1,-1,-1,-1,1,0
1,-1,1,-1,-1,1,-1,1
-1,1,-1,-1,-1,-1,1,0
-1,-1,1,-1,-1,1,-1,0
0,-1,-1,1,-1,1,-1,1
1,1,-1,-1,-1,1,-1,1
-1,-1,1,-1,1,-1,-1,0
-1,-1,1,-1,-1,1,-1,0
-1,-1,1,-1,-1,-1,1,0
-1,-1,1,-1,1,-1,-1,0
0,-1,1,-1,1,-1,-1,1
-1,-1,-1,1,-1,1,-1,0
0,-1,-1,1,-1,1,-1,1
-1,-1,-1,1,1,-1,-1,0
-1,1,-1,-1,-1,-1,1,0
-1,-1,1,-1,-1,1,-1,0
-1,-1,-1,1,-1,1,-1,0
1,-1,1,-1,-1,1,-1,1
-1,-1,-1,1,-1,-1,1,0
0,-1,1,-1,1,-1,-1,1
-1,1,-1,-1,1,-1,-1,0
-1,-1,1,-1,-1,-1,1,0
0,-1,1,-1,-1,1,-1,1
1,-1,1,-1,1,-1,-1,1
-1,-1,1,-1,-1,-1,1,0
1,1,-1,-1,1,-1,-1,1
-1,-1,-1,1,-1,-1,1,0
-1,-1,-1,1,-1,1,-1,0
-1,-1,-1,1,-1,-1,1,0
-1,-1,-1,1,-1,-1,1,0
0,1,-1,-1,-1,1,-1,1
1,1,-1,-1,-1,-1,1,1
-1,-1,1,-1,-1,1,-1,0
-1,-1,-1,1,-1,1,-1,0
-1,-1,1,-1,1,-1,-1,0
-1,1,-1,-1,-1,1,-1,0
1,-1,1,-1,-1,-1,1,1
-1,-1,-1,1,-1,1,-1,0
0,1,-1,-1,-1,1,-1,1
-1,-1,1,-1,1,-1,-1,0
1,1,-1,-1,-1,1,-1,1
1,-1,-1,1,-1,1,-1,1
-1,-1,1,-1,-1,-1,1,0
-1,1,-1,-1,-1,-1,1,0
1,-1,1,-1,-1,-1,1,1
1,-1,-1,1,1,-1,-1,1
-1,-1,-1,1,-1,-1,1,0
1,-1,-1,1,1,-1,-1,1
0,-1,1,-1,-1,-1,1,1
1,1,-1,-1,1,-1,-1,1
1,1,-1,-1,1,-1,-1,1
1,1,-1,-1,1,-1,-1,1
0,-1,1,-1,-1,-1,1,1
-1,-1,-1,1,1,-1,-1,0
0,1,-1,-1,-1,-1,1,1
-1,1,-1,-1,1,-1,-1,0
-1,1,-1,-1,-1,-1,1,0
-1,-1,1,-1,1,-1,-1,0
-1,-1,1,-1,-1,1,-1,0
0,-1,1,-1,1,-1,-1,1
-1,-1,1,-1,-1,1,-1,0
-1,-1,1,-1,-1,-1,1,0
-1,-1,1,-1,-1,1,-1,0
1,-1,-1,1,1,-1,-1,1
-1,-1,1,-1,1,-1,-1,0
-1,-1,-1,1,-1,-1,1,0
-1,1,-1,-1,-1,-1,1,0
1,-1,-1,1,-1,-1,1,1
1,1,-1,-1,-1,-1,1,1
1,1,-1,-1,-1,1,-1,1
1,1,-1,-1,-1,-1,1,1
-1,-1,-1,1,-1,1,-1,0
0,-1,-1,1,1,-1,-1,1
-1,1,-1,-1,-1,-1,1,0
-1,-1,-1,1,1,-1,-1,0
-1,-1,1,-1,-1,1,-1,0
-1,-1,1,-1,-1,1,-1,0
-1,-1,-1,1,-1,-1,1,0
-1,-1,-1,1,1,-1,-1,0
-1,1,-1,-1,-1,-1,1,0
0,-1,-1,1,-1,1,-1,1
-1,-1,1,-1,1,-1,-1,0
-1,1,-1,-1,1,-1,-1,0
0,-1,-1,1,-1,1,-1,1
-1,-1,-1,1,1,-1,-1,0
-1,-1,-1,1,-1,1,-1,0
-1,-1,1,-1,-1,-1,1,0
0,-1,1,-1,-1,-1,1,1
-1,-1,1,-1,-1,1,-1,0
1,1,-1,-1,1,-1,-1,1
1,1,-1,-1,-1,1,-1,1
-1,-1,-1,1,1,-1,-1,0
1,-1,1,-1,-1,1,-1,1
-1,-1,1,-1,-1,-1,1,0
-1,-1,1,-1,-1,1,-1,0
1,-1,-1,1,-1,1,-1,1
-1,1,-1,-1,-1,-1,1,0
0,1,-1,-1,1,-1,-1,1
-1,-1,-1,1,-1,-1,1,0
-1,1,-1,-1,1,-1,-1,0
1,1,-1,-1,-1,1,-1,1
0,-1,1,-1,-1,1,-1,1
0,-1,1,-1,-1,1,-1,1
0,1,-1,-1,-1,1,-1,1
-1,-1,-1,1,-1,-1,1,0
1,-1,-1,1,-1,-1,1,1
0,1,-1,-1,-1,-1,1,1
-1,-1,1,-1,-1,-1,1,0
1,-1,1,-1,-1,1,-1,1
-1,-1,-1,1,-1,1,-1,0
-1,-1,1,-1,-1,1,-1,0
-1,-1,1,-1,-1,1,-1,0
0,-1,-1,1,1,-1,-1,1
-1,-1,-1,1,1,-1,-1,0
0,-1,1,-1,-1,1,-1,1
0,-1,1,-1,-1,-1,1,1
-1,-1,1,-1,-1,-1,1,0
1,-1,-1,1,-1,-1,1,1
-1,-1,1,-1,-1,-1,1,0
-1,-1,1,-1,-1,-1,1,0
-1,-1,-1,1,-1,1,-1,0
-1,1,-1,-1,-1,-1,1,0
0,-1,1,-1,1,-1,-1,1
-1,-1,-1,1,-1,1,-1,0
-1,1,-1,-1,1,-1,-1,0
0,1,-1,-1,-1,1,-1,1
-1,-1,1,-1,-1,1,-1,0
-1,1,-1,-1,1,-1,-1,0
-1,-1,1,-1,-1,1,-1,0
1,-1,-1,1,-1,1,-1,1
-1,-1,1,-1,-1,-1,1,0
-1,-1,1,-1,-1,1,-1,0
0,-1,-1,1,1,-1,-1,1
1,-1,-1,1,-1,1,-1,1
-1,-1,-1,1,-1,-1,1,0
0,-1,-1,1,1,-1,-1,1
-1,-1,-1,1,-1,-1,1,0
1,-1,-1,1,-1,1,-1,1
-1,-1,-1,1,-1,-1,1,0
0,-1,1,-1,1,-1,-1,1
-1,1,-1,-1,-1,1,-1,0
-1,-1,-1,1,1,-1,-1,0
0,-1,1,-1,1,-1,-1,1
-1,1,-1,-1,1,-1,-1,0
-1,1,-1,-1,-1,1,-1,0
-1,-1,-1,1,1,-1,-1,0
-1,-1,1,-1,1,-1,-1,0
-1,-1,-1,1,-1,-1,1,0
-1,-1,1,-1,-1,-1,1,0
-1,-1,1,-1,-1,1,-1,0
-1,-1,1,-1,1,-1,-1,0
0,-1,-1,1,-1,1,-1,1
0,1,-1,-1,-1,1,-1,1
-1,-1,1,-1,-1,1,-1,0
-1,1,-1,-1,-1,-1,1,0
-1,1,-1,-1,-1,1,-1,0
-1,-1,1,-1,-1,-1,1,0
1,-1,1,-1,1,-1,-1,1
1,-1,1,-1,-1,1,-1,1
-1,1,-1,-1,1,-1,-1,0
0,1,-1,-1,1,-1,-1,1
-1,-1,-1,1,-1,1,-1,0
-1,1,-1,-1,-1,1,-1,0
-1,-1,1,-1,-1,1,-1,0
-1,-1,-1,1,1,-1,-1,0
-1,-1,-1,1,-1,-1,1,0
1,1,-1,-1,-1,-1,1,1
0,1,-1,-1,-1,1,-1,1
-1,-1,-1,1,-1,-1,1,0
-1,1,-1,-1,-1,1,-1,0
-1,-1,1,-1,1,-1,-1,0
-1,1,-1,-1,-1,-1,1,0
-1,-1,1,-1,1,-1,-1,0
-1,-1,-1,1,-1,-1,1,0
0,-1,-1,1,-1,1,-1,1
0,1,-1,-1,-1,-1,1,1
0,1,-1,-1,-1,1,-1,1
1,1,-1,-1,-1,-1,1,1
0,-1,1,-1,-1,-1,1,1
1,-1,1,-1,-1,-1,1,1
1,1,-1,-1,-1,1,-1,1
-1,-1,1,-1,-1,-1,1,0
0,1,-1,-1,1,-1,-1,1
-1,1,-1,-1,-1,-1,1,0
0,-1,-1,1,-1,-1,1,1
1,-1,1,-1,1,-1,-1,1
1,-1,1,-1,-1,1,-1,1
1,-1,1,-1,-1,1,-1,1
0,1,-1,-1,-1,-1,1,1
1,1,-1,-1,-1,-1,1,1
1,-1,-1,1,-1,-1,1,1
1,-1,-1,1,1,-1,-1,1
1,-1,-1,1,-1,1,-1,1
-1,1,-1,-1,-1,1,-1,0
0,1,-1,-1,-1,1,-1,1
-1,-1,1,-1,1,-1,-1,0
-1,-1,1,-1,-1,-1,1,0
-1,-1,-1,1,-1,-1,1,0
-1,-1,1,-1,1,-1,-1,0
-1,-1,-1,1,1,-1,-1,0
1,1,-1,-1,1,-1,-1,1
0,-1,1,-1,-1,-1,1,1
-1,-1,1,-1,-1,1,-1,0
-1,1,-1,-1,-1,1,-1,0
1,-1,1,-1,-1,1,-1,1
-1,1,-1,-1,1,-1,-1,0
0,-1,1,-1,-1,1,-1,1
-1,-1,-1,1,-1,1,-1,0
1,-1,1,-1,-1,-1,1,1
0,-1,1,-1,-1,1,-1,1
-1,1,-1,-1,1,-1,-1,0
-1,1,-1,-1,1,-1,-1,0
-1,-1,1,-1,-1,1,-1,0
1,-1,-1,1,-1,-1,1,1
1,1,-1,-1,-1,1,-1,1
1,-1,1,-1,-1,1,-1,1
0,1,-1,-1,-1,-1,1,1
-1,1,-1,-1,-1,-1,1,0
-1,-1,-1,1,-1,-1,1,0
0,-1,1,-1,-1,1,-1,1
1,-1,1,-1,-1,-1,1,1
-1,-1,1,-1,-1,-1,1,0
-1,1,-1,-1,-1,1,-1,0
0,-1,1,-1,1,-1,-1,1
-1,-1,-1,1,-1,1,-1,0
1,1,-1,-1,1,-1,-1,1
-1,-1,-1,1,-1,1,-1,0
1,1,-1,-1,-1,-1,1,1
-1,-1,1,-1,1,-1,-1,0
-1,-1,1,-1,-1,-1,1,0
1,1,-1,-1,1,-1,-1,1
-1,-1,1,-1,-1,-1,1,0
0,1,-1,-1,1,-1,-1,1
-1,-1,-1,1,1,-1,-1,0
1,-1,-1,1,-1,1,-1,1
0,-1,1,-1,1,-1,-1,1
1,-1,-1,1,-1,-1,1,1
-1,-1,-1,1,-1,1,-1,0
-1,-1,1,-1,-1,1,-1,0
0,1,-1,-1,1,-1,-1,1
-1,1,-1,-1,-1,1,-1,0
-1,1,-1,-1,-1,1,-1,0
1,1,-1,-1,1,-1,-1,1
-1,-1,1,-1,1,-1,-1,0
-1,1,-1,-1,1,-1,-1,0
-1,-1,1,-1,-1,1,-1,0
1,-1,1,-1,-1,-1,1,1
1,-1,1,-1,1,-1,-1,1
-1,-1,1,-1,1,-1,-1,0
0,-1,1,-1,1,-1,-1,1
1,-1,-1,1,-1,-1,1,1
-1,1,-1,-1,1,-1,-1,0
-1,-1,-1,1,1,-1,-1,0
-1,-1,1,-1,-1,1,-1,0
-1,-1,-1,1,-1,1,-1,0
-1,1,-1,-1,-1,-1,1,0
1,-1,1,-1,1,-1,-1,1
-1,1,-1,-1,1,-1,-1,0
-1,1,-1,-1,1,-1,-1,0
1,1,-1,-1,-1,-1,1,1
-1,-1,-1,1,-1,1,-1,0
0,-1,-1,1,-1,-1,1,1
-1,-1,-1,1,-1,1,-1,0
0,1,-1,-1,-1,1,-1,1
0,-1,1,-1,-1,-1,1,1
-1,-1,1,-1,1,-1,-1,0
1,1,-1,-1,-1,1,-1,1
-1,-1,1,-1,-1,-1,1,0
0,-1,-1,1,1,-1,-1,1
0,-1,1,-1,-1,-1,1,1
1,-1,1,-1,-1,-1,1,1
1,-1,1,-1,-1,1,-1,1
0,-1,-1,1,1,-1,-1,1
-1,-1,-1,1,1,-1,-1,0
-1,-1,-1,1,1,-1,-1,0
-1,-1,1,-1,-1,1,-1,0
1,1,-1,-1,-1,1,-1,1
1,-1,-1,1,-1,-1,1,1
-1,1,-1,-1,-1,1,-1,0
1,-1,1,-1,1,-1,-1,1
0,-1,-1,1,-1,-1,1,1
1,1,-1,-1,-1,1,-1,1
-1,-1,1,-1,-1,1,-1,0
-1,1,-1,-1,-1,1,-1,0
-1,-1,1,-1,-1,1,-1,0
-1,-1,-1,1,1,-1,-1,0
-1,1,-1,-1,-1,-1,1,0
0,-1,-1,1,1,-1,-1,1
0,-1,-1,1,1,-1,-1,1
1,-1,1,-1,-1,-1,1,1
0,1,-1,-1,-1,1,-1,1
-1,-1,-1,1,1,-1,-1,0
-1,-1,1,-1,1,-1,-1,0
-1,-1,-1,1,-1,-1,1,0
-1,-1,-1,1,-1,1,-1,0
0,-1,1,-1,-1,1,-1,1
-1,1,-1,-1,-1,1,-1,0
-1,-1,1,-1,-1,1,-1,0
0,-1,1,-1,-1,-1,1,1
-1,-1,-1,1,-1,-1,1,0
0,-1,1,-1,-1,-1,1,1
0,1,-1,-1,-1,-1,1,1
-1,1,-1,-1,1,-1,-1,0
-1,-1,1,-1,-1,-1,1,0
1,-1,-1,1,-1,-1,1,1
-1,-1,-1,1,-1,1,-1,0
-1,-1,-1,1,1,-1,-1,0
-1,1,-1,-1,-1,-1,1,0
-1,-1,1,-1,1,-1,-1,0
1,-1,1,-1,-1,1,-1,1
1,-1,-1,1,-1,1,-1,1
-1,-1,-1,1,-1,1,-1,0
1,-1,1,-1,-1,1,-1,1
0,1,-1,-1,-1,1,-1,1
0,1,-1,-1,-1,1,-1,1
-1,1,-1,-1,-1,-1,1,0
-1,-1,-1,1,-1,-1,1,0
1,-1,-1,1,-1,1,-1,1
-1,-1,1,-1,-1,-1,1,0
1,-1,1,-1,-1,-1,1,1
1,-1,-1,1,-1,1,-1,1
-1,1,-1,-1,1,-1,-1,0
-1,-1,1,-1,-1,1,-1,0
0,-1,1,-1,-1,-1,1,1
-1,-1,1,-1,-1,-1,1,0
-1,1,-1,-1,1,-1,-1,0
-1,1,-1,-1,-1,1,-1,0
-1,1,-1,-1,-1,1,-1,0
-1,1,-1,-1,-1,1,-1,0
-1,-1,-1,1,1,-1,-1,0
-1,-1,1,-1,1,-1,-1,0
0,-1,-1,1,-1,1,-1,1
-1,-1,1,-1,-1,-1,1,0
1,-1,-1,1,-1,-1,1,1
-1,-1,-1,1,-1,-1,1,0
1,-1,-1,1,-1,-1,1,1
1,-1,-1,1,1,-1,-1,1
1,-1,1,-1,-1,-1,1,0
-1,-1,1,-1,1,-1,-1,0
1,1,-1,-1,-1,-1,1,1
-1,-1,-1,1,-1,1,-1,0
-1,1,-1,-1,1,-1,-1,0
0,-1,-1,1,-1,-1,1,1
0,-1,-1,1,1,-1,-1,1
0,1,-1,-1,-1,1,-1,1
-1,1,-1,-1,-1,1,-1,0
0,-1,1,-1,-1,1,-1,1
0,-1,1,-1,1,-1,-1,1
1,-1,1,-1,-1,-1,1,1
0,-1,-1,1,-1,1,-1,0
0,-1,1,-1,-1,-1,1,1
-1,-1,-1,1,-1,-1,1,0
0,-1,1,-1,-1,-1,1,1
-1,-1,-1,1,-1,1,-1,0
1,-1,1,-1,-1,-1,1,1
1,-1,1,-1,-1,1,-1,1
0,-1,1,-1,-1,-1,1,1
-1,-1,1,-1,-1,-1,1,0
0,1,-1,-1,1,-1,-1,1
-1,1,-1,-1,-1,-1,1,0
0,-1,1,-1,-1,-1,1,1
0,-1,1,-1,-1,-1,1,1
1,1,-1,-1,-1,-1,1,1
-1,1,-1,-1,-1,1,-1,1
1,1,-1,-1,-1,-1,1,1
-1,1,-1,-1,1,-1,-1,0
0,-1,1,-1,1,-1,-1,1
-1,1,-1,-1,-1,1,-1,0
0,-1,1,-1,-1,1,-1,1
-1,-1,1,-1,1,-1,-1,0
1,1,-1,-1,1,-1,-1,1
0,1,-1,-1,-1,-1,1,1
0,-1,-1,1,-1,1,-1,1
-1,-1,1,-1,-1,-1,1,0
0,-1,-1,1,-1,1,-1,1
-1,-1,1,-1,1,-1,-1,0
-1,-1,-1,1,1,-1,-1,0
-1,1,-1,-1,-1,1,-1,0
1,1,-1,-1,1,-1,-1,1
1,-1,1,-1,-1,-1,1,1
0,1,-1,-1,-1,1,-1,1
-1,-1,1,-1,-1,-1,1,0
1,-1,1,-1,1,-1,-1,1
-1,-1,1,-1,-1,1,-1,0
0,-1,-1,1,-1,1,-1,1
-1,-1,-1,1,-1,-1,1,0
-1,-1,1,-1,-1,-1,1,0
1,1,-1,-1,1,-1,-1,1
0,-1,-1,1,1,-1,-1,1
0,-1,-1,1,-1,1,-1,1
-1,-1,1,-1,-1,1,-1,0
0,-1,1,-1,1,-1,-1,1
1,-1,-1,1,-1,1,-1,1
0,-1,1,-1,-1,-1,1,1
-1,1,-1,-1,1,-1,-1,0
-1,-1,1,-1,-1,1,-1,0
1,1,-1,-1,-1,-1,1,1
-1,-1,1,-1,-1,1,-1,0
-1,-1,1,-1,-1,1,-1,0
-1,-1,-1,1,-1,1,-1,0
1,-1,-1,1,1,-1,-1,1
-1,-1,-1,1,-1,1,-1,0
-1,-1,1,-1,1,-1,-1,0
0,1,-1,-1,-1,-1,1,1
-1,-1,1,-1,1,-1,-1,0
-1,-1,1,-1,1,-1,-1,0
-1,-1,-1,1,1,-1,-1,0
-1,1,-1,-1,1,-1,-1,1
1,-1,-1,1,-1,-1,1,1
-1,1,-1,-1,1,-1,-1,0
0,1,-1,-1,1,-1,-1,1
0,-1,1,-1,1,-1,-1,1
1,1,-1,-1,1,-1,-1,1
-1,-1,-1,1,1,-1,-1,0
-1,-1,-1,1,-1,-1,1,0
-1,1,-1,-1,-1,1,-1,1
-1,-1,-1,1,1,-1,-1,0
-1,-1,1,-1,-1,1,-1,0
-1,1,-1,-1,1,-1,-1,1
-1,-1,-1,1,-1,-1,1,0
-1,-1,1,-1,-1,1,-1,0
1,-1,-1,1,1,-1,-1,1
1,-1,1,-1,-1,1,-1,1
1,1,-1,-1,-1,1,-1,1
1,-1,-1,1,-1,-1,1,1
-1,-1,-1,1,-1,-1,1,0
-1,1,-1,-1,-1,-1,1,0
-1,-1,1,-1,-1,-1,1,0
1,1,-1,-1,1,-1,-1,1
-1,1,-1,-1,-1,-1,1,1
0,-1,1,-1,1,-1,-1,1
-1,-1,-1,1,1,-1,-1,0
0,-1,-1,1,1,-1,-1,1
-1,1,-1,-1,-1,-1,1,0
0,1,-1,-1,-1,1,-1,0
1,1,-1,-1,-1,-1,1,1
-1,-1,1,-1,1,-1,-1,0
-1,-1,-1,1,1,-1,-1,0
-1,-1,-1,1,-1,1,-1,0
1,1,-1,-1,-1,-1,1,1
-1,-1,1,-1,1,-1,-1,0
0,-1,1,-1,-1,-1,1,1
-1,-1,1,-1,1,-1,-1,0
-1,1,-1,-1,-1,-1,1,1
1,1,-1,-1,-1,1,-1,1
-1,-1,-1,1,1,-1,-1,0
-1,1,-1,-1,-1,1,-1,0
0,-1,-1,1,-1,1,-1,0
-1,-1,-1,1,-1,-1,1,0
-1,-1,1,-1,-1,-1,1,0
1,-1,1,-1,1,-1,-1,1
-1,-1,1,-1,1,-1,-1,0
-1,-1,1,-1,-1,1,-1,0
0,-1,1,-1,-1,-1,1,0
-1,1,-1,-1,-1,1,-1,1
-1,1,-1,-1,1,-1,-1,1
1,1,-1,-1,1,-1,-1,1
-1,1,-1,-1,1,-1,-1,1
-1,-1,-1,1,-1,-1,1,0
1,-1,1,-1,-1,-1,1,1
0,-1,-1,1,-1,-1,1,0
-1,-1,-1,1,1,-1,-1,0
1,-1,-1,1,1,-1,-1,0
-1,-1,-1,1,1,-1,-1,0
-1,1,-1,-1,-1,1,-1,1
-1,-1,1,-1,-1,1,-1,0
-1,1,-1,-1,-1,1,-1,1
-1,1,-1,-1,-1,-1,1,0
1,1,-1,-1,1,-1,-1,0
-1,1,-1,-1,-1,-1,1,1
0,-1,-1,1,-1,-1,1,1
-1,-1,-1,1,-1,-1,1,0
1,-1,-1,1,1,-1,-1,0
0,-1,-1,1,-1,-1,1,0
-1,1,-1,-1,-1,1,-1,1
-1,1,-1,-1,-1,1,-1,1
-1,-1,-1,1,-1,-1,1,0
-1,1,-1,-1,-1,1,-1,1
-1,1,-1,-1,1,-1,-1,1
1,-1,-1,1,-1,1,-1,0
-1,1,-1,-1,-1,1,-1,1
1,-1,-1,1,-1,1,-1,1
0,-1,1,-1,-1,-1,1,1
0,1,-1,-1,-1,1,-1,0
-1,1,-1,-1,-1,-1,1,1
-1,1,-1,-1,-1,-1,1,1
-1,1,-1,-1,-1,1,-1,0
-1,1,-1,-1,1,-1,-1,1
-1,1,-1,-1,-1,1,-1,1
1,-1,1,-1,1,-1,-1,0
-1,1,-1,-1,1,-1,-1,1
1,-1,1,-1,-1,1,-1,0
-1,-1,1,-1,-1,-1,1,0
0,1,-1,-1,-1,-1,1,0
-1,1,-1,-1,-1,1,-1,1
1,-1,1,-1,-1,-1,1,1
-1,1,-1,-1,-1,1,-1,1
1,-1,-1,1,-1,1,-1,1
-1,-1,-1,1,-1,-1,1,0
-1,1,-1,-1,-1,-1,1,1
-1,1,-1,-1,-1,1,-1,1
0,-1,1,-1,1,-1,-1,0
1,-1,-1,1,1,-1,-1,1
0,1,-1,-1,-1,1,-1,0
-1,1,-1,-1,-1,1,-1,0
-1,1,-1,-1,-1,1,-1,1
1,-1,-1,1,-1,-1,1,0
-1,1,-1,-1,1,-1,-1,0
-1,1,-1,-1,-1,1,-1,0
1,1,-1,-1,-1,-1,1,0
-1,1,-1,-1,-1,1,-1,1
0,-1,-1,1,-1,1,-1,0
-1,1,-1,-1,-1,-1,1,0
0,-1,-1,1,1,-1,-1,0
-1,1,-1,-1,-1,-1,1,1
1,-1,1,-1,-1,-1,1,0
0,1,-1,-1,-1,-1,1,0
-1,-1,1,-1,1,-1,-1,0
-1,1,-1,-1,-1,1,-1,1
-1,-1,-1,1,-1,1,-1,0
-1,-1,-1,1,1,-1,-1,0
0,-1,1,-1,-1,1,-1,0
-1,1,-1,-1,1,-1,-1,1
-1,1,-1,-1,1,-1,-1,1
-1,1,-1,-1,1,-1,-1,1
-1,1,-1,-1,-1,-1,1,1
-1,1,-1,-1,-1,-1,1,1
-1,-1,1,-1,1,-1,-1,0
-1,1,-1,-1,-1,1,-1,1
1,-1,1,-1,-1,1,-1,0
1,-1,1,-1,-1,-1,1,0
-1,1,-1,-1,-1,-1,1,1
1,1,-1,-1,-1,1,-1,0
-1,1,-1,-1,-1,-1,1,1
-1,-1,-1,1,-1,1,-1,0
-1,-1,1,-1,1,-1,-1,0
0,-1,1,-1,-1,-1,1,0
-1,1,-1,-1,-1,1,-1,1
-1,1,-1,-1,1,-1,-1,0
0,1,-1,-1,-1,-1,1,0
-1,1,-1,-1,1,-1,-1,1
-1,1,-1,-1,1,-1,-1,1
-1,1,-1,-1,-1,-1,1,1
-1,1,-1,-1,-1,1,-1,1
0,1,-1,-1,-1,-1,1,0
0,1,-1,-1,-1,1,-1,0
-1,-1,1,-1,-1,1,-1,0
-1,1,-1,-1,-1,1,-1,1
-1,1,-1,-1,-1,1,-1,1
1,1,-1,-1,1,-1,-1,0
0,1,-1,-1,-1,-1,1,0
-1,1,-1,-1,1,-1,-1,1
0,-1,1,-1,-1,-1,1,0
1,1,-1,-1,-1,-1,1,0
-1,1,-1,-1,-1,-1,1,1
0,-1,1,-1,1,-1,-1,0
-1,1,-1,-1,-1,-1,1,1
-1,1,-1,-1,-1,-1,1,1
-1,-1,1,-1,-1,1,-1,0
-1,1,-1,-1,1,-1,-1,1
-1,1,-1,-1,-1,1,-1,1
1,-1,1,-1,-1,1,-1,0
-1,1,-1,-1,-1,1,-1,1
-1,1,-1,-1,1,-1,-1,1
1,1,-1,-1,1,-1,-1,0
-1,1,-1,-1,1,-1,-1,1
-1,1,-1,-1,1,-1,-1,1
0,1,-1,-1,1,-1,-1,0
-1,1,-1,-1,-1,-1,1,1
-1,-1,1,-1,-1,-1,1,0
0,1,-1,-1,-1,1,-1,0
-1,1,-1,-1,-1,-1,1,1
-1,1,-1,-1,-1,1,-1,1
1,-1,-1,1,1,-1,-1,0
1,1,-1,-1,1,-1,-1,0
-1,1,-1,-1,-1,1,-1,1
0,-1,-1,1,-1,1,-1,0
0,-1,-1,1,1,-1,-1,0
-1,1,-1,-1,1,-1,-1,1
1,-1,1,-1,1,-1,-1,0
-1,1,-1,-1,-1,1,-1,1
-1,1,-1,-1,1,-1,-1,1
-1,1,-1,-1,1,-1,-1,1
0,-1,-1,1,-1,-1,1,0
-1,1,-1,-1,1,-1,-1,1
0,-1,-1,1,-1,1,-1,0
-1,1,-1,-1,-1,-1,1,1
-1,1,-1,-1,1,-1,-1,1
0,-1,-1,1,-1,1,-1,0
0,1,-1,-1,1,-1,-1,0
-1,-1,-1,1,1,-1,-1,0
1,1,-1,-1,1,-1,-1,0
-1,1,-1,-1,-1,-1,1,1
-1,1,-1,-1,-1,1,-1,1
-1,1,-1,-1,1,-1,-1,1
-1,1,-1,-1,-1,-1,1,1
-1,1,-1,-1,1,-1,-1,1
0,1,-1,-1,-1,-1,1,0
-1,1,-1,-1,-1,1,-1,1
1,-1,-1,1,-1,-1,1,0
-1,-1,1,-1,-1,-1,1,0
-1,1,-1,-1,1,-1,-1,1
1,1,-1,-1,1,-1,-1,0
1,-1,-1,1,-1,-1,1,0
-1,-1,-1,1,-1,-1,1,0
1,1,-1,-1,-1,-1,1,0
-1,1,-1,-1,-1,1,-1,1
1,1,-1,-1,-1,1,-1,0
1,-1,1,-1,1,-1,-1,0
-1,1,-1,-1,-1,1,-1,1
0,-1,1,-1,-1,-1,1,0
0,-1,1,-1,-1,-1,1,0
-1,1,-1,-1,1,-1,-1,1
-1,-1,-1,1,-1,1,-1,0
1,-1,-1,1,-1,1,-1,0
-1,1,-1,-1,-1,1,-1,1
-1,1,-1,-1,1,-1,-1,1
-1,1,-1,-1,1,-1,-1,1
-1,1,-1,-1,1,-1,-1,1
-1,1,-1,-1,-1,-1,1,1
-1,-1,-1,1,-1,1,-1,0
-1,1,-1,-1,-1,1,-1,1
-1,1,-1,-1,-1,1,-1,1
-1,-1,-1,1,1,-1,-1,0
-1,1,-1,-1,-1,-1,1,1
1,-1,1,-1,-1,1,-1,0
-1,1,-1,-1,-1,1,-1,1
0,-1,-1,1,-1,-1,1,0
0,-1,-1,1,-1,-1,1,0
-1,1,-1,-1,-1,-1,1,1
1,1,-1,-1,1,-1,-1,0
-1,1,-1,-1,-1,1,-1,1
0,1,-1,-1,-1,-1,1,0
-1,1,-1,-1,1,-1,-1,1
-1,1,-1,-1,-1,-1,1,1
-1,-1,1,-1,1,-1,-1,0
0,-1,1,-1,-1,-1,1,0
-1,1,-1,-1,-1,1,-1,1
0,1,-1,-1,-1,1,-1,0
0,-1,1,-1,1,-1,-1,0
1,-1,-1,1,-1,1,-1,0
0,1,-1,-1,1,-1,-1,0
1,-1,1,-1,-1,-1,1,0
-1,1,-1,-1,-1,-1,1,1
-1,1,-1,-1,1,-1,-1,1
-1,-1,-1,1,1,-1,-1,0
-1,1,-1,-1,-1,-1,1,1
0,1,-1,-1,-1,1,-1,0
0,-1,-1,1,-1,-1,1,0
-1,1,-1,-1,-1,-1,1,1
-1,1,-1,-1,1,-1,-1,1
-1,1,-1,-1,-1,-1,1,1
-1,1,-1,-1,-1,-1,1,1
-1,1,-1,-1,-1,1,-1,1
-1,1,-1,-1,-1,1,-1,1
-1,1,-1,-1,-1,1,-1,1
0,-1,-1,1,1,-1,-1,0
-1,1,-1,-1,1,-1,-1,1
0,-1,1,-1,-1,1,-1,0
-1,1,-1,-1,-1,-1,1,1
-1,1,-1,-1,-1,-1,1,1
0,-1,1,-1,-1,1,-1,0
-1,1,-1,-1,-1,1,-1,1
-1,1,-1,-1,-1,-1,1,1
-1,1,-1,-1,1,-1,-1,1
-1,1,-1,-1,-1,-1,1,1
1,-1,1,-1,-1,-1,1,0
-1,1,-1,-1,-1,-1,1,1
-1,1,-1,-1,1,-1,-1,1
1,1,-1,-1,-1,1,-1,0
-1,1,-1,-1,-1,-1,1,1
-1,1,-1,-1,-1,-1,1,1
1,1,-1,-1,-1,-1,1,0
1,1,-1,-1,-1,1,-1,0
1,-1,1,-1,1,-1,-1,0
1,-1,1,-1,-1,1,-1,0
0,-1,-1,1,-1,1,-1,0
-1,1,-1,-1,-1,-1,1,1
-1,1,-1,-1,-1,1,-1,1
-1,1,-1,-1,-1,-1,1,1
-1,1,-1,-1,-1,-1,1,1
-1,1,-1,-1,-1,-1,1,1
-1,1,-1,-1,-1,1,-1,1
-1,1,-1,-1,-1,-1,1,1
-1,1,-1,-1,1,-1,-1,1
1,-1,1,-1,1,-1,-1,0
0,-1,-1,1,-1,1,-1,0
0,1,-1,-1,-1,1,-1,0
-1,1,-1,-1,-1,1,-1,1
-1,1,-1,-1,-1,1,-1,1
-1,-1,1,-1,-1,1,-1,0
1,-1,-1,1,-1,1,-1,0
1,1,-1,-1,-1,-1,1,0
-1,-1,1,-1,-1,1,-1,0
-1,1,-1,-1,-1,-1,1,1
-1,1,-1,-1,-1,-1,1,1
-1,1,-1,-1,-1,-1,1,1
-1,1,-1,-1,-1,-1,1,1
-1,-1,-1,1,-1,-1,1,0
-1,1,-1,-1,-1,1,-1,1
-1,1,-1,-1,-1,-1,1,1
0,-1,1,-1,1,-1,-1,0
-1,1,-1,-1,-1,1,-1,1
0,1,-1,-1,-1,1,-1,0
-1,1,-1,-1,-1,-1,1,1
-1,-1,-1,1,1,-1,-1,0
-1,1,-1,-1,-1,-1,1,1
1,-1,-1,1,1,-1,-1,0
0,1,-1,-1,1,-1,-1,0
0,-1,-1,1,1,-1,-1,0
-1,1,-1,-1,1,-1,-1,1
-1,-1,-1,1,-1,-1,1,0
-1,1,-1,-1,1,-1,-1,1
-1,1,-1,-1,-1,1,-1,1
-1,1,-1,-1,-1,1,-1,1
1,-1,-1,1,1,-1,-1,0
1,-1,-1,1,-1,-1,1,0
0,1,-1,-1,1,-1,-1,0
-1,1,-1,-1,1,-1,-1,1
-1,1,-1,-1,-1,-1,1,1
0,1,-1,-1,-1,-1,1,0
-1,1,-1,-1,-1,-1,1,1
-1,1,-1,-1,-1,1,-1,1
-1,-1,-1,1,-1,-1,1,0
0,-1,1,-1,-1,1,-1,0
1,-1,1,-1,1,-1,-1,0
1,-1,-1,1,1,-1,-1,0
-1,1,-1,-1,1,-1,-1,1
-1,1,-1,-1,-1,-1,1,1
1,-1,1,-1,-1,-1,1,0
-1,1,-1,-1,1,-1,-1,1
-1,1,-1,-1,1,-1,-1,1
-1,1,-1,-1,-1,1,-1,1
-1,1,-1,-1,-1,-1,1,1
-1,1,-1,-1,1,-1,-1,1
-1,1,-1,-1,-1,-1,1,1
-1,1,-1,-1,-1,-1,1,1
0,-1,-1,1,1,-1,-1,0
0,1,-1,-1,1,-1,-1,0
-1,1,-1,-1,-1,1,-1,1
0,-1,1,-1,1,-1,-1,0
1,1,-1,-1,-1,1,-1,0
-1,1,-1,-1,-1,1,-1,1
-1,1,-1,-1,-1,-1,1,1
-1,1,-1,-1,1,-1,-1,1
-1,1,-1,-1,1,-1,-1,1
-1,1,-1,-1,1,-1,-1,1
-1,1,-1,-1,-1,1,-1,1
-1,-1,1,-1,-1,1,-1,0
-1,1,-1,-1,1,-1,-1,1
-1,1,-1,-1,1,-1,-1,1
1,-1,1,-1,-1,1,-1,0
-1,1,-1,-1,-1,-1,1,1
-1,1,-1,-1,1,-1,-1,1
0,-1,1,-1,-1,-1,1,0
-1,1,-1,-1,-1,1,-1,1
-1,1,-1,-1,-1,1,-1,1
0,-1,1,-1,1,-1,-1,0
0,1,-1,-1,1,-1,-1,0
-1,1,-1,-1,-1,1,-1,1
-1,1,-1,-1,-1,-1,1,1
1,-1,1,-1,1,-1,-1,0
-1,1,-1,-1,-1,-1,1,1
-1,1,-1,-1,-1,1,-1,1
1,1,-1,-1,1,-1,-1,0
-1,1,-1,-1,1,-1,-1,1
-1,1,-1,-1,-1,-1,1,1
0,-1,1,-1,1,-1,-1,0
1,1,-1,-1,-1,1,-1,0
-1,1,-1,-1,-1,-1,1,1
0,-1,1,-1,-1,-1,1,0
1,-1,1,-1,-1,-1,1,0
-1,1,-1,-1,-1,1,-1,1
1,1,-1,-1,-1,1,-1,0
-1,1,-1,-1,-1,1,-1,1
-1,1,-1,-1,1,-1,-1,1
0,-1,-1,1,-1,1,-1,0
-1,1,-1,-1,-1,1,-1,1
-1,1,-1,-1,-1,1,-1,1
1,1,-1,-1,1,-1,-1,0
-1,1,-1,-1,1,-1,-1,1
-1,1,-1,-1,-1,1,-1,1
-1,1,-1,-1,-1,-1,1,1
-1,-1,-1,1,-1,1,-1,0
0,-1,1,-1,-1,1,-1,0
-1,-1,-1,1,1,-1,-1,0
0,-1,1,-1,-1,1,-1,0
-1,1,-1,-1,1,-1,-1,1
0,-1,1,-1,-1,-1,1,0
-1,1,-1,-1,-1,1,-1,1
1,-1,1,-1,1,-1,-1,0
-1,1,-1,-1,-1,-1,1,1
1,1,-1,-1,-1,1,-1,0
0,-1,1,-1,-1,1,-1,0
-1,1,-1,-1,1,-1,-1,1
-1,1,-1,-1,-1,-1,1,1
1,1,-1,-1,-1,-1,1,0
-1,1,-1,-1,-1,-1,1,1
-1,1,-1,-1,-1,-1,1,1
1,-1,-1,1,-1,-1,1,0
-1,1,-1,-1,-1,-1,1,1
-1,1,-1,-1,-1,1,-1,1
-1,1,-1,-1,-1,1,-1,1
1,1,-1,-1,-1,1,-1,0
-1,1,-1,-1,1,-1,-1,1
-1,-1,-1,1,-1,-1,1,0
1,1,-1,-1,-1,-1,1,0
-1,1,-1,-1,1,-1,-1,1
-1,1,-1,-1,1,-1,-1,1
1,-1,1,-1,1,-1,-1,0
-1,1,-1,-1,1,-1,-1,1
-1,-1,-1,1,-1,-1,1,0
0,1,-1,-1,-1,-1,1,0
-1,1,-1,-1,-1,1,-1,1
-1,1,-1,-1,-1,1,-1,1
0,-1,1,-1,-1,-1,1,0
-1,1,-1,-1,-1,1,-1,1
-1,1,-1,-1,1,-1,-1,1
-1,-1,1,-1,-1,1,-1,0
-1,1,-1,-1,1,-1,-1,1
-1,1,-1,-1,-1,1,-1,1
-1,1,-1,-1,1,-1,-1,1
-1,-1,1,-1,-1,1,-1,0
-1,-1,1,-1,-1,1,-1,0
0,-1,-1,1,-1,1,-1,0
-1,1,-1,-1,1,-1,-1,1
-1,1,-1,-1,-1,-1,1,1
-1,-1,-1,1,-1,-1,1,0
-1,1,-1,-1,-1,-1,1,1
0,-1,-1,1,1,-1,-1,0
-1,1,-1,-1,-1,1,-1,1
-1,1,-1,-1,1,-1,-1,1
-1,1,-1,-1,1,-1,-1,1
0,1,-1,-1,-1,1,-1,0
-1,1,-1,-1,1,-1,-1,1
-1,1,-1,-1,1,-1,-1,1
-1,1,-1,-1,-1,-1,1,1
1,-1,1,-1,-1,-1,1,0
1,-1,-1,1,-1,-1,1,0
0,1,-1,-1,1,-1,-1,0
-1,-1,-1,1,-1,-1,1,0
-1,1,-1,-1,-1,-1,1,1
0,-1,1,-1,1,-1,-1,0
-1,1,-1,-1,-1,-1,1,1
1,-1,1,-1,-1,-1,1,0
-1,1,-1,-1,-1,-1,1,1
0,-1,1,-1,1,-1,-1,0
1,-1,1,-1,-1,1,-1,0
-1,1,-1,-1,1,-1,-1,1
-1,1,-1,-1,-1,-1,1,1
1,1,-1,-1,-1,1,-1,0
1,1,-1,-1,1,-1,-1,0
-1,1,-1,-1,-1,1,-1,1
1,1,-1,-1,-1,-1,1,0
0,-1,1,-1,1,-1,-1,0
-1,-1,1,-1,-1,1,-1,0
-1,1,-1,-1,1,-1,-1,1
-1,-1,1,-1,1,-1,-1,0
-1,-1,-1,1,-1,-1,1,0
-1,1,-1,-1,-1,-1,1,1
0,-1,1,-1,-1,1,-1,0
-1,1,-1,-1,-1,-1,1,1
-1,1,-1,-1,-1,-1,1,1
-1,1,-1,-1,-1,1,-1,1
0,1,-1,-1,-1,-1,1,0
0,-1,1,-1,-1,-1,1,0
-1,-1,1,-1,1,-1,-1,0
-1,1,-1,-1,-1,-1,1,1
1,-1,-1,1,1,-1,-1,0
-1,1,-1,-1,-1,1,-1,1
1,-1,1,-1,-1,1,-1,0
-1,-1,-1,1,-1,1,-1,0
1,1,-1,-1,1,-1,-1,0
-1,1,-1,-1,1,-1,-1,1
-1,1,-1,-1,-1,-1,1,1
0,-1,1,-1,-1,-1,1,0
-1,1,-1,-1,-1,1,-1,1
0,-1,-1,1,-1,1,-1,0
-1,-1,1,-1,-1,-1,1,0
-1,1,-1,-1,-1,1,-1,1
-1,1,-1,-1,-1,1,-1,1
-1,1,-1,-1,-1,1,-1,1
0,-1,1,-1,-1,1,-1,0
-1,1,-1,-1,-1,-1,1,1
-1,1,-1,-1,-1,-1,1,1
-1,1,-1,-1,-1,1,-1,1
1,1,-1,-1,-1,1,-1,0
-1,1,-1,-1,-1,1,-1,1
0,-1,-1,1,-1,1,-1,0
0,-1,-1,1,-1,1,-1,0
0,1,-1,-1,1,-1,-1,0
1,-1,1,-1,-1,1,-1,0
-1,1,-1,-1,-1,1,-1,1
0,-1,-1,1,1,-1,-1,0
-1,1,-1,-1,1,-1,-1,1
0,-1,-1,1,-1,1,-1,0
1,-1,-1,1,-1,1,-1,0
1,-1,-1,1,-1,-1,1,0
1,-1,-1,1,-1,-1,1,0
1,1,-1,-1,1,-1,-1,0
-1,1,-1,-1,1,-1,-1,1
-1,1,-1,-1,-1,-1,1,1
-1,1,-1,-1,-1,1,-1,1
-1,1,-1,-1,-1,1,-1,1
0,1,-1,-1,1,-1,-1,0
-1,1,-1,-1,-1,-1,1,1
0,1,-1,-1,-1,-1,1,0
0,-1,1,-1,-1,1,-1,0
-1,-1,-1,1,1,-1,-1,0
-1,1,-1,-1,1,-1,-1,1
-1,1,-1,-1,-1,1,-1,1
-1,1,-1,-1,1,-1,-1,1
0,-1,-1,1,-1,1,-1,0
-1,-1,1,-1,-1,-1,1,0
-1,1,-1,-1,-1,1,-1,1
-1,1,-1,-1,-1,1,-1,1
1,-1,-1,1,-1,-1,1,0
-1,1,-1,-1,1,-1,-1,1
1,1,-1,-1,-1,1,-1,0
-1,1,-1,-1,-1,-1,1,1
-1,1,-1,-1,-1,1,-1,1
-1,1,-1,-1,-1,1,-1,1
-1,1,-1,-1,-1,1,-1,1
-1,1,-1,-1,-1,-1,1,1
0,-1,1,-1,-1,-1,1,0
-1,1,-1,-1,1,-1,-1,1
-1,1,-1,-1,-1,-1,1,1
0,1,-1,-1,1,-1,-1,0
1,-1,1,-1,1,-1,-1,0
-1,-1,1,-1,-1,1,-1,0
1,-1,-1,1,-1,-1,1,0
0,1,-1,-1,-1,1,-1,0
0,-1,1,-1,-1,1,-1,0
-1,1,-1,-1,1,-1,-1,1
1,1,-1,-1,-1,1,-1,0
1,-1,-1,1,-1,-1,1,0
-1,-1,1,-1,-1,1,-1,0
-1,1,-1,-1,-1,1,-1,1
0,-1,1,-1,1,-1,-1,0
1,-1,1,-1,-1,1,-1,0
0,-1,1,-1,1,-1,-1,0
0,1,-1,-1,-1,-1,1,0
-1,1,-1,-1,-1,1,-1,1
-1,1,-1,-1,1,-1,-1,1
0,1,-1,-1,-1,1,-1,0
0,-1,-1,1,1,-1,-1,0
0,-1,1,-1,1,-1,-1,0
-1,1,-1,-1,-1,-1,1,1
0,-1,1,-1,-1,1,-1,0
-1,1,-1,-1,1,-1,-1,1
-1,1,-1,-1,1,-1,-1,1
-1,1,-1,-1,-1,-1,1,1
-1,-1,1,-1,1,-1,-1,0
-1,1,-1,-1,-1,1,-1,1
0,1,-1,-1,-1,1,-1,0
-1,1,-1,-1,-1,-1,1,1
-1,-1,1,-1,1,-1,-1,0
-1,1,-1,-1,1,-1,-1,1
-1,-1,-1,1,-1,-1,1,0
-1,1,-1,-1,-1,-1,1,1
0,-1,1,-1,1,-1,-1,0
-1,1,-1,-1,1,-1,-1,1
-1,1,-1,-1,-1,-1,1,1
0,-1,-1,1,-1,1,-1,0
1,-1,1,-1,1,-1,-1,0
1,1,-1,-1,-1,1,-1,0
1,1,-1,-1,-1,-1,1,0
0,1,-1,-1,1,-1,-1,0
1,1,-1,-1,-1,1,-1,0
1,-1,1,-1,-1,1,-1,0
-1,1,-1,-1,-1,-1,1,1
1,1,-1,-1,1,-1,-1,0
-1,1,-1,-1,1,-1,-1,1
-1,-1,1,-1,1,-1,-1,0
-1,1,-1,-1,-1,-1,1,1
-1,1,-1,-1,1,-1,-1,1
-1,1,-1,-1,-1,1,-1,1
1,1,-1,-1,-1,1,-1,0
1,1,-1,-1,-1,1,-1,0
0,-1,-1,1,1,-1,-1,0
-1,-1,-1,1,1,-1,-1,0
-1,-1,1,-1,-1,1,-1,0
-1,-1,1,-1,-1,1,-1,0
-1,1,-1,-1,-1,1,-1,1
1,-1,-1,1,-1,-1,1,0
-1,1,-1,-1,1,-1,-1,1
-1,1,-1,-1,1,-1,-1,1
-1,1,-1,-1,-1,1,-1,1
-1,-1,-1,1,1,-1,-1,0
-1,1,-1,-1,1,-1,-1,1
1,-1,1,-1,-1,-1,1,0
-1,1,-1,-1,-1,-1,1,1
-1,1,-1,-1,1,-1,-1,1
1,-1,1,-1,-1,-1,1,0
1,-1,-1,1,-1,-1,1,0
0,-1,-1,1,-1,-1,1,0
1,-1,1,-1,-1,-1,1,0
1,-1,-1,1,-1,-1,1,0
0,-1,-1,1,-1,1,-1,0
0,-1,-1,1,-1,-1,1,0
-1,1,-1,-1,1,-1,-1,1
1,1,-1,-1,-1,-1,1,0
1,-1,-1,1,-1,1,-1,0
-1,1,-1,-1,-1,-1,1,1
0,1,-1,-1,-1,1,-1,0
-1,1,-1,-1,-1,1,-1,1
-1,1,-1,-1,-1,-1,1,1
1,-1,1,-1,-1,-1,1,0
-1,1,-1,-1,1,-1,-1,1
-1,1,-1,-1,-1,-1,1,1
-1,1,-1,-1,-1,1,-1,1
1,1,-1,-1,-1,-1,1,0
1,-1,-1,1,1,-1,-1,0
-1,1,-1,-1,-1,-1,1,1
1,-1,1,-1,-1,1,-1,0
-1,-1,1,-1,1,-1,-1,0
1,-1,-1,1,-1,-1,1,0
-1,1,-1,-1,-1,-1,1,1
1,-1,1,-1,-1,1,-1,0
-1,1,-1,-1,-1,1,-1,1
1,1,-1,-1,1,-1,-1,0
-1,-1,1,-1,1,-1,-1,0
-1,1,-1,-1,1,-1,-1,1
-1,1,-1,-1,-1,-1,1,1
-1,-1,-1,1,-1,-1,1,0
0,-1,1,-1,-1,1,-1,0
1,1,-1,-1,-1,-1,1,0
-1,1,-1,-1,-1,-1,1,1
-1,1,-1,-1,-1,-1,1,1
1,1,-1,-1,1,-1,-1,0
-1,1,-1,-1,-1,1,-1,1
-1,-1,1,-1,-1,-1,1,0
-1,1,-1,-1,-1,-1,1,1
-1,1,-1,-1,-1,-1,1,1
1,1,-1,-1,-1,-1,1,0
-1,1,-1,-1,-1,-1,1,1
-1,1,-1,-1,-1,1,-1,1
-1,1,-1,-1,1,-1,-1,1
-1,-1,-1,1,-1,-1,1,0
-1,1,-1,-1,1,-1,-1,1
1,1,-1,-1,1,-1,-1,0
-1,1,-1,-1,1,-1,-1,1
1,-1,-1,1,-1,1,-1,0
-1,1,-1,-1,-1,-1,1,1
1,-1,-1,1,-1,1,-1,0
0,-1,1,-1,-1,-1,1,0
-1,1,-1,-1,1,-1,-1,1
0,1,-1,-1,-1,-1,1,0
0,1,-1,-1,1,-1,-1,0
0,-1,1,-1,-1,1,-1,0
1,-1,1,-1,-1,-1,1,0
-1,1,-1,-1,-1,1,-1,1
-1,-1,-1,1,-1,1,-1,0
-1,-1,-1,1,1,-1,-1,0
0,-1,1,-1,-1,-1,1,0
0,1,-1,-1,-1,1,-1,0
0,1,-1,-1,-1,-1,1,0
0,-1,1,-1,1,-1,-1,0
-1,1,-1,-1,-1,-1,1,1
0,-1,-1,1,-1,1,-1,0
1,1,-1,-1,-1,1,-1,0
1,1,-1,-1,-1,1,-1,0
1,1,-1,-1,1,-1,-1,0
-1,-1,-1,1,1,-1,-1,0
-1,-1,-1,1,1,-1,-1,0
0,1,-1,-1,-1,-1,1,0
-1,1,-1,-1,1,-1,-1,1
-1,1,-1,-1,-1,-1,1,1
0,1,-1,-1,-1,1,-1,0
-1,1,-1,-1,1,-1,-1,1
1,-1,1,-1,1,-1,-1,0
-1,1,-1,-1,-1,1,-1,1
1,1,-1,-1,1,-1,-1,0
-1,1,-1,-1,-1,1,-1,1
-1,1,-1,-1,1,-1,-1,1
-1,1,-1,-1,-1,1,-1,1
-1,1,-1,-1,-1,1,-1,1
1,-1,-1,1,-1,1,-1,0
0,1,-1,-1,-1,-1,1,0
-1,1,-1,-1,1,-1,-1,1
-1,-1,-1,1,1,-1,-1,0
-1,1,-1,-1,1,-1,-1,1
0,-1,-1,1,-1,-1,1,0
-1,-1,-1,1,-1,-1,1,0
0,-1,1,-1,-1,1,-1,0
-1,1,-1,-1,-1,1,-1,1
-1,-1,1,-1,1,-1,-1,0
-1,1,-1,-1,-1,1,-1,1
0,1,-1,-1,-1,-1,1,0
1,-1,1,-1,-1,1,-1,0
-1,1,-1,-1,1,-1,-1,1
-1,-1,1,-1,1,-1,-1,0
-1,-1,-1,1,1,-1,-1,0
-1,1,-1,-1,-1,-1,1,1
0,-1,-1,1,-1,-1,1,0
-1,1,-1,-1,-1,1,-1,1
-1,1,-1,-1,-1,1,-1,1
0,-1,1,-1,-1,-1,1,0
1,-1,-1,1,-1,1,-1,0
-1,-1,1,-1,-1,-1,1,0
0,1,-1,-1,1,-1,-1,0
1,-1,1,-1,-1,-1,1,0
-1,1,-1,-1,1,-1,-1,1
-1,1,-1,-1,-1,1,-1,1
1,-1,1,-1,-1,-1,1,0
0,1,-1,-1,-1,1,-1,0
-1,1,-1,-1,-1,1,-1,1
-1,1,-1,-1,-1,1,-1,1
-1,1,-1,-1,1,-1,-1,1
-1,1,-1,-1,1,-1,-1,1
0,1,-1,-1,-1,-1,1,0
1,1,-1,-1,1,-1,-1,0
1,-1,-1,1,-1,-1,1,0
1,-1,1,-1,1,-1,-1,0
0,-1,1,-1,-1,-1,1,0
-1,1,-1,-1,1,-1,-1,1
-1,1,-1,-1,-1,-1,1,1
-1,1,-1,-1,-1,-1,1,1
0,1,-1,-1,1,-1,-1,0
0,-1,-1,1,1,-1,-1,0
-1,-1,-1,1,-1,1,-1,1
1,1,-1,-1,1,-1,-1,0
-1,1,-1,-1,-1,1,-1,1
-1,-1,1,-1,-1,1,-1,0
-1,-1,1,-1,1,-1,-1,0
-1,1,-1,-1,1,-1,-1,1
-1,1,-1,-1,1,-1,-1,1
1,1,-1,-1,-1,-1,1,0
-1,1,-1,-1,-1,1,-1,1
0,-1,1,-1,-1,1,-1,0
-1,1,-1,-1,-1,-1,1,1
-1,1,-1,-1,-1,1,-1,1
0,-1,1,-1,-1,-1,1,0
-1,1,-1,-1,-1,-1,1,1
0,-1,-1,1,1,-1,-1,0
-1,1,-1,-1,-1,1,-1,1
0,-1,-1,1,-1,-1,1,0
-1,1,-1,-1,-1,-1,1,1
-1,-1,1,-1,-1,-1,1,0
-1,1,-1,-1,-1,1,-1,1
-1,1,-1,-1,-1,1,-1,1
0,-1,1,-1,-1,-1,1,0
-1,1,-1,-1,-1,1,-1,1
0,1,-1,-1,-1,-1,1,0
1,-1,-1,1,1,-1,-1,0
-1,1,-1,-1,-1,1,-1,1
1,-1,1,-1,-1,-1,1,0
0,1,-1,-1,-1,-1,1,0
-1,1,-1,-1,-1,1,-1,1
-1,1,-1,-1,1,-1,-1,1
0,-1,1,-1,-1,-1,1,0
-1,1,-1,-1,-1,-1,1,1
-1,1,-1,-1,-1,1,-1,1
-1,1,-1,-1,1,-1,-1,1
-1,1,-1,-1,-1,-1,1,1
0,-1,-1,1,1,-1,-1,0
1,1,-1,-1,-1,-1,1,0
-1,1,-1,-1,-1,1,-1,1
0,1,-1,-1,1,-1,-1,0
0,1,-1,-1,1,-1,-1,0
0,-1,-1,1,-1,-1,1,0
-1,1,-1,-1,-1,-1,1,1
-1,-1,1,-1,1,-1,-1,0
1,1,-1,-1,-1,1,-1,0
-1,1,-1,-1,1,-1,-1,1
-1,-1,1,-1,1,-1,-1,0
0,-1,1,-1,-1,1,-1,0
-1,-1,-1,1,-1,-1,1,0
1,-1,1,-1,-1,-1,1,0
-1,1,-1,-1,1,-1,-1,1
0,1,-1,-1,-1,-1,1,0
-1,1,-1,-1,-1,1,-1,1
0,-1,-1,1,1,-1,-1,0
-1,1,-1,-1,1,-1,-1,1
-1,1,-1,-1,1,-1,-1,1
0,-1,1,-1,-1,-1,1,0
0,1,-1,-1,1,-1,-1,0
-1,1,-1,-1,-1,1,-1,1
1,-1,1,-1,-1,1,-1,0
-1,1,-1,-1,-1,-1,1,1
-1,1,-1,-1,-1,1,-1,1
0,1,-1,-1,-1,1,-1,0
-1,1,-1,-1,-1,1,-1,1
-1,-1,1,-1,-1,-1,1,0
0,1,-1,-1,1,-1,-1,0
-1,1,-1,-1,1,-1,-1,1
-1,1,-1,-1,-1,1,-1,1
-1,1,-1,-1,-1,-1,1,1
-1,-1,1,-1,1,-1,-1,0
-1,1,-1,-1,-1,1,-1,1
-1,-1,-1,1,-1,-1,1,0
-1,1,-1,-1,-1,1,-1,1
1,-1,1,-1,-1,1,-1,0
-1,-1,1,-1,-1,1,-1,0
0,1,-1,-1,1,-1,-1,0
-1,1,-1,-1,-1,-1,1,1
-1,1,-1,-1,-1,1,-1,1
-1,1,-1,-1,1,-1,-1,1
1,1,-1,-1,-1,-1,1,0
-1,-1,1,-1,-1,1,-1,0
-1,1,-1,-1,-1,1,-1,1
-1,1,-1,-1,-1,-1,1,1
-1,1,-1,-1,1,-1,-1,1
-1,1,-1,-1,-1,-1,1,1
-1,1,-1,-1,1,-1,-1,1
1,-1,1,-1,-1,-1,1,0
0,-1,-1,1,-1,-1,1,0
-1,1,-1,-1,-1,1,-1,1
-1,1,-1,-1,-1,-1,1,1
-1,1,-1,-1,-1,-1,1,1
-1,-1,-1,1,1,-1,-1,0
1,1,-1,-1,-1,-1,1,0
-1,-1,1,-1,-1,-1,1,0
-1,1,-1,-1,-1,1,-1,1
-1,-1,1,-1,-1,-1,1,0
-1,-1,1,-1,-1,-1,1,0
-1,1,-1,-1,1,-1,-1,1
-1,1,-1,-1,-1,1,-1,1
0,-1,1,-1,-1,1,-1,0
-1,1,-1,-1,-1,-1,1,1
0,-1,-1,1,-1,1,-1,0
1,1,-1,-1,1,-1,-1,0
0,-1,1,-1,-1,1,-1,0
-1,1,-1,-1,-1,-1,1,1
-1,1,-1,-1,-1,-1,1,1
0,-1,1,-1,-1,-1,1,0
-1,1,-1,-1,1,-1,-1,1
-1,-1,-1,1,1,-1,-1,0
-1,1,-1,-1,-1,-1,1,1
-1,1,-1,-1,-1,-1,1,1
1,1,-1,-1,1,-1,-1,0
-1,1,-1,-1,-1,-1,1,1
1,-1,-1,1,-1,1,-1,0
1,-1,1,-1,-1,1,-1,0
-1,-1,-1,1,1,-1,-1,0
0,-1,-1,1,-1,-1,1,0
-1,1,-1,-1,-1,1,-1,1
0,-1,-1,1,1,-1,-1,0
-1,-1,1,-1,-1,-1,1,0
0,1,-1,-1,1,-1,-1,0
0,1,-1,-1,-1,-1,1,0
1,-1,-1,1,-1,1,-1,0
-1,1,-1,-1,1,-1,-1,1
1,-1,-1,1,-1,1,-1,0
-1,-1,-1,1,-1,-1,1,0
0,-1,-1,1,-1,-1,1,0
-1,1,-1,-1,1,-1,-1,1
1,1,-1,-1,-1,-1,1,0
-1,1,-1,-1,-1,1,-1,0
-1,1,-1,-1,-1,1,-1,1
0,-1,1,-1,1,-1,-1,0
-1,1,-1,-1,-1,1,-1,1
-1,1,-1,-1,-1,-1,1,1
-1,1,-1,-1,-1,-1,1,0
0,-1,1,-1,-1,-1,1,0
-1,-1,1,-1,-1,1,-1,0
-1,1,-1,-1,-1,-1,1,1
-1,1,-1,-1,-1,-1,1,1
-1,-1,1,-1,-1,1,-1,0
-1,1,-1,-1,-1,1,-1,1
1,1,-1,-1,-1,1,-1,0
0,-1,-1,1,-1,-1,1,0
-1,1,-1,-1,-1,-1,1,1
0,1,-1,-1,-1,-1,1,0
1,1,-1,-1,1,-1,-1,0
-1,1,-1,-1,1,-1,-1,1
-1,1,-1,-1,-1,1,-1,1
-1,1,-1,-1,1,-1,-1,1
-1,1,-1,-1,-1,-1,1,1
-1,-1,1,-1,-1,-1,1,0
0,-1,-1,1,-1,1,-1,0
-1,1,-1,-1,-1,-1,1,1
-1,1,-1,-1,1,-1,-1,1
-1,-1,1,-1,1,-1,-1,0
-1,-1,-1,1,-1,-1,1,1
-1,-1,-1,1,1,-1,-1,0
-1,1,-1,-1,1,-1,-1,1
-1,1,-1,-1,-1,1,-1,1
1,-1,-1,1,-1,1,-1,0
-1,1,-1,-1,-1,1,-1,1
-1,-1,1,-1,-1,-1,1,0
1,-1,-1,1,-1,1,-1,0
1,-1,-1,1,-1,1,-1,1
-1,-1,1,-1,-1,1,-1,0
-1,1,-1,-1,-1,1,-1,1
-1,1,-1,-1,-1,-1,1,1
0,-1,1,-1,-1,1,-1,0
-1,1,-1,-1,1,-1,-1,1
-1,-1,1,-1,-1,-1,1,0
1,-1,1,-1,-1,1,-1,0
-1,-1,1,-1,1,-1,-1,1
1,-1,1,-1,-1,-1,1,0
-1,-1,1,-1,-1,1,-1,0
-1,1,-1,-1,-1,-1,1,1
-1,1,-1,-1,-1,1,-1,1
-1,1,-1,-1,1,-1,-1,1
1,1,-1,-1,1,-1,-1,0
0,-1,-1,1,-1,-1,1,1
1,1,-1,-1,-1,-1,1,0
0,-1,1,-1,-1,1,-1,0
0,-1,1,-1,-1,1,-1,0
0,1,-1,-1,-1,-1,1,0
-1,-1,1,-1,-1,1,-1,0
0,-1,-1,1,1,-1,-1,1
1,1,-1,-1,-1,1,-1,0
0,1,-1,-1,-1,1,-1,0
0,-1,1,-1,1,-1,-1,1
-1,1,-1,-1,1,-1,-1,1
1,-1,1,-1,-1,1,-1,0
-1,1,-1,-1,-1,-1,1,1
0,1,-1,-1,-1,1,-1,0
1,1,-1,-1,1,-1,-1,1
-1,1,-1,-1,-1,-1,1,0
-1,1,-1,-1,-1,-1,1,0
-1,-1,1,-1,-1,1,-1,0
0,-1,1,-1,-1,1,-1,0
-1,1,-1,-1,1,-1,-1,1
1,-1,1,-1,-1,-1,1,0
0,-1,-1,1,1,-1,-1,1
0,-1,1,-1,-1,1,-1,0
-1,-1,1,-1,-1,-1,1,0
-1,-1,-1,1,-1,1,-1,1
1,-1,1,-1,-1,-1,1,0
-1,-1,-1,1,1,-1,-1,1
0,1,-1,-1,-1,-1,1,0
0,-1,1,-1,-1,1,-1,0
0,-1,-1,1,-1,1,-1,1
1,-1,1,-1,-1,-1,1,0
-1,-1,-1,1,1,-1,-1,1
-1,-1,1,-1,-1,1,-1,0
1,1,-1,-1,-1,1,-1,0
0,1,-1,-1,-1,-1,1,0
0,-1,-1,1,-1,1,-1,1
0,-1,-1,1,-1,1,-1,1
0,1,-1,-1,-1,1,-1,0
-1,-1,-1,1,-1,1,-1,1
-1,1,-1,-1,1,-1,-1,1
1,1,-1,-1,-1,-1,1,0
-1,-1,1,-1,-1,-1,1,0
1,-1,1,-1,-1,1,-1,0
0,-1,1,-1,1,-1,-1,1
-1,1,-1,-1,-1,1,-1,0
1,-1,-1,1,1,-1,-1,1
-1,1,-1,-1,-1,-1,1,1
0,-1,-1,1,1,-1,-1,0
-1,1,-1,-1,1,-1,-1,1
-1,1,-1,-1,-1,1,-1,1
1,1,-1,-1,-1,-1,1,0
1,-1,-1,1,-1,-1,1,1
-1,-1,1,-1,-1,-1,1,0
-1,1,-1,-1,-1,-1,1,0
-1,-1,-1,1,1,-1,-1,1
-1,-1,1,-1,1,-1,-1,1
-1,-1,1,-1,-1,-1,1,0
0,-1,-1,1,-1,1,-1,1
0,-1,-1,1,-1,1,-1,1
1,1,-1,-1,-1,1,-1,0
0,-1,-1,1,-1,-1,1,1
-1,-1,1,-1,-1,1,-1,0
0,-1,-1,1,-1,1,-1,1
-1,-1,-1,1,-1,1,-1,1
-1,-1,-1,1,-1,1,-1,1
-1,-1,1,-1,-1,-1,1,0
0,-1,-1,1,1,-1,-1,1
-1,1,-1,-1,-1,1,-1,1
-1,-1,1,-1,-1,1,-1,0
-1,-1,-1,1,-1,-1,1,1
1,-1,1,-1,-1,1,-1,0
-1,-1,1,-1,-1,1,-1,0
-1,-1,-1,1,-1,1,-1,0
0,1,-1,-1,-1,-1,1,0
-1,1,-1,-1,-1,-1,1,0
-1,-1,-1,1,-1,-1,1,1
1,1,-1,-1,-1,1,-1,0
0,1,-1,-1,1,-1,-1,1
0,1,-1,-1,-1,-1,1,0
-1,-1,-1,1,-1,1,-1,1
0,-1,1,-1,-1,1,-1,0
-1,-1,1,-1,-1,1,-1,0
1,-1,-1,1,-1,1,-1,1
-1,-1,1,-1,1,-1,-1,1
0,1,-1,-1,-1,-1,1,0
0,-1,1,-1,1,-1,-1,1
0,-1,1,-1,-1,-1,1,0
0,-1,1,-1,-1,-1,1,0
1,-1,1,-1,-1,1,-1,0
0,-1,1,-1,1,-1,-1,1
-1,-1,1,-1,1,-1,-1,1
1,-1,-1,1,1,-1,-1,1
-1,1,-1,-1,-1,1,-1,0
-1,-1,-1,1,1,-1,-1,1
0,-1,-1,1,-1,1,-1,1
1,1,-1,-1,-1,-1,1,0
0,-1,1,-1,1,-1,-1,1
1,-1,-1,1,-1,-1,1,1
0,-1,-1,1,1,-1,-1,1
-1,1,-1,-1,-1,-1,1,0
1,1,-1,-1,-1,1,-1,0
-1,-1,-1,1,-1,-1,1,1
-1,1,-1,-1,-1,1,-1,0
1,-1,1,-1,-1,-1,1,0
-1,-1,-1,1,-1,1,-1,1
-1,-1,-1,1,-1,1,-1,1
-1,1,-1,-1,-1,1,-1,0
1,-1,1,-1,-1,1,-1,0
-1,1,-1,-1,-1,1,-1,0
-1,-1,1,-1,-1,1,-1,0
-1,-1,-1,1,-1,1,-1,1
-1,-1,1,-1,-1,1,-1,0
0,-1,1,-1,-1,1,-1,0
0,1,-1,-1,1,-1,-1,1
-1,1,-1,-1,-1,-1,1,0
0,-1,-1,1,-1,-1,1,1
1,1,-1,-1,-1,1,-1,0
1,1,-1,-1,-1,1,-1,0
0,-1,-1,1,-1,1,-1,1
-1,-1,-1,1,-1,1,-1,1
0,-1,1,-1,-1,-1,1,0
1,-1,1,-1,-1,1,-1,0
0,-1,1,-1,-1,1,-1,0
1,1,-1,-1,1,-1,-1,1
1,1,-1,-1,-1,1,-1,0
-1,-1,1,-1,-1,-1,1,0
1,-1,1,-1,-1,1,-1,0
1,-1,1,-1,1,-1,-1,1
-1,1,-1,-1,-1,-1,1,0
-1,1,-1,-1,1,-1,-1,1
-1,1,-1,-1,-1,-1,1,0
1,1,-1,-1,-1,1,-1,0
-1,-1,1,-1,-1,1,-1,0
1,-1,-1,1,-1,-1,1,1
-1,-1,1,-1,-1,-1,1,0
0,1,-1,-1,-1,-1,1,0
1,-1,1,-1,1,-1,-1,1
-1,1,-1,-1,-1,-1,1,0
0,-1,1,-1,-1,1,-1,0
1,-1,-1,1,1,-1,-1,1
0,-1,1,-1,-1,1,-1,0
-1,1,-1,-1,-1,1,-1,0
0,1,-1,-1,-1,1,-1,0
-1,-1,1,-1,-1,1,-1,0
1,-1,1,-1,-1,1,-1,0
1,-1,1,-1,-1,1,-1,0
1,1,-1,-1,-1,-1,1,0
0,-1,1,-1,-1,-1,1,0
-1,-1,-1,1,-1,1,-1,1
1,-1,-1,1,-1,1,-1,1
1,-1,1,-1,-1,-1,1,0
0,1,-1,-1,-1,1,-1,0
-1,-1,1,-1,-1,-1,1,0
-1,1,-1,-1,-1,1,-1,0
1,1,-1,-1,-1,1,-1,0
0,-1,1,-1,-1,-1,1,0
1,-1,-1,1,-1,-1,1,1
-1,-1,-1,1,-1,-1,1,1
1,1,-1,-1,-1,1,-1,0
-1,1,-1,-1,-1,1,-1,0
0,-1,-1,1,-1,-1,1,1
1,1,-1,-1,-1,-1,1,0
1,-1,-1,1,-1,-1,1,1
0,1,-1,-1,1,-1,-1,1
-1,-1,1,-1,-1,1,-1,0
1,-1,-1,1,-1,-1,1,1
1,-1,1,-1,-1,1,-1,0
-1,-1,-1,1,-1,-1,1,1
0,1,-1,-1,-1,-1,1,0
-1,1,-1,-1,-1,-1,1,0
1,-1,-1,1,-1,-1,1,1
-1,-1,-1,1,-1,-1,1,1
1,1,-1,-1,-1,1,-1,0
1,1,-1,-1,-1,1,-1,0
-1,1,-1,-1,-1,-1,1,0
1,-1,1,-1,-1,-1,1,0
-1,-1,-1,1,1,-1,-1,1
-1,-1,-1,1,1,-1,-1,1
1,-1,-1,1,1,-1,-1,1
1,-1,1,-1,-1,-1,1,0
-1,-1,-1,1,1,-1,-1,1
0,-1,-1,1,-1,-1,1,1
0,1,-1,-1,1,-1,-1,1
1,1,-1,-1,-1,1,-1,0
0,-1,1,-1,-1,1,-1,0
0,1,-1,-1,-1,1,-1,0
-1,-1,-1,1,1,-1,-1,1
0,-1,1,-1,1,-1,-1,1
1,1,-1,-1,1,-1,-1,1
0,1,-1,-1,-1,-1,1,0
0,-1,-1,1,-1,1,-1,1
-1,1,-1,-1,-1,-1,1,0
0,1,-1,-1,-1,1,-1,0
0,-1,-1,1,-1,-1,1,1
-1,-1,1,-1,-1,1,-1,0
-1,-1,-1,1,-1,1,-1,1
0,-1,1,-1,-1,1,-1,0
1,-1,-1,1,-1,1,-1,1
0,1,-1,-1,1,-1,-1,1
-1,-1,-1,1,1,-1,-1,1
0,1,-1,-1,-1,-1,1,0
-1,-1,-1,1,1,-1,-1,1
-1,-1,1,-1,-1,1,-1,0
0,-1,-1,1,1,-1,-1,1
-1,-1,-1,1,1,-1,-1,1
0,-1,-1,1,-1,1,-1,1
-1,-1,-1,1,-1,1,-1,1
-1,-1,-1,1,-1,1,-1,1
0,1,-1,-1,-1,-1,1,0
-1,-1,-1,1,-1,1,-1,1
0,-1,1,-1,-1,1,-1,0
-1,-1,-1,1,1,-1,-1,1
-1,1,-1,-1,-1,1,-1,0
0,1,-1,-1,1,-1,-1,1
-1,1,-1,-1,-1,1,-1,0
0,-1,-1,1,1,-1,-1,1
1,-1,1,-1,-1,1,-1,0
1,-1,-1,1,1,-1,-1,1
-1,-1,1,-1,1,-1,-1,1
1,1,-1,-1,-1,-1,1,0
0,-1,-1,1,-1,1,-1,1
1,-1,-1,1,1,-1,-1,1
1,1,-1,-1,-1,-1,1,0
0,-1,1,-1,1,-1,-1,1
1,1,-1,-1,-1,-1,1,0
1,-1,-1,1,-1,-1,1,1
0,-1,1,-1,-1,1,-1,0
-1,-1,-1,1,-1,1,-1,1
1,-1,1,-1,-1,-1,1,0
0,1,-1,-1,1,-1,-1,1
-1,1,-1,-1,-1,-1,1,0
1,-1,-1,1,-1,1,-1,1
0,1,-1,-1,-1,1,-1,0
1,-1,1,-1,-1,-1,1,0
1,-1,-1,1,-1,1,-1,1
1,1,-1,-1,-1,-1,1,0
0,1,-1,-1,-1,1,-1,0
0,1,-1,-1,1,-1,-1,1
0,1,-1,-1,-1,1,-1,0
1,-1,1,-1,1,-1,-1,1
0,-1,1,-1,-1,-1,1,0
0,1,-1,-1,-1,-1,1,0
0,1,-1,-1,-1,1,-1,0
-1,-1,1,-1,-1,-1,1,0
-1,-1,-1,1,1,-1,-1,1
0,-1,1,-1,-1,1,-1,0
-1,-1,1,-1,-1,1,-1,0
-1,-1,-1,1,-1,1,-1,1
-1,-1,-1,1,-1,1,-1,1
-1,-1,1,-1,1,-1,-1,1
-1,-1,1,-1,-1,1,-1,0
0,-1,1,-1,-1,1,-1,0
0,-1,1,-1,-1,-1,1,0
0,1,-1,-1,-1,1,-1,0
1,1,-1,-1,-1,-1,1,0
-1,1,-1,-1,-1,1,-1,0
0,1,-1,-1,1,-1,-1,1
0,-1,-1,1,-1,-1,1,1
1,-1,1,-1,-1,-1,1,0
1,-1,-1,1,1,-1,-1,1
0,-1,1,-1,-1,-1,1,0
1,1,-1,-1,-1,-1,1,0
-1,-1,1,-1,-1,1,-1,0
1,-1,-1,1,1,-1,-1,1
0,1,-1,-1,-1,1,-1,0
0,-1,-1,1,-1,-1,1,1
1,-1,-1,1,1,-1,-1,1
0,-1,-1,1,-1,-1,1,1
-1,-1,1,-1,-1,-1,1,0
0,-1,-1,1,1,-1,-1,1
1,1,-1,-1,-1,1,-1,0
0,-1,1,-1,-1,1,-1,0
1,-1,1,-1,-1,1,-1,0
-1,1,-1,-1,-1,1,-1,0
0,-1,-1,1,-1,1,-1,1
0,1,-1,-1,-1,1,-1,0
-1,1,-1,-1,-1,-1,1,0
1,1,-1,-1,-1,1,-1,0
-1,1,-1,-1,-1,-1,1,0
-1,1,-1,-1,-1,1,-1,0
-1,-1,-1,1,1,-1,-1,1
0,-1,1,-1,-1,-1,1,0
0,1,-1,-1,1,-1,-1,1
-1,-1,1,-1,-1,1,-1,0
-1,1,-1,-1,-1,1,-1,0
0,-1,-1,1,-1,1,-1,1
-1,-1,-1,1,-1,-1,1,1
1,-1,1,-1,-1,-1,1,0
0,1,-1,-1,1,-1,-1,1
0,-1,1,-1,-1,-1,1,0
0,-1,1,-1,-1,1,-1,0
1,-1,-1,1,-1,1,-1,1
-1,1,-1,-1,-1,-1,1,0
0,-1,-1,1,-1,1,-1,1
-1,-1,1,-1,-1,-1,1,0
1,-1,-1,1,1,-1,-1,1
-1,1,-1,-1,1,-1,-1,1
-1,1,-1,-1,1,-1,-1,1
-1,1,-1,-1,-1,1,-1,0
1,1,-1,-1,1,-1,-1,1
-1,-1,1,-1,1,-1,-1,1
1,-1,1,-1,-1,1,-1,0
1,1,-1,-1,1,-1,-1,1
-1,-1,1,-1,-1,1,-1,0
1,-1,1,-1,1,-1,-1,1
1,-1,1,-1,-1,-1,1,0
-1,-1,1,-1,-1,-1,1,0
1,1,-1,-1,1,-1,-1,1
1,1,-1,-1,1,-1,-1,1
0,-1,-1,1,-1,1,-1,1
-1,-1,1,-1,-1,1,-1,0
1,1,-1,-1,-1,-1,1,0
1,-1,1,-1,-1,-1,1,0
0,-1,1,-1,-1,1,-1,0
0,-1,-1,1,1,-1,-1,1
0,-1,1,-1,1,-1,-1,1
-1,-1,1,-1,-1,1,-1,0
-1,1,-1,-1,1,-1,-1,1
0,-1,1,-1,-1,-1,1,0
1,-1,-1,1,1,-1,-1,1
0,1,-1,-1,-1,-1,1,0
0,1,-1,-1,-1,1,-1,0
1,-1,-1,1,1,-1,-1,1
0,1,-1,-1,-1,-1,1,0
0,-1,1,-1,1,-1,-1,1
0,1,-1,-1,-1,1,-1,0
-1,1,-1,-1,1,-1,-1,1
1,-1,1,-1,-1,1,-1,0
-1,1,-1,-1,1,-1,-1,1
-1,-1,1,-1,-1,-1,1,0
0,-1,-1,1,-1,1,-1,1
-1,-1,1,-1,1,-1,-1,1
-1,-1,-1,1,-1,1,-1,1
1,-1,-1,1,-1,1,-1,1
-1,-1,-1,1,-1,-1,1,1
0,1,-1,-1,-1,1,-1,0
0,1,-1,-1,1,-1,-1,1
-1,-1,-1,1,1,-1,-1,1
1,1,-1,-1,-1,1,-1,0
-1,-1,1,-1,1,-1,-1,1
0,1,-1,-1,-1,-1,1,0
-1,-1,-1,1,-1,-1,1,1
0,-1,-1,1,-1,-1,1,1
0,1,-1,-1,-1,1,-1,0
1,-1,1,-1,1,-1,-1,1
1,-1,1,-1,-1,-1,1,0
0,1,-1,-1,-1,1,-1,0
-1,-1,-1,1,-1,-1,1,1
-1,1,-1,-1,-1,-1,1,0
1,1,-1,-1,1,-1,-1,1
0,1,-1,-1,-1,1,-1,0
-1,-1,-1,1,-1,1,-1,1
0,1,-1,-1,1,-1,-1,1
0,-1,1,-1,-1,-1,1,0
-1,-1,-1,1,1,-1,-1,1
0,-1,-1,1,-1,1,-1,1
1,1,-1,-1,-1,1,-1,0
-1,-1,1,-1,-1,1,-1,0
-1,-1,1,-1,-1,1,-1,0
0,-1,-1,1,-1,1,-1,1
0,-1,-1,1,1,-1,-1,1
0,-1,-1,1,-1,-1,1,1
1,1,-1,-1,-1,-1,1,0
0,-1,1,-1,-1,-1,1,0
1,-1,-1,1,-1,1,-1,1
1,-1,-1,1,1,-1,-1,1
1,-1,1,-1,-1,1,-1,0
1,-1,1,-1,-1,-1,1,0
0,1,-1,-1,1,-1,-1,1
-1,-1,1,-1,-1,1,-1,0
1,-1,1,-1,-1,-1,1,0
0,-1,-1,1,1,-1,-1,1
0,-1,1,-1,-1,1,-1,0
1,-1,1,-1,1,-1,-1,1
1,-1,1,-1,-1,1,-1,0
0,1,-1,-1,-1,1,-1,0
1,-1,1,-1,-1,-1,1,0
0,-1,-1,1,1,-1,-1,1
-1,-1,1,-1,1,-1,-1,1
0,1,-1,-1,-1,1,-1,0
1,-1,1,-1,1,-1,-1,1
1,-1,-1,1,-1,1,-1,1
1,-1,-1,1,-1,1,-1,1
0,1,-1,-1,-1,1,-1,0
-1,-1,1,-1,1,-1,-1,1
1,-1,1,-1,-1,1,-1,0
-1,-1,-1,1,-1,-1,1,1
1,1,-1,-1,1,-1,-1,1
0,-1,1,-1,1,-1,-1,1
0,-1,-1,1,-1,-1,1,1
0,-1,-1,1,1,-1,-1,1
0,-1,-1,1,-1,-1,1,1
-1,-1,-1,1,-1,1,-1,1
1,-1,-1,1,-1,1,-1,1
0,-1,-1,1,1,-1,-1,1
1,1,-1,-1,1,-1,-1,1
1,-1,-1,1,-1,-1,1,1
1,-1,1,-1,-1,-1,1,0
0,-1,1,-1,1,-1,-1,1
0,1,-1,-1,1,-1,-1,1
-1,-1,-1,1,1,-1,-1,1
0,-1,-1,1,-1,1,-1,1
1,-1,1,-1,-1,-1,1,0
0,1,-1,-1,-1,-1,1,0
0,-1,-1,1,1,-1,-1,1
0,1,-1,-1,1,-1,-1,1
1,-1,1,-1,1,-1,-1,1
1,1,-1,-1,-1,1,-1,0
0,-1,-1,1,-1,1,-1,1
0,-1,1,-1,-1,1,-1,0
-1,-1,-1,1,-1,1,-1,1
0,-1,1,-1,-1,-1,1,0
1,-1,-1,1,1,-1,-1,1
1,1,-1,-1,-1,-1,1,0
1,1,-1,-1,1,-1,-1,1
-1,1,-1,-1,-1,1,-1,0
0,1,-1,-1,-1,1,-1,0
1,-1,1,-1,1,-1,-1,1
-1,1,-1,-1,-1,-1,1,0
-1,1,-1,-1,-1,1,-1,0
-1,1,-1,-1,-1,-1,1,0
-1,1,-1,-1,-1,-1,1,0
1,-1,-1,1,-1,-1,1,1
-1,1,-1,-1,1,-1,-1,1
-1,-1,1,-1,-1,1,-1,0
0,1,-1,-1,1,-1,-1,1
-1,-1,-1,1,1,-1,-1,1
0,-1,1,-1,-1,-1,1,0
0,1,-1,-1,-1,1,-1,0
0,-1,1,-1,1,-1,-1,1
0,1,-1,-1,-1,-1,1,0
1,1,-1,-1,1,-1,-1,1
-1,-1,-1,1,-1,1,-1,1
0,1,-1,-1,-1,1,-1,0
0,-1,-1,1,1,-1,-1,1
1,-1,-1,1,1,-1,-1,1
0,1,-1,-1,-1,-1,1,0
-1,1,-1,-1,-1,1,-1,0
-1,-1,1,-1,-1,1,-1,0
1,-1,-1,1,-1,-1,1,1
-1,-1,1,-1,1,-1,-1,1
1,1,-1,-1,-1,1,-1,0
-1,-1,1,-1,-1,1,-1,0
1,-1,-1,1,-1,-1,1,1
1,1,-1,-1,-1,1,-1,0
1,1,-1,-1,-1,-1,1,0
-1,-1,1,-1,-1,1,-1,0
0,-1,-1,1,-1,-1,1,1
1,1,-1,-1,-1,1,-1,0
0,1,-1,-1,-1,1,-1,0
0,1,-1,-1,1,-1,-1,1
-1,-1,1,-1,-1,1,-1,0
1,-1,1,-1,-1,-1,1,0
0,-1,1,-1,-1,1,-1,0
-1,-1,1,-1,1,-1,-1,1
1,-1,-1,1,1,-1,-1,1
-1,-1,-1,1,1,-1,-1,1
-1,-1,1,-1,-1,1,-1,0
1,-1,1,-1,-1,-1,1,0
1,-1,1,-1,-1,1,-1,0
0,-1,-1,1,-1,-1,1,1
0,-1,1,-1,1,-1,-1,1
0,1,-1,-1,-1,-1,1,0
0,1,-1,-1,-1,-1,1,0
1,1,-1,-1,-1,-1,1,0
0,-1,-1,1,-1,1,-1,1
-1,-1,1,-1,-1,-1,1,0
0,1,-1,-1,-1,1,-1,0
0,-1,1,-1,-1,1,-1,0
1,1,-1,-1,1,-1,-1,1
0,-1,1,-1,-1,-1,1,0
-1,-1,-1,1,-1,-1,1,1
0,1,-1,-1,1,-1,-1,1
-1,1,-1,-1,1,-1,-1,1
-1,1,-1,-1,-1,1,-1,0
-1,-1,1,-1,1,-1,-1,1
1,-1,1,-1,-1,-1,1,0
0,-1,-1,1,1,-1,-1,1
0,-1,-1,1,-1,-1,1,1
1,1,-1,-1,-1,1,-1,0
-1,1,-1,-1,-1,1,-1,0
-1,1,-1,-1,-1,-1,1,0
1,-1,-1,1,1,-1,-1,1
1,1,-1,-1,-1,1,-1,0
-1,-1,-1,1,-1,1,-1,1
-1,1,-1,-1,-1,-1,1,0
1,1,-1,-1,-1,1,-1,0
-1,1,-1,-1,-1,1,-1,0
1,-1,1,-1,1,-1,-1,1
0,1,-1,-1,-1,-1,1,0
-1,1,-1,-1,-1,-1,1,0
-1,1,-1,-1,1,-1,-1,1
0,-1,1,-1,-1,1,-1,0
0,-1,-1,1,-1,-1,1,1
1,-1,1,-1,-1,1,-1,0
-1,-1,-1,1,1,-1,-1,1
1,-1,-1,1,-1,-1,1,1
-1,-1,-1,1,1,-1,-1,1
0,-1,-1,1,-1,-1,1,1
0,-1,1,-1,-1,-1,1,0
1,1,-1,-1,-1,1,-1,0
0,-1,1,-1,-1,-1,1,0
1,1,-1,-1,1,-1,-1,1
1,1,-1,-1,1,-1,-1,1
0,-1,1,-1,-1,-1,1,0
0,-1,-1,1,-1,-1,1,1
1,-1,1,-1,1,-1,-1,1
1,-1,1,-1,-1,1,-1,0
0,-1,-1,1,-1,-1,1,1
1,-1,1,-1,-1,1,-1,0
-1,-1,1,-1,-1,-1,1,0
-1,-1,-1,1,-1,1,-1,1
0,-1,-1,1,1,-1,-1,1
1,1,-1,-1,1,-1,-1,1
1,1,-1,-1,-1,-1,1,0
1,1,-1,-1,-1,-1,1,0
-1,-1,-1,1,-1,1,-1,1
-1,-1,-1,1,-1,1,-1,1
0,-1,1,-1,-1,1,-1,0
0,-1,-1,1,1,-1,-1,1
0,-1,-1,1,-1,-1,1,1
-1,-1,1,-1,-1,-1,1,0
1,-1,-1,1,-1,-1,1,1
-1,-1,1,-1,1,-1,-1,1
1,1,-1,-1,1,-1,-1,1
0,-1,-1,1,1,-1,-1,1
-1,-1,1,-1,-1,1,-1,0
1,1,-1,-1,1,-1,-1,1
1,-1,1,-1,-1,1,-1,0
1,1,-1,-1,1,-1,-1,1
-1,1,-1,-1,-1,1,-1,0
-1,-1,-1,1,-1,-1,1,1
1,1,-1,-1,-1,-1,1,0
-1,-1,1,-1,-1,1,-1,0
-1,-1,1,-1,-1,-1,1,0
1,-1,-1,1,-1,1,-1,1
-1,1,-1,-1,1,-1,-1,1
1,-1,-1,1,1,-1,-1,1
1,-1,1,-1,-1,-1,1,0
-1,1,-1,-1,1,-1,-1,1
1,-1,1,-1,-1,-1,1,0
0,-1,-1,1,-1,-1,1,1
1,-1,1,-1,1,-1,-1,1
1,-1,1,-1,-1,1,-1,0
0,-1,-1,1,-1,-1,1,1
1,-1,-1,1,-1,-1,1,1
1,-1,-1,1,1,-1,-1,1
1,-1,-1,1,-1,-1,1,1
1,1,-1,-1,-1,1,-1,0
1,-1,1,-1,1,-1,-1,1
-1,-1,-1,1,1,-1,-1,1
-1,-1,1,-1,1,-1,-1,1
0,1,-1,-1,-1,-1,1,0
-1,-1,-1,1,-1,-1,1,1
1,1,-1,-1,-1,1,-1,0
0,-1,-1,1,-1,-1,1,1
0,-1,-1,1,-1,-1,1,1
-1,-1,-1,1,-1,-1,1,1
0,-1,-1,1,-1,1,-1,1
0,-1,-1,1,-1,1,-1,1
-1,-1,-1,1,-1,-1,1,1
-1,-1,-1,1,1,-1,-1,1
-1,-1,-1,1,1,-1,-1,1
-1,-1,-1,1,-1,1,-1,1
0,-1,-1,1,-1,1,-1,1
0,-1,-1,1,-1,1,-1,1
0,1,-1,-1,-1,1,-1,0
1,-1,1,-1,-1,1,-1,0
0,-1,-1,1,1,-1,-1,1
-1,-1,-1,1,-1,-1,1,1
0,1,-1,-1,1,-1,-1,1
0,1,-1,-1,-1,1,-1,0
1,1,-1,-1,-1,1,-1,0
-1,-1,1,-1,-1,1,-1,0
1,-1,-1,1,1,-1,-1,1
-1,1,-1,-1,-1,-1,1,0
0,1,-1,-1,-1,-1,1,0
0,-1,-1,1,1,-1,-1,1
0,-1,-1,1,1,-1,-1,1
-1,1,-1,-1,-1,1,-1,0
1,-1,-1,1,-1,1,-1,1
-1,-1,-1,1,-1,-1,1,1
1,-1,1,-1,-1,-1,1,0
0,1,-1,-1,1,-1,-1,1
0,1,-1,-1,-1,1,-1,0
-1,-1,-1,1,1,-1,-1,1
1,1,-1,-1,1,-1,-1,1
0,-1,-1,1,-1,-1,1,1
0,-1,-1,1,-1,-1,1,1
0,-1,-1,1,-1,-1,1,1
0,-1,-1,1,-1,1,-1,1
-1,1,-1,-1,-1,-1,1,0
-1,1,-1,-1,1,-1,-1,1
0,-1,-1,1,-1,-1,1,1
-1,-1,-1,1,1,-1,-1,1
1,-1,-1,1,-1,1,-1,1
-1,1,-1,-1,-1,1,-1,0
1,-1,-1,1,-1,-1,1,1
-1,-1,-1,1,-1,-1,1,1
-1,-1,-1,1,-1,1,-1,1
0,1,-1,-1,-1,-1,1,0
-1,-1,-1,1,-1,-1,1,1
-1,-1,1,-1,1,-1,-1,1
0,1,-1,-1,-1,-1,1,0
-1,-1,1,-1,-1,-1,1,0
0,-1,1,-1,-1,-1,1,0
0,1,-1,-1,-1,1,-1,0
0,1,-1,-1,-1,1,-1,0
1,1,-1,-1,-1,1,-1,0
-1,1,-1,-1,-1,-1,1,0
1,1,-1,-1,1,-1,-1,1
-1,-1,1,-1,-1,-1,1,0
1,1,-1,-1,-1,-1,1,0
0,-1,1,-1,1,-1,-1,1
0,-1,-1,1,-1,1,-1,1
1,1,-1,-1,-1,1,-1,0
1,-1,1,-1,-1,1,-1,0
1,-1,-1,1,-1,1,-1,1
0,-1,-1,1,-1,1,-1,1
0,-1,-1,1,-1,-1,1,1
1,1,-1,-1,-1,-1,1,0
1,-1,-1,1,-1,-1,1,1
1,-1,-1,1,-1,-1,1,1
1,-1,1,-1,-1,1,-1,0
0,-1,1,-1,-1,1,-1,0
0,1,-1,-1,-1,-1,1,0
0,-1,1,-1,-1,1,-1,0
-1,-1,1,-1,-1,-1,1,0
0,1,-1,-1,-1,-1,1,0
-1,-1,-1,1,-1,1,-1,1
1,-1,1,-1,-1,-1,1,0
-1,-1,1,-1,-1,-1,1,0
1,-1,1,-1,1,-1,-1,1
1,-1,-1,1,-1,1,-1,1
0,-1,-1,1,1,-1,-1,1
-1,-1,-1,1,-1,-1,1,1
-1,1,-1,-1,-1,-1,1,0
1,-1,-1,1,-1,1,-1,1
0,1,-1,-1,-1,-1,1,0
1,1,-1,-1,1,-1,-1,1
1,-1,1,-1,-1,1,-1,0
0,1,-1,-1,1,-1,-1,1
1,1,-1,-1,-1,-1,1,0
0,-1,-1,1,-1,1,-1,1
-1,-1,1,-1,1,-1,-1,1
0,1,-1,-1,-1,-1,1,0
1,-1,-1,1,1,-1,-1,1
1,-1,-1,1,-1,1,-1,1
0,-1,1,-1,-1,1,-1,0
-1,1,-1,-1,1,-1,-1,1
1,1,-1,-1,1,-1,-1,1
1,1,-1,-1,1,-1,-1,1
-1,1,-1,-1,-1,1,-1,0
0,1,-1,-1,-1,-1,1,0
1,-1,-1,1,-1,-1,1,1
0,-1,1,-1,-1,-1,1,0
1,-1,1,-1,-1,1,-1,0
0,-1,-1,1,1,-1,-1,1
0,-1,1,-1,-1,1,-1,0
-1,1,-1,-1,-1,1,-1,0
1,-1,-1,1,-1,1,-1,1
0,1,-1,-1,1,-1,-1,1
-1,-1,-1,1,-1,1,-1,1
-1,1,-1,-1,-1,1,-1,0
1,1,-1,-1,-1,1,-1,0
1,-1,-1,1,-1,-1,1,1
0,-1,-1,1,-1,1,-1,1
1,1,-1,-1,-1,-1,1,0
0,1,-1,-1,-1,1,-1,0
1,-1,-1,1,1,-1,-1,1
1,-1,-1,1,-1,1,-1,1
0,-1,-1,1,-1,-1,1,1
1,-1,1,-1,1,-1,-1,1
0,-1,1,-1,-1,1,-1,0
-1,-1,-1,1,-1,-1,1,1
-1,1,-1,-1,-1,1,-1,0
-1,-1,-1,1,1,-1,-1,1
0,-1,1,-1,1,-1,-1,1
0,-1,1,-1,-1,-1,1,0
-1,-1,-1,1,1,-1,-1,1
1,-1,1,-1,1,-1,-1,1
-1,-1,-1,1,1,-1,-1,1
0,-1,1,-1,-1,1,-1,0
1,-1,-1,1,-1,1,-1,1
1,1,-1,-1,-1,1,-1,0
1,-1,-1,1,-1,1,-1,1
-1,1,-1,-1,-1,1,-1,0
0,-1,1,-1,1,-1,-1,1
-1,-1,-1,1,-1,1,-1,1
0,-1,-1,1,1,-1,-1,1
1,1,-1,-1,1,-1,-1,1
1,-1,1,-1,1,-1,-1,1
0,-1,-1,1,-1,1,-1,1
1,-1,-1,1,-1,-1,1,1
1,-1,-1,1,-1,1,-1,1
1,-1,-1,1,-1,1,-1,1
1,1,-1,-1,-1,1,-1,0
1,-1,1,-1,-1,1,-1,0
0,-1,1,-1,-1,-1,1,0
-1,-1,1,-1,-1,1,-1,0
1,-1,1,-1,1,-1,-1,1
-1,-1,1,-1,-1,1,-1,0
0,1,-1,-1,-1,1,-1,0
1,-1,-1,1,1,-1,-1,1
1,1,-1,-1,-1,1,-1,0
0,-1,1,-1,1,-1,-1,1
1,1,-1,-1,1,-1,-1,1
-1,1,-1,-1,-1,-1,1,0
-1,-1,1,-1,-1,-1,1,0
1,1,-1,-1,-1,1,-1,0
1,-1,-1,1,-1,1,-1,1
1,1,-1,-1,1,-1,-1,1
0,-1,-1,1,-1,1,-1,1
-1,-1,1,-1,-1,1,-1,0
0,1,-1,-1,1,-1,-1,1
0,1,-1,-1,1,-1,-1,1
1,-1,-1,1,1,-1,-1,1
-1,1,-1,-1,-1,1,-1,0
1,1,-1,-1,-1,1,-1,0
0,-1,1,-1,-1,1,-1,0
-1,-1,-1,1,1,-1,-1,1
0,-1,1,-1,-1,1,-1,0
0,-1,-1,1,-1,-1,1,1
0,-1,1,-1,1,-1,-1,1
-1,-1,1,-1,-1,1,-1,0
-1,-1,1,-1,-1,-1,1,0
1,-1,-1,1,-1,1,-1,1
-1,-1,-1,1,1,-1,-1,1
1,1,-1,-1,-1,-1,1,0
0,-1,-1,1,1,-1,-1,1
1,1,-1,-1,-1,1,-1,0
0,1,-1,-1,1,-1,-1,1
0,-1,-1,1,-1,-1,1,1
1,-1,1,-1,-1,-1,1,0
1,1,-1,-1,-1,-1,1,0
1,-1,1,-1,-1,1,-1,0
0,1,-1,-1,-1,-1,1,0
-1,1,-1,-1,-1,-1,1,0
1,-1,1,-1,-1,-1,1,0
0,-1,1,-1,-1,1,-1,0
-1,-1,-1,1,1,-1,-1,1
1,-1,-1,1,-1,1,-1,1
1,-1,1,-1,-1,-1,1,0
1,-1,1,-1,1,-1,-1,1
-1,-1,-1,1,-1,1,-1,1
1,-1,1,-1,1,-1,-1,1
1,-1,-1,1,1,-1,-1,1
-1,-1,1,-1,-1,-1,1,0
-1,-1,-1,1,-1,-1,1,1
1,1,-1,-1,-1,1,-1,0
-1,1,-1,-1,-1,1,-1,0
-1,-1,-1,1,-1,-1,1,1
0,1,-1,-1,-1,1,-1,0
0,1,-1,-1,-1,1,-1,0
0,-1,-1,1,-1,-1,1,1
-1,-1,1,-1,-1,1,-1,0
0,-1,1,-1,-1,-1,1,0
0,-1,-1,1,-1,-1,1,1
-1,1,-1,-1,1,-1,-1,1
1,-1,-1,1,-1,1,-1,1
0,-1,1,-1,-1,-1,1,0
1,-1,1,-1,1,-1,-1,1
1,-1,-1,1,-1,1,-1,1
1,1,-1,-1,-1,-1,1,0
1,-1,-1,1,-1,-1,1,1
1,-1,-1,1,-1,-1,1,1
1,1,-1,-1,-1,1,-1,0
1,-1,1,-1,-1,1,-1,0
0,-1,1,-1,1,-1,-1,1
1,-1,1,-1,-1,1,-1,0
0,1,-1,-1,-1,1,-1,0
0,-1,1,-1,-1,1,-1,0
-1,-1,-1,1,-1,1,-1,1
-1,-1,1,-1,-1,-1,1,0
0,-1,-1,1,-1,1,-1,1
-1,1,-1,-1,-1,1,-1,0
-1,1,-1,-1,-1,1,-1,0
-1,-1,1,-1,1,-1,-1,1
1,1,-1,-1,1,-1,-1,1
1,-1,1,-1,-1,-1,1,0
1,-1,1,-1,1,-1,-1,1
0,-1,1,-1,-1,1,-1,0
1,-1,1,-1,1,-1,-1,1
0,-1,-1,1,-1,-1,1,1
1,1,-1,-1,1,-1,-1,1
1,-1,1,-1,-1,1,-1,0
