@RELATION outdoor-classes-0-19

@ATTRIBUTE a1 numeric
@ATTRIBUTE a2 numeric
@ATTRIBUTE a3 numeric
@ATTRIBUTE a4 numeric
@ATTRIBUTE a5 numeric
@ATTRIBUTE a6 numeric
@ATTRIBUTE a7 numeric
@ATTRIBUTE a8 numeric
@ATTRIBUTE a9 numeric
@ATTRIBUTE a10 numeric
@ATTRIBUTE a11 numeric
@ATTRIBUTE a12 numeric
@ATTRIBUTE a13 numeric
@ATTRIBUTE a14 numeric
@ATTRIBUTE a15 numeric
@ATTRIBUTE a16 numeric
@ATTRIBUTE a17 numeric
@ATTRIBUTE a18 numeric
@ATTRIBUTE a19 numeric
@ATTRIBUTE a20 numeric
@ATTRIBUTE a21 numeric
@ATTRIBUTE class {0,1}

@DATA
0,0,0,0,0,0.0078366,0,0,0.0005598,0.073328,0.081724,0.0002799,0.0008396,0.074167,0.74139,0.010076,0.0002799,0.0041982,0.0011195,0.0011195,0.0027988,1
0.0002714,0,0,0,0,0.0081433,0,0.0010858,0.0013572,0.091477,0.098263,0.0002714,0.0010858,0.068132,0.71824,0.0059718,0.0013572,0.0019001,0.0008143,0.0005429,0.0010858,1
0,0,0,0,0,0.0088585,0,0.0002531,0.0035434,0.076436,0.086814,0.0005062,0.0007593,0.072387,0.7307,0.0098709,0.0002531,0.0040496,0.0020248,0.0010124,0.002531,1
0,0,0,0,0.000726,0.0070184,0,0,0.0026621,0.077928,0.07575,0,0.000726,0.078896,0.73548,0.0084705,0.0009681,0.0050823,0.0016941,0.000726,0.0038722,1
0,0,0,0,0,0.0086143,0,0.0004922,0.001969,0.098449,0.088112,0,0.0004922,0.068176,0.71327,0.005907,0.0002461,0.003938,0.0046763,0.0012306,0.0041841,1
0.0074273,0.0010316,0.0014442,0.0006189,0.0004126,0.0076336,0.0049515,0.013204,0.013617,0.012791,0.020838,0.0047452,0.055498,0.47741,0.045595,0.0070146,0.048071,0.051991,0.031978,0.058593,0.13328,0
0.0037773,0.000994,0.0005964,0,0.0003976,0.0081511,0.0029821,0.0095427,0.0097416,0.021074,0.023062,0.0035785,0.060437,0.47157,0.045129,0.0071571,0.050497,0.055467,0.033797,0.050497,0.13936,0
0.005578,0.0009617,0.0009617,0,0.0001923,0.0078861,0.0023081,0.0096172,0.0075014,0.014041,0.02212,0.0028852,0.05328,0.46586,0.039431,0.0069244,0.052702,0.057319,0.039238,0.05001,0.15945,0
0.0047746,0,0,0,0.000382,0.0085943,0.0024828,0.0080214,0.012223,0.020626,0.022154,0.0036287,0.064171,0.46257,0.036669,0.0091673,0.047937,0.043163,0.04851,0.051566,0.15221,0
0.00612,0.0020983,0.0008743,0.0003497,0.0006994,0.0089176,0.0043714,0.019759,0.0078685,0.016611,0.02378,0.0087428,0.051408,0.46477,0.042315,0.0089176,0.05473,0.048435,0.035671,0.049834,0.14146,0
