@RELATION train_elec2

@ATTRIBUTE a1 numeric
@ATTRIBUTE a2 numeric
@ATTRIBUTE a3 numeric
@ATTRIBUTE a4 numeric
@ATTRIBUTE a5 numeric
@ATTRIBUTE a6 numeric
@ATTRIBUTE a7 numeric
@ATTRIBUTE class {0,1}

@DATA
3,5,1675,6938,1607,4990,735,0
3,6,1294,6616,1143,4852,865,1
3,7,1336,6265,801,4677,915,1
3,8,1219,6055,1013,4563,915,1
3,9,1189,5925,740,4459,915,1
3,11,1257,6070,470,4407,865,1
3,12,1331,6345,629,4493,865,1
4,6,1309,6472,1267,4971,760,1
4,7,1228,6126,1143,4808,865,1
4,8,1153,5894,944,4663,915,1
4,12,1112,6196,1064,4665,857,1
5,5,1333,7041,1182,5240,415,0
5,7,1276,6416,1000,4922,665,1
5,8,1310,6199,759,4754,565,1
5,9,1289,6041,470,4663,565,1
5,10,1289,6024,470,4600,565,1
5,11,1289,6209,470,4638,565,1
5,12,1289,6554,470,4720,565,1
6,7,1289,6526,831,4873,565,1
6,8,1289,6251,459,4703,565,1
6,9,1289,6096,459,4594,565,1
6,10,1289,6083,436,4545,565,1
6,11,1289,6242,470,4597,565,1
6,12,1289,6538,470,4674,565,1
7,5,1483,7043,1438,5162,565,0
7,6,1305,6676,1130,4978,709,1
7,7,1226,6346,1116,4828,865,1
7,8,1289,6053,711,4680,915,1
7,9,1289,5860,791,4564,965,1
7,13,1289,6040,564,4490,915,1
7,14,1284,6324,939,4566,915,1
7,15,1289,6708,853,4521,915,1
1,4,1288,6467,1184,5089,681,1
1,5,1479,6117,1177,4928,565,0
1,6,1256,5871,860,4748,665,1
1,16,1134,6432,448,4017,1160,1
1,17,1308,7050,470,4224,1160,0
1,18,1329,7575,433,4369,1026,0
2,1,1340,7260,1047,5046,710,0
2,3,1366,6732,1298,5181,602,0
2,4,1333,6538,1269,5090,751,1
2,5,1486,6287,1243,4984,665,0
2,6,1340,6145,973,4821,665,0
2,7,1340,5912,994,4703,765,0
2,8,1323,5809,981,4562,865,1
2,11,1056,6009,939,4499,1015,1
2,12,1093,6348,1037,4610,1015,1
3,7,1118,6505,1072,4758,925,1
3,8,1104,6252,998,4631,965,1
3,9,1020,6100,887,4544,965,1
3,10,1003,6077,867,4504,965,1
3,11,1108,6230,722,4518,965,1
3,12,1108,6565,928,4619,965,1
4,6,1362,6889,943,5032,415,0
4,7,1319,6527,971,4847,526,0
4,8,1114,6266,1017,4724,715,1
4,9,1096,6096,1055,4657,832,1
4,10,1088,6061,1039,4591,943,1
4,11,1105,6239,1062,4638,917,1
4,12,1109,6583,1048,4729,765,1
5,7,1279,6587,1240,4835,723,1
5,8,1120,6306,1080,4697,738,1
5,9,1086,6157,1043,4604,845,1
5,10,1100,6098,1048,4569,865,1
5,11,1108,6274,1061,4619,833,1
5,12,1149,6675,1107,4711,725,1
6,7,1321,6642,1283,4808,764,1
6,8,1160,6413,1121,4683,776,1
6,9,1120,6276,1079,4606,871,1
6,10,1103,6197,1058,4547,928,1
6,11,1108,6379,1060,4572,946,1
6,12,1118,6736,1057,4679,885,1
7,6,1362,6750,1326,4836,565,1
7,7,1361,6391,1278,4649,536,1
7,8,1238,6134,1208,4524,527,1
7,9,1120,5918,1089,4397,643,1
7,12,1120,5942,980,4287,665,1
7,13,1120,6231,1054,4340,655,1
7,14,1120,6515,951,4399,565,1
7,15,1118,6880,550,4346,552,1
7,30,1108,6799,1066,4759,433,1
7,31,1109,6780,1066,4709,456,1
1,3,1885,6853,1852,5046,80,0
1,4,1365,6579,1347,4960,169,1
1,5,1322,6283,1295,4783,337,1
1,6,1120,6010,1089,4621,487,1
1,16,1120,6761,813,3954,1000,1
1,27,1120,6868,1059,4506,705,1
1,28,1120,6713,1056,4468,668,1
1,29,1120,6613,1056,4441,710,1
1,30,1120,6544,665,4395,710,1
1,31,1120,6541,759,4379,739,1
1,32,1115,6683,758,4358,768,1
1,33,1096,6904,1026,4384,797,1
2,4,1410,6634,807,4915,450,1
2,5,1287,6372,646,4816,550,1
2,6,1319,6164,750,4669,700,1
2,7,1118,5966,759,4572,800,1
2,11,1117,6091,641,4384,1000,1
2,12,1151,6505,637,4479,950,1
3,7,1362,6606,1168,4707,800,1
3,8,1120,6366,1048,4588,900,1
3,9,1106,6215,1019,4507,1000,1
3,10,1105,6182,947,4449,1000,1
3,11,1108,6333,939,4462,1000,1
3,12,1115,6712,940,4557,900,1
4,7,1171,6573,1146,4690,738,1
4,8,1118,6345,1082,4558,800,1
4,9,1100,6179,1061,4478,880,1
4,10,1044,6122,1011,4432,842,1
4,11,1077,6303,1045,4463,854,1
4,12,1106,6685,1074,4558,674,1
5,7,1362,6429,1331,4802,661,1
5,8,1158,6195,1124,4695,763,1
5,9,1103,6063,1067,4613,804,1
5,10,1101,6082,1066,4565,754,1
5,11,1106,6247,1075,4572,722,1
5,12,1108,6619,1084,4684,560,1
6,6,1224,6596,1194,4594,689,1
6,7,1154,6306,1118,4526,693,1
6,8,1108,6104,1077,4562,676,1
6,9,1100,5955,1067,4478,778,1
6,10,1100,5954,1065,4443,806,1
6,11,1100,6118,1066,4454,828,1
6,12,1110,6468,1081,4547,678,1
7,6,1103,6420,1101,4579,31,1
7,7,1100,6065,1092,4414,163,1
7,14,1100,6103,1090,4189,340,1
7,15,1106,6462,1100,4226,284,1
1,2,1108,6649,1102,4626,-9,1
1,3,1357,6404,1358,4804,-249,0
1,4,1104,6146,1107,4691,-106,1
1,5,1103,5884,1101,4498,94,1
1,17,1100,6656,950,3937,580,1
1,27,1102,6915,1078,4293,471,1
1,28,1100,6710,1077,4290,436,1
1,29,1100,6563,1075,4270,557,1
1,30,1100,6427,1076,4233,549,1
1,31,1100,6388,1074,4234,540,1
1,32,1100,6434,1074,4229,560,1
1,33,1091,6510,1062,4270,536,1
1,34,1100,6814,1070,4356,409,1
1,47,1451,7264,1424,4785,57,0
1,48,1183,7036,1166,4805,137,0
2,1,1121,6905,1104,4779,80,0
2,2,1109,6702,1097,4685,129,1
2,3,1367,6552,1368,4907,-201,0
2,4,1302,6345,1305,4819,-45,0
2,5,1159,6091,1155,4672,60,0
2,6,1105,5892,1096,4513,234,1
2,12,1096,6180,1069,4309,657,1
3,6,1106,6748,1091,4903,526,1
3,7,1102,6376,1082,4745,663,1
3,8,1087,6136,1058,4627,840,1
3,9,1005,5997,976,4538,869,1
3,10,951,5970,922,4477,908,1
3,11,964,6145,934,4512,855,1
3,12,1029,6507,1002,4596,761,1
4,7,1102,6473,1024,4861,562,1
4,8,1100,6227,1073,4685,690,1
4,9,1094,6106,1061,4631,841,1
4,10,1057,6090,1020,4572,868,1
4,11,1076,6291,1041,4622,875,1
4,12,1100,6625,1068,4718,751,1
5,6,1327,6853,1307,4893,424,0
5,7,1137,6478,1104,4700,574,1
5,8,1100,6253,1059,4586,574,1
5,9,1100,6096,1075,4491,737,1
5,10,1091,6072,1064,4430,805,1
5,11,1096,6271,1069,4429,731,1
5,12,1148,6656,1131,4541,624,1
6,7,1174,6413,938,4765,589,1
6,8,1096,6199,1071,4627,905,1
6,9,951,6053,927,4557,698,1
6,10,969,6063,950,4475,672,1
6,11,1009,6233,992,4490,741,1
6,12,1058,6575,1042,4590,716,1
7,5,1670,7082,1667,4980,322,0
7,6,1278,6717,1188,4788,456,1
7,7,1231,6328,1037,4665,440,1
7,8,977,6058,964,4509,573,1
7,13,1100,6124,1073,4337,843,1
7,14,1120,6439,868,4397,706,1
7,15,1252,6844,470,4348,556,1
7,30,1100,6901,875,4642,745,1
7,31,1100,6913,956,4582,824,1
1,3,1496,6682,1476,5103,327,0
1,4,1256,6422,1242,5003,442,1
1,5,1148,6116,1097,4872,506,1
1,6,1100,5862,956,4700,556,1
1,16,1117,6624,470,4007,1056,1
1,17,1005,7133,826,4203,1137,1
1,26,1100,6968,766,4432,1003,1
1,27,1100,6778,779,4463,974,1
1,28,1100,6620,748,4398,945,1
1,29,1100,6519,745,4354,945,1
1,30,1100,6472,745,4287,945,1
1,31,1073,6518,740,4252,974,1
1,32,1073,6614,743,4297,1003,1
1,33,963,6783,745,4281,1032,1
1,46,1203,7567,980,4754,916,0
2,1,1217,7058,1039,5030,758,0
2,2,1194,6846,791,4972,656,0
2,3,1145,6642,914,5172,506,1
2,4,1535,6434,1004,5113,506,0
2,5,1120,6209,956,4972,506,1
2,6,1100,6033,865,4816,506,1
2,7,1100,5826,933,4696,656,1
2,11,1061,5908,1009,4523,1006,1
2,12,1100,6290,1037,4660,948,1
3,7,1150,6367,1126,4892,615,1
3,8,1100,6131,1067,4802,790,1
3,9,1140,5984,1099,4718,879,1
3,10,1140,5970,1098,4658,866,1
3,11,1140,6167,1104,4676,792,1
3,12,1159,6546,1130,4796,610,1
4,6,1234,6737,1218,4841,564,1
4,7,1158,6363,1134,4682,677,1
4,8,1140,6145,1107,4552,853,1
4,9,1079,5975,1043,4486,843,1
4,10,1010,5970,976,4410,896,1
4,11,1094,6141,1058,4467,869,1
4,12,1111,6480,1080,4562,768,1
5,6,1116,6617,1074,4758,612,1
5,7,1116,6266,1086,4620,853,1
5,8,1048,6009,995,4496,917,1
5,11,1015,6061,969,4362,1062,1
5,12,1101,6373,1044,4459,1034,1
6,5,1287,6937,1282,5096,28,0
6,7,1569,6202,1550,4746,298,0
1,6,1910,5935,1190,4607,630,0
1,7,1455,5705,788,4457,670,0
1,16,1581,6716,470,3951,1000,0
2,3,1226,6741,1216,4945,294,0
2,4,1211,6514,1197,4878,403,0
2,13,1185,7250,1147,4625,466,0
6,6,1619,6671,1634,4835,329,0
7,25,1205,7060,750,4514,737,0
7,41,1114,7432,1059,4772,758,0
7,42,1086,7366,1035,4706,814,0
7,47,1245,7225,1191,4889,563,0
7,48,1048,7068,1007,4867,676,0
1,1,1041,6908,937,4821,708,0
1,2,1011,6617,448,4697,608,0
1,6,1414,5584,531,4465,650,0
1,7,1304,5378,459,4303,650,0
1,8,1027,5202,437,4168,650,0
1,17,1029,6592,713,4050,730,0
1,18,1069,6915,1016,4116,763,0
1,19,1090,7153,1030,4194,743,0
1,20,1091,7238,1030,4241,723,0
1,21,1091,7136,1030,4260,723,0
1,22,1090,7035,1030,4288,703,0
1,23,1085,6905,1030,4284,702,0
1,24,1063,6797,1011,4314,699,0
1,25,1048,6641,959,4339,670,0
1,26,1023,6552,834,4338,670,0
1,27,948,6389,765,4374,700,0
1,36,1000,7247,962,4903,602,0
1,40,1082,7307,1039,4999,642,0
1,41,1079,7228,1055,4970,718,0
1,42,1089,7169,1035,4904,743,0
1,43,1048,6936,878,4762,750,0
1,44,961,6720,765,4683,750,0
1,45,1012,6863,839,4629,793,0
1,46,1062,6901,1008,4657,746,0
1,47,1086,6929,1043,4929,584,0
1,48,1061,6812,1017,4944,656,0
2,1,1067,6723,1015,4913,697,0
2,2,1025,6516,980,4855,689,0
2,3,1024,6339,987,5064,489,0
2,4,1102,6118,1051,5008,607,0
2,5,1120,5829,1055,4875,657,0
2,6,1119,5652,1040,4725,643,0
2,7,1032,5475,976,4600,942,0
2,11,1044,5656,592,4423,1050,0
2,12,1076,6043,1013,4552,952,0
7,4,1165,7153,1127,5045,92,0
7,23,1088,7313,1060,4840,168,0
7,24,1090,7162,1058,4834,177,0
7,25,1089,6992,1055,4796,237,0
7,26,1088,6833,1053,4778,243,0
7,27,1082,6711,1050,4799,171,0
7,28,1087,6591,1057,4873,116,0
7,30,1086,6450,1060,4946,64,0
7,42,1081,7244,1059,4980,78,0
7,46,1080,7117,1057,4797,134,0
7,47,1114,7152,1092,5128,-121,0
7,48,1122,6986,1097,5133,-145,0
1,1,1098,6860,1071,5114,-189,0
1,2,1083,6553,1057,5023,-71,0
1,3,1090,6320,1064,5210,-305,0
1,4,1083,6045,1058,5077,-173,0
1,18,1064,7153,1040,4463,454,0
1,19,1111,7505,1070,4599,387,0
1,23,1198,7387,1151,4791,317,0
1,24,1185,7250,1140,4817,283,0
1,25,1216,7132,1169,4848,321,0
1,26,1206,7000,1158,4837,292,0
1,27,1180,6839,1133,4876,196,0
1,28,1147,6669,1106,4848,165,0
1,29,1120,6571,1077,4793,183,0
1,30,1081,6488,1041,4702,236,0
1,31,1079,6501,1042,4652,378,0
1,32,1077,6587,1039,4643,385,0
1,33,1080,6790,1039,4620,386,0
1,34,1078,7108,1039,4660,316,0
1,48,1158,7141,1120,4959,92,0
2,1,1108,7011,1068,4956,157,0
2,3,1096,6615,1055,5141,32,0
5,5,1174,7022,1118,5018,461,0
6,4,1113,7245,1079,5167,393,0
7,10,1138,5410,267,4075,300,0
7,11,1270,5437,436,4042,0,0
7,12,1086,5546,747,4050,0,0
7,45,1027,6954,987,4637,780,0
7,47,1082,6963,1048,4918,428,0
1,16,909,5979,612,3955,1058,0
1,17,990,6409,601,4092,908,0
1,18,1010,6735,504,4222,808,0
1,19,1045,7037,979,4315,837,0
1,20,1067,7175,844,4371,807,0
1,21,1055,7069,799,4377,757,0
1,22,1063,6948,897,4299,718,0
1,23,920,6820,531,4278,766,0
1,24,926,6720,747,4290,786,0
1,25,972,6601,916,4311,824,0
1,26,990,6497,754,4273,766,0
1,27,915,6342,765,4249,816,0
1,28,998,6237,750,4203,778,0
1,29,947,6110,470,4170,758,0
1,30,955,6071,470,4126,758,0
1,31,945,6077,517,4120,808,0
1,32,938,6168,470,4134,868,0
1,36,1024,7426,908,4610,687,0
1,40,1004,7429,968,4827,678,0
1,41,978,7325,941,4787,698,0
1,42,1000,7196,962,4737,724,0
1,43,1017,7062,982,4654,754,0
1,44,967,6807,933,4571,822,0
1,45,1019,6960,982,4568,810,0
1,46,1007,6929,968,4583,744,0
1,47,1035,6885,1009,4839,584,0
1,48,951,6732,918,4815,652,0
2,1,985,6582,947,4741,695,0
2,2,936,6301,899,4648,719,0
2,3,987,6107,929,4829,606,0
2,4,949,5916,913,4757,659,0
2,6,931,5523,782,4478,756,0
2,12,960,5835,921,4279,835,0
2,13,1029,6551,879,4563,755,0
2,14,1263,7248,1211,4900,557,0
2,15,1119,7313,1089,5068,442,0
6,6,1029,6074,996,4717,69,0
6,7,1044,5801,1012,4541,224,0
7,3,1014,7285,981,5093,-33,0
7,4,1011,6865,977,4998,141,0
7,25,1061,7105,1012,4432,428,0
7,26,1130,7055,1083,4385,419,0
7,41,1455,7257,1392,4641,356,0
7,42,993,7164,960,4581,331,0
7,43,966,7104,936,4500,365,0
7,44,982,7110,949,4521,327,0
7,45,1096,7410,1059,4564,416,0
7,46,1054,7370,1019,4618,333,0
1,18,952,6952,894,4106,835,0
1,19,940,7284,883,4212,722,0
1,20,952,7469,894,4293,653,0
1,21,917,7443,864,4331,630,0
1,22,917,7356,865,4334,623,0
1,23,908,7222,856,4351,614,0
1,25,1063,6972,1009,4396,480,0
1,26,1006,6745,965,4352,447,0
1,27,916,6560,880,4343,422,0
1,31,922,6123,888,4228,567,0
1,34,943,6299,909,4266,438,0
1,40,912,7478,869,4763,381,0
1,41,1262,7375,1211,4739,261,0
1,42,1055,7313,1024,4731,252,0
1,43,969,7162,942,4647,281,0
1,44,926,6875,897,4555,355,0
1,45,976,6951,937,4515,392,0
1,46,904,6887,874,4517,342,0
1,47,907,6854,874,4780,152,0
1,48,908,6667,874,4768,223,0
2,3,942,6205,905,4827,117,0
2,7,993,5372,961,4342,323,0
2,9,976,5293,949,4138,492,0
2,11,925,5599,903,4171,455,0
2,12,981,6001,962,4286,315,0
2,13,1010,6682,998,4605,276,0
3,4,1371,6960,1364,5045,-173,0
7,4,1140,6826,1124,4945,-6,0
7,23,1035,6976,996,4516,377,0
7,29,993,6232,974,4268,396,0
7,40,972,7151,939,4683,361,0
7,47,969,6798,951,4738,116,0
1,3,980,6065,968,4738,-41,0
1,18,862,6542,834,4193,932,0
1,19,880,6792,853,4310,811,0
1,39,1654,7401,1653,4859,-351,0
1,40,1458,7297,1463,4770,-306,0
1,41,1276,7142,1286,4730,-269,0
1,42,1127,6980,1135,4677,-231,0
1,43,1100,6753,1104,4553,-223,0
1,44,1070,6549,1068,4457,-147,0
1,45,1305,6693,1291,4425,-139,0
1,46,1321,6679,1315,4403,-164,0
1,47,1347,6646,1344,4672,-313,0
1,48,1273,6511,1269,4667,-229,0
2,1,1178,6380,1149,4667,-218,0
2,2,1068,6182,1062,4583,-124,0
2,3,1100,6034,1097,4787,-323,0
2,4,1018,5790,1012,4741,-133,1
2,13,958,6333,908,4528,297,1
2,17,1251,7475,1255,5294,-164,0
2,18,1399,7548,1405,5353,-315,0
2,19,1426,7831,1414,5402,-191,0
2,20,1446,7926,1436,5339,-177,0
2,48,1048,7512,1009,5067,2,0
3,2,1037,7371,1000,4852,169,0
3,3,1037,7136,1005,5077,-35,0
3,4,1037,6815,1002,4961,123,0
3,5,1037,6409,1000,4809,129,0
3,6,1020,6105,991,4634,263,1
3,7,990,5780,961,4514,340,1
3,12,925,6013,875,4417,393,1
3,13,984,6642,955,4652,172,1
3,19,1050,7756,1021,5438,-91,0
3,20,1050,7814,1021,5384,2,0
3,39,1000,7779,977,5343,24,0
3,47,988,7352,949,5093,-222,0
3,48,988,7379,951,5055,-71,0
4,3,987,7006,946,5029,-90,0
4,4,982,6660,940,4920,89,0
4,5,961,6250,915,4767,218,1
4,6,961,5970,917,4606,320,1
4,13,965,6417,945,4610,135,1
4,14,995,6872,974,4855,-43,0
4,16,995,7112,978,5145,-136,0
4,17,996,7296,968,5286,-89,0
4,18,996,7353,966,5337,-125,0
4,19,1016,7601,982,5348,-141,0
4,20,996,7660,961,5305,-92,0
4,21,996,7550,967,5248,-27,0
4,22,996,7484,974,5235,-49,0
4,23,996,7459,978,5241,-61,0
4,24,996,7409,986,5236,-69,0
4,25,989,7373,986,5159,-27,0
4,26,990,7317,990,5149,-186,0
4,27,991,7279,992,5181,-193,0
4,28,993,7251,994,5226,-255,0
4,29,994,7208,994,5203,-234,0
4,30,983,7143,981,5198,-188,0
4,34,980,7085,970,5090,-10,0
4,36,990,7262,981,5092,90,0
4,37,987,7511,978,5085,80,0
4,38,996,7647,988,5204,-21,0
4,39,988,7373,982,5172,67,0
4,44,892,6491,872,4672,328,1
4,47,982,7149,969,4994,28,0
4,48,960,7135,948,4969,209,0
5,3,973,6722,936,4904,264,0
5,4,951,6358,930,4799,300,1
5,5,898,5963,870,4608,513,1
5,13,857,6126,833,4379,481,1
5,14,943,6611,921,4606,310,0
5,15,896,6523,876,4719,316,1
5,16,968,6892,952,4971,143,0
5,17,988,7106,979,5107,72,0
5,19,985,7537,967,5251,-23,0
5,20,996,7659,974,5240,-22,0
5,21,995,7638,978,5231,0,0
5,22,996,7589,981,5233,-100,0
5,23,996,7560,979,5222,-73,0
5,24,996,7565,981,5216,-85,0
5,25,1017,7528,1005,5157,-89,0
5,26,1023,7526,1013,5175,-161,0
5,27,1051,7543,1039,5207,-234,0
5,28,1067,7523,1055,5228,-248,0
5,29,1027,7437,1017,5210,-239,0
5,30,1037,7454,1028,5208,-220,0
5,31,1050,7439,1039,5154,-162,0
5,32,944,7435,933,5124,-7,0
5,33,990,7412,975,5117,1,0
5,34,990,7402,975,5146,-26,0
5,35,1010,7409,995,5207,-105,0
5,36,1056,7567,1042,5258,-124,0
5,37,1117,7743,1099,5238,-31,0
5,38,1374,7811,1354,5340,-151,0
5,39,1155,7561,1137,5274,-111,0
5,40,1040,7318,1028,5166,-182,0
5,41,990,7182,979,5059,-88,0
5,42,983,6998,968,4957,6,0
5,45,994,6957,980,4669,-128,0
5,46,1040,7141,1029,4651,-109,0
5,47,1158,7179,1144,4983,-307,0
5,48,1155,7145,1141,4991,-216,0
6,1,1020,7068,1008,4833,-24,0
6,2,1000,6959,983,4711,144,0
6,3,1010,6705,991,4900,-27,0
6,4,1013,6353,994,4780,-52,0
6,5,967,5929,943,4640,94,1
6,13,983,6156,964,4456,35,1
6,14,1265,6605,1251,4720,-184,0
6,16,1258,6942,1255,5043,-380,0
6,17,1173,7200,1167,5204,-226,0
6,18,2125,7356,2097,5325,-192,0
6,19,4140,7737,4060,5363,-51,0
6,20,4897,7859,4785,5322,86,0
6,21,3928,7826,3838,5324,120,0
6,22,3588,7757,3507,5343,116,0
6,23,3353,7736,3285,5333,72,0
6,24,2319,7705,2272,5235,-7,0
6,25,2443,7660,2394,5322,70,0
6,26,2408,7623,2359,5274,40,0
6,27,2381,7548,2341,5329,-35,0
6,28,1974,7483,1946,5286,-115,0
6,29,2372,7439,2343,5225,-50,0
6,30,1928,7379,1913,5152,-126,0
6,31,2170,7289,2157,5105,-190,0
6,32,2021,7271,2011,5086,-254,0
6,33,1627,7182,1621,5031,-229,0
6,34,1628,7162,1621,5025,-239,0
6,37,2498,7381,2491,5207,-208,0
6,38,3850,7506,3822,5371,-186,0
6,44,892,6334,872,4810,39,1
7,4,970,6323,951,4933,39,1
7,5,997,5885,973,4771,169,1
7,15,899,5900,868,4224,457,1
7,16,928,6284,895,4342,335,1
7,17,971,6624,931,4482,255,1
7,23,949,6642,914,4530,372,1
7,24,947,6503,910,4494,363,1
7,25,942,6383,906,4411,344,1
7,26,929,6283,893,4356,425,1
7,27,921,6156,892,4360,373,1
7,28,893,6070,866,4321,439,1
7,29,892,5984,863,4280,466,1
7,30,893,5899,864,4231,529,1
7,32,892,5923,861,4158,555,1
7,33,895,5959,865,4181,565,1
7,34,899,6075,870,4227,493,1
7,35,919,6088,892,4292,389,1
7,36,936,6465,911,4420,393,1
7,38,1089,7209,1078,4784,106,0
7,39,1104,7100,1093,4837,124,0
7,40,1121,6885,1105,4648,171,0
7,41,990,6720,973,4730,205,0
7,42,990,6634,970,4660,333,0
7,43,1212,6489,1181,4568,342,0
7,44,990,6308,962,4496,359,0
7,45,987,6493,960,4483,358,0
7,46,990,6538,965,4504,318,0
7,47,1557,6575,1529,4767,23,0
7,48,1340,6422,1314,4752,140,0
1,1,1613,6264,1583,4745,36,0
1,2,980,6044,962,4580,132,1
1,3,1027,5837,1010,4790,-78,0
1,4,1160,5570,1141,4695,-20,0
1,17,894,5962,864,3993,642,1
1,18,903,6229,871,4076,598,1
1,19,918,6508,884,4128,612,1
1,20,921,6609,859,4136,535,1
1,21,926,6518,887,4167,547,1
1,22,923,6465,883,4152,559,1
1,23,910,6380,873,4142,547,1
1,24,898,6292,864,4141,541,1
1,25,898,6203,865,4146,533,1
1,26,896,6070,864,4127,573,1
1,27,887,5921,856,4132,539,1
1,36,962,6115,939,4492,170,0
1,37,1000,6610,982,4641,99,0
1,38,1250,6917,1235,4838,72,0
1,39,1104,6784,1090,4890,122,0
1,40,1068,6592,1048,4853,174,0
1,41,1020,6505,1001,4809,137,0
1,42,1131,6436,1105,4724,281,0
1,43,990,6252,963,4627,358,0
1,44,1072,6087,1043,4549,271,0
1,45,993,6287,967,4500,302,0
1,46,987,6339,960,4468,339,0
1,47,1572,6346,1541,4709,47,0
1,48,1174,6132,1149,4688,155,0
2,1,936,5952,912,4621,289,1
2,3,949,5568,928,4756,73,0
2,4,934,5375,913,4699,182,0
2,5,944,5153,920,4565,277,0
2,14,937,5188,914,4785,3,0
2,16,946,5591,927,5139,4,0
2,17,977,5938,959,5273,-82,0
2,18,1003,6235,988,5284,-21,0
2,19,1220,6601,1203,5337,-63,0
2,20,1188,6783,1173,5292,-1,0
2,21,2454,6792,2414,5273,160,0
2,22,2474,6718,2406,5235,214,0
2,23,2187,6605,2100,5243,209,0
2,24,2451,6598,2377,5218,229,0
2,25,2205,6510,2135,5162,268,0
2,26,2385,6425,2314,5153,154,0
2,27,2560,6313,2480,5199,156,0
2,28,2675,6259,2588,5171,168,0
2,29,2189,6187,2125,5100,82,0
2,30,2383,6178,2316,5153,113,0
2,31,2197,6187,2127,5091,134,0
2,32,2396,6305,2323,5088,190,0
2,33,2430,6402,2352,5080,204,0
2,34,3215,6620,3118,5112,370,0
2,35,3755,6888,3586,5145,462,0
2,36,3822,7362,3456,5200,430,0
2,37,3795,7643,3546,5190,432,0
2,38,3474,7642,3364,5304,257,0
2,39,3215,7504,3131,5306,196,0
2,40,3085,7276,3010,5212,258,0
2,41,3063,7074,2973,5125,411,0
2,42,2643,6920,2552,5083,476,0
2,43,2257,6695,2175,4963,391,0
2,44,1745,6456,1688,4865,358,1
2,47,2531,6722,2462,5051,271,0
2,48,2301,6625,2226,5031,233,0
3,2,1104,6435,1080,4816,228,1
3,3,1384,6237,1358,5005,-4,1
3,4,1837,5976,1800,4923,-43,1
3,13,974,6140,953,4566,120,1
4,5,1261,6166,1248,4609,14,1
4,6,1067,5897,1049,4440,188,1
4,13,1238,6386,1232,4457,-173,1
5,5,1250,6154,1242,4647,-85,1
5,6,1002,5841,990,4436,66,1
5,13,1100,6269,1092,4486,-117,1
6,4,1070,6490,1065,4767,-94,1
6,5,944,6076,930,4586,139,1
6,13,929,6200,909,4406,256,1
6,14,948,6629,933,4669,76,1
6,43,894,6464,878,4658,233,1
6,44,884,6283,866,4557,328,1
6,45,958,6735,940,4552,313,1
7,4,933,6308,913,4664,229,1
7,5,927,5926,902,4491,320,1
7,16,911,6214,878,4195,561,1
7,17,935,6547,908,4368,412,1
7,18,930,6763,909,4449,354,1
7,26,967,6763,941,4440,326,1
7,27,954,6656,924,4425,368,1
7,28,935,6592,904,4375,412,1
7,30,940,6520,908,4283,470,1
7,31,922,6494,889,4248,510,1
7,33,909,6517,881,4257,503,1
7,35,882,6515,857,4341,305,1
7,36,909,6658,883,4382,239,1
7,42,902,6536,868,4392,470,1
7,43,901,6403,863,4321,381,1
7,44,876,6205,839,4264,453,1
7,45,911,6352,869,4265,576,1
7,46,895,6432,851,4304,577,1
1,30,874,6096,848,4007,475,1
1,44,900,6023,881,4331,279,1
2,2,913,5856,895,4411,163,1
3,5,1084,6099,1077,4579,-55,1
3,13,926,6394,907,4361,278,1
4,5,1577,6041,1573,4747,-306,1
4,6,1175,5783,1168,4559,-129,1
4,13,999,6381,992,4566,41,1
5,5,1558,6056,1553,4676,-346,1
5,6,1213,5767,1208,4479,-183,1
5,13,965,6385,955,4393,223,1
6,5,1325,5993,1321,4691,-410,1
6,13,1172,6346,1168,4539,-111,1
6,44,961,6387,968,4808,-372,1
7,15,1457,5914,1429,4225,62,1
7,31,1454,6105,1424,4204,105,1
7,32,1350,6125,1323,4156,86,1
7,33,1152,6136,1130,4137,108,1
7,34,1483,6235,1454,4236,59,1
7,35,1059,6218,1046,4308,-103,1
7,36,1022,6484,1015,4413,-173,1
1,2,1458,6045,1444,4561,-306,1
1,17,911,5971,888,3973,547,1
1,18,919,6249,895,4031,489,1
1,19,925,6518,904,4101,425,1
1,20,924,6611,906,4137,405,1
1,21,913,6548,891,4198,447,1
1,22,938,6480,918,4197,447,1
1,23,940,6415,918,4203,467,1
1,24,938,6356,915,4220,446,1
1,25,917,6372,896,4226,458,1
1,26,925,6275,902,4185,441,1
1,27,916,6173,894,4194,420,1
1,28,891,6004,868,4129,500,1
1,29,896,5933,873,4108,506,1
1,33,905,5916,884,4207,365,1
1,34,933,6020,914,4309,252,1
1,35,916,6098,901,4416,157,1
1,36,941,6427,932,4587,-6,1
1,44,1052,6322,1031,4495,181,1
1,45,1005,6484,987,4439,243,1
1,46,972,6425,955,4410,211,1
1,47,1007,6467,997,4676,-50,1
1,48,984,6301,974,4674,18,1
2,1,965,6243,956,4594,-25,1
2,2,891,5997,882,4517,42,1
2,3,937,5848,932,4725,-197,1
3,6,1458,5964,1443,4614,-190,1
3,12,982,5869,975,4279,-85,1
4,5,1354,6243,1348,4669,-111,1
4,6,1364,5947,1352,4476,-195,1
4,13,1463,6496,1448,4498,-111,1
5,5,972,6224,975,4618,-300,1
5,6,1096,5905,1093,4461,-149,1
6,4,937,6423,934,4794,-103,1
6,5,886,6039,874,4606,191,1
6,13,926,6315,857,4473,393,1
6,43,895,6656,885,4737,211,1
6,44,882,6417,869,4589,110,1
7,3,966,6567,947,4804,316,1
7,4,900,6165,878,4676,440,1
7,15,902,5926,475,4149,620,1
7,16,901,6334,801,4278,670,1
7,17,929,6669,835,4389,613,1
7,29,978,6714,952,4642,383,1
7,30,972,6638,945,4609,413,1
7,31,1036,6606,1004,4586,510,1
7,32,972,6579,940,4587,545,1
7,33,954,6493,923,4561,522,1
7,34,955,6527,924,4589,532,1
7,35,920,6449,892,4588,486,1
7,36,931,6596,904,4603,524,1
7,37,939,6776,913,4609,497,1
7,41,931,6627,905,4645,425,1
7,42,904,6515,876,4584,533,1
7,43,905,6339,875,4474,561,1
7,44,878,6162,847,4432,584,1
7,46,915,6442,884,4434,576,1
7,48,892,6226,867,4707,388,1
1,1,873,5988,848,4574,529,1
1,44,882,6237,852,4187,628,1
2,42,929,6630,918,4683,136,1
3,1,953,6641,939,4664,214,1
3,2,895,6292,880,4563,252,1
3,3,916,5927,903,4766,24,1
4,21,13082,7806,13459,4843,-380,0
4,22,12791,7758,13190,4825,-429,0
3,25,10984,8805,91127,6190,-201,0
3,27,14496,8920,4.721e+05,6302,-203,0
3,28,14496,8930,4.814e+05,6371,-183,0
3,29,14496,8991,4.7959e+05,6349,-183,0
3,30,14617,9158,14173,6441,-579,0
3,31,15110,9197,14522,6512,-566,0
3,32,14796,9235,14209,6596,-717,0
3,33,22409,9078,21851,6606,-553,0
3,34,16825,8928,16573,6534,-503,0
3,37,2719,8246,2706,5957,-673,1
3,40,3634,8170,3637,5758,-356,1
3,41,3582,7897,3575,5683,-358,1
3,43,2717,7649,2669,5267,286,1
4,13,2742,7285,2731,5506,-67,1
4,14,5486,7767,5496,5916,-340,1
4,15,4384,8065,4376,5914,-376,1
4,16,5453,8260,5451,6055,-348,1
4,18,26076,8915,25829,6323,-386,0
4,19,16951,9008,16755,6416,-506,0
4,20,13204,9054,13038,6540,-596,0
4,21,28403,9170,27986,6586,-666,0
4,22,28984,9307,28631,6584,-584,0
4,23,25029,9361,24703,6538,-567,0
4,24,31283,9427,30754,6621,-696,0
4,25,31414,9548,30485,6728,-694,0
4,26,32178,9570,30997,6796,-753,0
4,27,32339,9506,1.0533e+05,6821,-667,0
4,28,31283,9503,2.4509e+05,6805,-610,0
4,29,32252,9496,1.0599e+05,6778,-488,0
4,30,31486,9533,30348,6796,-521,0
4,31,31283,9458,30249,6786,-566,0
4,32,31283,9435,30354,6809,-594,0
4,33,31283,9298,30563,6753,-531,0
4,34,33308,9066,32125,6502,-419,0
4,35,14263,8774,13864,6111,-131,0
4,36,4111,8620,4055,5803,-244,1
4,37,3222,8411,3194,5555,-228,1
4,38,3634,8343,3587,5427,-36,1
4,39,5790,8389,5710,5382,37,1
4,40,4332,8256,4283,5362,-110,1
4,41,2839,7948,2809,5278,-6,1
4,43,4395,7831,4319,4975,390,1
5,14,2557,7882,2550,5661,-111,1
5,18,3153,9052,3095,5705,-29,1
5,19,2430,9144,2378,5762,-37,1
5,20,2850,9246,2829,5832,-2,1
5,21,2607,9338,2536,5882,-137,1
5,22,6106,9487,5937,5946,-136,1
5,23,3399,9540,3302,5908,-79,1
5,24,3883,9600,3778,5907,-85,1
5,25,1991,9731,2672,5900,-170,1
5,26,3580,9786,3497,5915,-106,1
5,27,2470,9758,2414,5874,-219,1
5,29,4578,9528,4506,5806,-137,1
5,30,3402,9470,3385,5779,-92,1
5,31,4033,9442,4035,5785,-76,1
5,33,2310,9342,2314,5681,-120,1
5,34,2317,9257,2319,5621,-141,1
1,7,741,4852,710,4013,840,1
1,8,755,4861,722,3941,856,1
1,9,700,4887,669,3911,933,1
1,10,690,4898,658,3871,966,1
1,11,831,5006,792,3838,934,1
1,12,835,5138,796,3879,912,1
1,13,832,5325,792,3969,1005,1
1,14,936,5652,902,4046,698,1
2,2,944,5785,891,4280,896,1
2,3,940,5552,890,4507,658,1
2,4,939,5395,904,4409,778,1
2,5,872,5244,787,4249,864,1
2,6,840,5235,793,4118,964,1
2,7,830,5222,780,4037,1064,1
2,8,836,5277,792,4017,1083,1
2,9,934,5460,856,4066,908,1
2,10,936,5619,854,4117,856,1
2,18,1287,8769,1235,5097,512,0
2,19,1353,8807,1312,5100,326,0
2,20,1373,8806,1351,5108,453,0
2,21,1394,8870,1344,5113,477,0
2,22,1945,8919,1875,5136,402,0
2,23,1876,8926,1817,5073,387,0
2,24,1461,8940,1421,5094,341,0
2,25,1743,9016,1692,5096,366,0
2,26,2780,9029,2711,5075,470,0
2,27,2648,9025,2598,5078,457,0
2,28,2441,9012,2392,5079,469,0
2,29,2281,8994,2229,5051,497,0
2,30,2200,8984,2151,4978,587,0
2,31,2131,8941,2082,4971,444,0
2,32,2337,8946,2286,5047,491,0
2,33,1970,8809,1930,5033,355,0
3,4,871,5572,836,4502,736,1
3,5,833,5378,796,4325,895,1
3,6,829,5286,787,4182,960,1
3,7,828,5262,787,4086,934,1
3,8,827,5284,784,4063,997,1
3,9,830,5431,787,4081,929,1
3,10,883,5602,840,4133,899,1
4,3,860,5671,827,4485,702,1
4,4,830,5408,797,4395,757,1
4,5,801,5199,766,4249,930,1
4,6,716,5077,684,4113,934,1
4,7,772,5054,738,4020,887,1
4,8,746,5076,712,3960,928,1
4,9,830,5204,792,3946,978,1
4,10,835,5384,797,3979,1064,1
4,11,907,5782,863,4105,1094,1
5,2,895,5690,820,4091,977,1
5,3,909,5294,874,4266,728,1
5,4,851,5026,818,4133,739,1
5,5,828,4757,797,3938,747,1
5,6,765,4597,739,3774,709,1
5,7,687,4523,664,3655,821,1
5,8,690,4485,665,3585,878,1
5,9,525,4532,504,3569,1101,1
5,10,693,4574,660,3528,1032,1
5,11,713,4742,614,3499,1114,1
5,12,781,4955,499,3544,1114,1
5,13,806,5064,760,3630,1073,1
5,14,830,5314,792,3720,1090,1
5,15,830,5532,737,3622,1100,1
5,16,880,5691,842,3634,1060,1
5,17,922,5920,882,3682,1109,1
5,24,861,5831,829,3843,924,1
5,25,834,5715,784,3791,922,1
5,26,830,5611,788,3735,944,1
5,27,830,5579,797,3717,939,1
5,28,830,5564,797,3726,923,1
5,29,830,5566,799,3744,859,1
5,30,830,5592,799,3783,936,1
5,31,830,5597,799,3822,871,1
5,32,830,5615,799,3858,899,1
5,33,830,5577,798,3868,950,1
5,34,830,5590,798,3882,875,1
5,35,829,5516,795,3838,1002,1
5,36,828,5478,577,3771,989,1
5,37,824,5428,470,3685,1014,1
5,38,822,5427,657,3631,1054,1
5,39,830,5525,791,3610,1041,1
6,2,828,5127,793,3875,979,1
6,3,817,4886,787,4078,754,1
6,4,792,4690,761,3967,915,1
6,5,653,4560,625,3811,1034,1
6,6,624,4481,598,3693,1001,1
6,7,668,4449,640,3607,1007,1
6,8,528,4442,505,3551,1046,1
6,9,664,4486,634,3538,1058,1
6,10,652,4513,623,3522,1070,1
6,11,656,4593,459,3489,1114,1
6,12,700,4718,470,3468,1114,1
6,13,722,4843,470,3529,1114,1
6,14,787,5116,470,3588,1114,1
7,2,829,5331,797,3991,882,1
7,3,830,5066,803,4228,653,1
7,4,829,4882,799,4121,820,1
7,5,820,4744,788,3964,869,1
7,6,767,4666,734,3834,943,1
7,7,678,4611,650,3748,1005,1
7,8,673,4584,645,3666,1042,1
7,9,692,4640,662,3645,1018,1
7,10,690,4708,660,3622,1093,1
7,11,754,4824,719,3614,1070,1
7,12,826,4958,499,3625,914,1
7,13,824,5130,792,3717,850,1
7,14,850,5432,791,3798,814,1
7,15,905,5724,505,3788,814,1
7,27,830,5934,788,3933,1064,1
7,28,830,5862,783,3930,1064,1
7,29,830,5831,773,3922,1052,1
7,30,830,5830,775,3912,1064,1
7,31,838,5839,802,3961,961,1
7,32,871,5867,835,4013,902,1
7,33,846,5856,813,4053,871,1
7,46,854,5867,820,3971,902,1
7,48,842,5491,814,4200,744,1
1,1,836,5342,806,4136,797,1
1,2,824,5126,792,4049,836,1
1,3,830,4914,805,4279,593,1
1,4,814,4740,786,4168,738,1
1,5,707,4594,681,4025,855,1
1,6,700,4525,673,3894,858,1
1,7,709,4459,683,3764,827,1
1,8,538,4420,518,3519,888,1
1,9,748,4467,721,3650,801,1
1,10,750,4543,726,3585,837,1
1,11,673,4624,646,3542,1088,1
1,12,700,4730,522,3534,1083,1
1,13,740,4836,603,3474,1114,1
1,14,819,5086,784,3656,1024,1
1,15,829,5343,782,3642,1074,1
1,27,830,5851,796,3951,1006,1
1,28,837,5817,803,3973,964,1
1,29,830,5777,794,3976,1097,1
1,30,830,5800,781,4014,1062,1
1,31,830,5803,781,4049,1114,1
1,33,832,5832,799,4147,903,1
2,2,838,5255,815,3965,652,1
2,4,830,4890,811,4135,493,1
2,5,830,4753,809,3962,572,1
2,6,808,4676,785,3834,667,1
2,7,812,4634,779,3759,678,1
2,8,800,4684,778,3727,693,1
2,9,830,4795,806,3682,654,1
2,10,830,4912,806,3700,613,1
2,11,842,5197,816,3780,766,1
2,12,863,5501,839,3889,672,1
3,4,1189,5296,1200,4135,-265,1
3,5,1107,5075,1125,3953,-153,1
3,6,1021,4936,1019,3829,-33,1
3,7,1101,4863,1097,3730,-97,1
3,8,1065,4873,1060,3701,-48,1
3,9,1197,4968,1190,3687,-29,1
3,10,1197,5075,1188,3696,20,1
3,11,1129,5347,1120,3763,61,1
3,12,1138,5632,1130,3870,88,1
3,31,11326,7411,11312,4661,-128,0
3,32,13036,7421,13036,4743,-194,0
4,3,1063,5545,1068,4250,-256,1
4,4,1030,5308,1048,4154,-59,1
4,5,997,5092,1011,3973,117,1
4,6,991,4958,983,3828,225,1
4,7,937,4879,928,3744,274,1
4,8,955,4898,945,3705,235,1
4,9,964,4989,955,3720,266,1
4,10,964,5085,954,3751,234,1
4,11,992,5374,983,3849,274,1
4,12,962,5679,950,3953,346,1
5,3,1160,5636,1167,4367,548,1
5,4,1018,5332,1023,4232,678,1
5,5,981,5059,982,4038,600,1
5,6,1115,4889,1096,3857,400,1
5,7,906,4774,763,3703,863,1
5,8,734,4687,704,3685,1063,1
5,9,811,4702,764,3658,1113,1
5,10,787,4682,737,3649,1101,1
5,11,807,4724,733,3626,1113,1
5,12,823,4804,725,3600,1113,1
5,13,794,4870,712,3667,1113,1
5,14,830,5095,793,3667,1105,1
5,15,830,5299,758,3600,1113,1
5,16,830,5513,786,3635,1113,1
5,17,917,5857,684,3725,1113,1
6,1,905,5628,870,4231,772,1
6,2,832,5383,797,4101,866,1
6,3,831,5124,801,4331,611,1
6,4,827,4951,795,4214,775,1
6,5,771,4814,741,4051,787,1
6,6,693,4744,665,3896,868,1
6,7,736,4732,708,3826,762,1
6,8,700,4763,674,3808,824,1
6,9,783,4848,752,3808,831,1
6,10,809,4953,776,3845,884,1
6,11,826,5219,788,3907,986,1
6,12,830,5482,793,4018,874,1
6,13,827,5610,794,4175,731,1
7,3,945,5564,891,4374,658,1
7,4,931,5311,830,4257,713,1
7,5,830,5116,794,4063,865,1
7,6,824,4994,784,3929,988,1
7,7,823,4953,783,3810,992,1
7,8,817,4922,777,3768,988,1
7,9,793,4946,754,3749,1034,1
7,10,830,4995,790,3741,1061,1
7,11,830,5078,789,3743,1065,1
7,12,830,5240,641,3743,1112,1
7,13,847,5461,791,3797,1108,1
7,14,896,5783,853,3891,1085,1
7,48,949,5695,933,4227,327,1
1,1,934,5534,915,4116,437,1
1,2,867,5281,845,4001,446,1
1,3,932,5063,914,4224,249,1
1,4,863,4895,846,4105,303,1
1,5,829,4775,809,3948,503,1
1,6,821,4720,799,3812,572,1
1,7,781,4654,758,3704,635,1
1,8,797,4664,773,3649,721,1
2,25,1159,8418,1099,6349,-556,0
2,26,1170,8441,1121,6348,-488,0
2,27,1125,8487,1083,6359,-620,0
2,28,1132,8476,1091,6423,-616,0
2,29,1174,8513,1132,6452,-607,0
2,30,1182,8507,1141,6475,-627,0
2,31,1439,8538,1394,6479,-649,0
2,32,1453,8467,1412,6490,-654,0
2,33,1097,8325,1061,6423,-315,0
2,34,1008,8189,971,6282,-134,0
3,17,1090,8180,1034,5823,80,0
3,18,1095,8347,1047,5870,-9,0
3,19,1113,8372,1208,5957,-114,0
3,20,1133,8342,1090,6019,-147,0
3,21,1191,8463,1142,6062,-156,0
3,22,1221,8542,1171,6100,-154,0
3,23,1267,8568,1213,6119,-220,0
3,24,1240,8596,1185,6152,-147,0
3,25,1387,8673,1326,6259,-208,0
3,26,1427,8683,1364,6302,-232,0
3,27,1522,8727,1455,6340,-244,0
3,28,1359,8725,1300,6365,-260,0
3,29,1585,8711,1525,6424,-313,0
3,30,2420,8735,2342,6468,-380,0
3,31,1314,8708,1273,6405,-106,0
3,32,1268,8719,1216,6273,78,0
3,33,1206,8616,1157,6197,32,0
3,34,1085,8489,1045,6109,149,0
4,17,1201,8176,1133,5944,36,0
4,18,1233,8328,1169,5996,35,0
4,19,1216,8355,1155,6088,-35,0
4,20,1201,8321,1139,6161,42,0
4,21,1235,8372,1171,6203,-30,0
4,22,1301,8508,1237,6289,-45,0
4,23,1341,8590,1275,6321,-40,0
4,24,1375,8632,1306,6411,-120,0
4,25,1457,8751,1386,6499,-223,0
4,26,1391,8711,1328,6570,-304,0
4,27,1395,8696,1333,6611,-368,0
4,28,1373,8578,1315,6623,-327,0
4,29,1293,8492,1235,6682,-368,0
4,30,1376,8483,1317,6672,-350,0
4,31,1373,8461,1313,6656,-293,0
4,32,1370,8430,1306,6619,-234,0
4,33,1268,8259,1211,6523,-245,0
4,34,1242,8132,1190,6274,24,0
5,17,1195,8468,1049,5352,689,0
5,19,1152,8664,1058,5399,705,0
5,22,1335,8866,1450,5477,559,0
5,23,13084,8934,1189,5473,350,0
5,24,18157,8987,7119,5506,715,0
5,25,11890,9062,3423,5546,730,0
5,26,8201,9103,3354,5553,709,0
6,31,1028,7758,965,5854,191,0
6,32,1128,7750,1061,5880,134,0
3,17,1155,8441,1091,5384,318,0
3,18,1169,8606,1100,5385,385,0
3,19,1109,8623,1040,5427,346,0
3,20,1122,8651,1051,5467,360,0
3,21,1131,8687,1059,5476,383,0
3,22,1174,8802,1097,5525,396,0
3,23,1127,8872,1048,5462,494,0
3,24,1213,8983,1124,5523,441,0
3,25,1199,9021,1109,5579,394,0
3,26,1239,9050,1152,5633,319,0
3,27,1216,9058,1127,5607,390,0
3,28,1171,8951,1089,5665,384,0
3,29,1130,8888,1062,5685,421,0
3,30,1113,8797,1033,5691,387,0
3,31,1121,8730,1041,5690,404,0
3,32,1049,8709,960,5690,398,0
4,25,1007,8238,945,5877,185,0
4,26,1009,8219,947,5919,139,0
4,27,1005,8214,944,5950,160,0
4,28,1003,8157,945,5962,107,0
4,29,1007,8141,947,5983,75,0
4,30,1056,8118,995,6023,-337,0
4,31,1147,8117,1086,6014,-298,0
4,32,1157,8116,1095,6044,-343,0
4,33,1131,7979,1072,6033,-338,0
4,34,1155,7887,1098,5926,-319,0
4,35,1210,7640,1163,5722,-216,0
5,17,986,8125,912,5711,322,0
5,18,977,8269,907,5797,255,0
5,19,994,8298,926,5892,218,0
5,21,975,8330,902,6067,119,0
5,22,993,8384,921,6151,124,0
5,23,995,8417,925,6176,69,0
5,24,1002,8458,932,6236,29,0
5,25,1087,8561,1009,6366,-2,0
5,26,1148,8523,1067,6465,-130,0
5,27,1150,8583,1067,6525,-178,0
5,28,1093,8632,1012,6511,75,0
5,29,1183,8674,1098,6504,-26,0
5,30,1171,8730,1090,6482,-16,0
5,31,1164,8746,1080,6418,107,0
5,32,1149,8750,1063,6286,274,0
5,33,1009,8614,935,6066,407,0
5,34,1017,8562,945,5912,511,0
5,35,1065,8313,989,5670,557,0
6,17,1020,8625,928,5361,757,0
6,18,1010,8816,921,5416,741,0
6,19,1011,8938,926,5401,732,0
6,21,1008,9092,917,5488,784,0
6,22,1013,9192,921,5497,830,0
6,23,1018,9300,921,5494,759,0
6,24,1019,9362,920,5489,762,0
6,25,1069,9421,965,5518,818,0
6,26,1102,9437,993,5522,795,0
6,27,1117,9389,1006,5516,757,0
6,28,1086,9399,979,5477,797,0
6,29,1161,9325,1052,5439,795,0
6,30,1083,9307,985,5439,812,0
6,31,1011,9279,927,5395,777,0
6,32,1007,9241,925,5405,763,0
6,35,1014,8460,947,5192,768,0
3,32,1087,8309,1027,5723,131,0
4,17,1071,8203,998,5340,438,0
4,19,1031,8471,967,5365,361,0
4,20,1128,8496,1058,5379,409,0
4,21,1115,8558,1044,5418,376,0
4,22,1420,8656,1337,5423,285,0
4,23,1223,8703,1160,5403,345,0
4,24,1220,8805,1157,5371,380,0
4,25,1358,8945,1287,5405,340,0
4,26,1390,8990,1318,5417,298,0
4,27,1435,9032,1362,5447,313,0
4,28,4429,9033,4123,5450,511,0
4,29,2485,9012,2258,5394,528,0
4,30,5245,9132,4877,5387,567,0
4,31,2150,9174,1995,5386,508,0
4,32,1419,9169,1314,5384,586,0
4,33,1507,9080,1397,5372,502,0
4,34,1865,9019,1737,5314,494,0
4,35,3474,8747,3162,5271,694,0
4,36,1888,8591,1788,4979,680,0
6,17,960,8387,885,5406,610,0
6,18,955,8547,884,5439,562,0
6,19,947,8554,870,5480,527,0
6,20,957,8575,877,5513,472,0
6,21,958,8599,879,5526,477,0
6,22,982,8753,903,5553,550,0
6,23,979,8795,900,5505,552,0
6,24,966,8848,888,5520,524,0
6,25,978,8892,900,5507,526,0
6,26,979,8898,900,5500,499,0
6,27,967,8796,888,5512,489,0
6,28,957,8874,879,5504,494,0
6,29,982,8841,902,5463,449,0
6,30,1132,8923,1035,5455,473,0
6,31,1027,8993,945,5454,591,0
6,32,1020,9008,944,5453,517,0
6,33,968,8872,892,5404,460,0
6,34,1219,8675,1122,5373,621,0
6,35,1826,8322,1700,5226,507,0
2,17,1176,8607,1106,6149,93,0
2,20,1782,8828,1698,6380,-50,0
2,21,1564,8922,1524,6441,-169,0
2,22,1356,8996,1321,6421,-79,0
2,23,1413,9058,1375,6352,39,0
2,24,1838,9146,1782,6369,96,0
2,25,1964,9250,1903,6406,69,0
2,26,2020,9293,1949,6552,34,0
2,27,3502,9330,3388,6605,-102,0
2,28,3079,9336,2981,6618,-74,0
2,29,1699,9298,1641,6397,-70,0
3,24,7843,9633,7332,5718,797,0
4,27,12189,9350,11281,5899,491,0
4,31,5969,9517,5589,6016,456,0
5,31,8891,8933,8331,6011,287,0
4,28,4985,9044,4757,6690,-777,0
4,29,4905,9103,4698,6580,-766,0
4,30,4985,9242,4741,6722,-809,0
4,31,4985,9306,4704,6751,-869,0
4,32,4985,9379,4699,6754,-761,0
4,33,4985,9258,4755,6712,-734,0
5,26,7596,9599,7134,6867,-587,0
5,27,15592,9674,14683,6981,-649,0
5,28,6414,9666,6039,7020,-596,0
5,29,9858,9687,9216,7056,-654,0
5,36,9604,9233,9180,6744,-186,0
5,31,1097,8758,10142,7174,-748,0
7,41,980,6770,368,4555,858,1
7,42,960,6615,396,4474,823,1
7,43,999,6648,577,4393,872,1
7,44,976,6665,366,4295,823,1
7,45,960,6676,370,4291,923,1
7,46,950,6518,394,4284,873,1
7,47,957,6383,672,4515,773,1
7,48,940,6067,405,4506,773,1
2,11,934,6289,680,4565,947,1
2,14,1028,7421,940,5524,320,0
2,15,960,7606,878,5387,501,0
2,16,972,7720,885,5325,456,0
2,17,1124,8090,1032,5367,665,0
2,18,1160,8228,1066,5367,657,0
2,19,1302,8233,1196,5372,667,0
2,20,1192,8190,1096,5356,651,0
2,21,1278,8179,1178,5399,615,0
2,22,1032,8184,949,5271,663,0
2,23,1030,8151,936,5113,736,0
2,24,1086,8229,964,5238,758,0
2,25,1062,8267,971,5425,687,0
2,26,1104,8242,1011,5405,701,0
2,27,1028,8222,941,5412,608,0
2,28,1013,8042,927,5415,488,0
2,29,1006,8108,873,5351,555,0
2,30,1007,8147,906,5339,533,0
2,31,1032,8148,941,5370,581,0
2,32,1029,8165,941,5417,554,0
3,1,920,6672,405,4684,670,1
3,2,938,6300,405,4589,670,1
3,3,849,5940,650,4831,670,1
3,14,999,7573,935,5726,202,0
3,17,1032,8169,953,5508,595,0
3,18,1034,8237,953,5500,622,0
3,19,1036,8224,953,5488,612,0
3,20,1032,8173,953,5527,542,0
3,21,1032,8136,953,5544,568,0
3,22,1026,8209,953,5575,568,0
3,23,1031,8160,953,5501,481,0
3,24,1031,8175,953,5495,500,0
3,25,1030,8208,953,5537,491,0
3,26,1027,8184,953,5588,519,0
3,27,1026,8218,953,5569,549,0
3,28,1027,8178,953,5590,496,0
3,29,1031,8126,953,5543,457,0
3,30,1033,8146,953,5546,440,0
3,31,1032,8108,953,5551,445,0
3,32,1028,8175,953,5582,472,0
3,33,996,8063,919,5534,418,0
3,34,962,7942,871,5492,505,0
3,35,952,7723,543,5304,505,0
4,2,938,6420,780,4627,861,1
4,3,939,6021,849,4817,733,1
4,14,976,7535,904,5668,332,0
4,17,1054,8144,975,5426,360,0
4,18,1091,8254,1010,5406,360,0
4,19,1083,8274,1007,5407,360,0
4,20,1151,8200,1063,5481,370,0
4,21,1159,8125,1063,5501,347,0
4,22,1157,8233,1076,5516,536,0
4,23,1121,8249,1043,5481,632,0
4,24,1159,8280,1073,5490,602,0
4,25,1151,8280,1066,5546,617,0
4,26,1132,8268,1052,5573,619,0
4,27,1142,8304,1061,5581,623,0
4,28,1153,8296,1070,5575,593,0
4,29,1136,8269,1061,5541,634,0
4,30,1156,8283,1072,5534,621,0
4,31,1160,8328,1076,5546,564,0
4,32,1151,8344,1067,5559,577,0
4,33,1088,8193,1008,5518,610,0
4,34,1029,8035,945,5463,556,0
5,1,937,6622,547,4679,905,1
5,2,937,6256,484,4593,855,1
5,3,937,5910,832,4811,805,1
5,18,1021,8112,944,5485,552,0
5,19,1023,8119,944,5468,549,0
5,20,1019,8089,944,5549,511,0
5,21,1105,8104,1041,5540,309,0
5,22,1057,8124,1004,5568,282,0
5,23,1053,8120,1001,5560,313,0
5,24,1042,8083,993,5613,266,0
5,25,1086,8189,1053,5652,146,0
5,26,1109,8220,1068,5731,78,0
5,27,1046,8247,1009,5736,131,0
5,30,1022,8237,982,5712,228,0
5,31,1039,8265,994,5732,309,0
5,32,993,8260,946,5725,277,0
6,1,834,6665,769,4738,904,1
6,2,789,6271,483,4638,904,1
6,3,820,5921,593,4853,604,1
6,11,916,6382,733,4748,575,1
6,14,959,7498,911,5649,55,0
6,15,948,7611,902,5469,189,0
6,16,953,7743,911,5412,169,0
6,17,959,8111,916,5425,16,0
6,18,960,8253,919,5434,-49,0
6,19,1001,8304,945,5466,-97,0
6,20,982,8321,956,5575,-2,0
6,21,1018,8363,997,5646,-34,0
6,22,1123,8448,1102,5705,-34,0
6,23,1123,8484,1100,5701,-51,0
6,24,1131,8528,1108,5752,-106,0
6,25,1402,8569,1375,5805,-104,0
6,26,1266,8621,1241,5828,-71,0
6,27,1288,8668,1267,5869,-86,0
6,28,1285,8603,1264,5879,-139,0
6,29,1331,8612,1314,5898,-141,0
6,30,1328,8702,1304,5878,-99,0
6,31,1583,8751,1549,5923,-94,0
6,32,1497,8785,1463,5977,-68,0
6,33,1193,8593,1169,5937,-37,0
6,34,1037,8392,1014,5873,-139,0
7,1,955,6679,879,4644,525,1
7,2,953,6252,876,4526,545,1
7,3,953,5863,884,4726,432,1
7,13,942,5949,763,4483,767,1
7,14,943,6245,433,4579,604,1
7,15,959,6715,763,4576,604,1
7,23,1286,7745,1146,4842,669,0
7,42,949,6790,396,4555,604,1
7,43,957,6893,531,4470,604,1
7,44,952,6824,405,4400,604,1
7,45,952,6838,398,4338,604,1
7,46,942,6662,404,4324,704,1
7,47,939,6396,857,4581,596,1
7,48,939,6128,836,4552,704,1
1,1,939,5905,866,4422,776,1
1,16,939,6253,413,4184,619,1
1,17,939,6560,428,4313,819,1
1,18,939,6782,534,4429,769,1
1,19,943,6883,517,4543,719,1
1,29,1246,7524,1151,5258,528,0
1,30,1321,7579,1222,5301,484,0
1,31,1415,7604,1312,5375,444,0
1,32,1415,7676,1319,5451,370,0
1,33,1393,7664,1302,5465,333,0
1,34,1407,7685,1317,5471,318,0
1,35,1487,7807,1386,5441,397,0
1,36,1398,7780,1298,5308,573,0
1,37,1408,7921,1295,5199,583,0
1,38,1445,8094,1324,5176,620,0
1,39,1387,7993,1276,5159,623,0
1,40,1282,7859,1173,5030,780,0
1,45,957,6934,617,4394,854,1
1,46,939,6696,756,4386,862,1
1,47,950,6562,854,4593,799,1
1,48,936,6253,852,4591,872,1
2,1,879,6098,805,4453,952,1
2,10,927,5932,856,4422,892,1
2,11,987,6474,900,4658,695,1
2,14,1095,7713,1045,5600,198,0
2,17,1154,8619,1114,5440,223,0
2,18,1181,8755,1139,5659,151,0
2,19,1345,8921,1298,5723,108,0
2,20,1408,8923,1364,5781,15,0
2,21,1632,9042,1584,5815,16,0
2,22,1900,9210,1843,5862,84,0
2,23,1823,9335,1756,5821,139,0
2,24,2027,9414,1956,5807,91,0
2,25,2112,9537,2034,5838,154,0
2,26,2178,9593,2086,5808,195,0
2,27,1970,9615,1891,5800,123,0
2,28,1898,9628,1822,5730,148,0
2,29,2214,9670,2135,5648,155,0
2,30,2042,9718,1965,5591,167,0
2,33,2604,9612,2522,5636,34,0
2,34,2193,9438,2140,5601,-132,0
2,35,1397,9090,1371,5424,31,0
3,1,947,6776,871,4629,686,1
3,2,938,6392,715,4529,804,1
3,3,954,6078,654,4743,604,1
3,10,981,6041,634,4486,765,1
3,11,1011,6594,773,4712,721,1
4,1,953,6721,888,4622,419,1
4,2,953,6315,891,4540,253,1
4,3,958,5983,909,4718,13,1
4,10,973,5874,879,4473,478,1
4,13,1123,7361,1083,5393,-148,0
4,14,1160,7753,1145,5660,-269,0
4,15,1090,7802,1069,5493,-71,0
4,16,992,7887,969,5411,-47,0
4,17,1161,8052,1137,5440,-15,0
4,18,1300,8121,1274,5403,-47,0
4,19,1175,8026,1159,5390,-82,0
4,20,1143,7995,1127,5374,32,0
4,21,1141,8019,1146,5373,17,0
4,22,1131,7992,1145,5383,31,0
4,25,1002,7998,991,5365,-62,0
5,1,989,6710,938,4602,275,1
5,2,960,6352,903,4515,257,1
5,3,983,5971,933,4740,83,1
5,11,980,6368,863,4707,385,1
5,13,1179,7247,1134,5412,-99,0
5,14,1247,7634,1220,5682,-207,0
5,15,1028,7745,1007,5513,-156,0
5,18,1128,7971,1164,5436,-88,0
5,19,1171,8060,1158,5427,-145,0
5,20,1184,8018,1176,5406,-186,0
5,21,1077,7940,1068,5417,-39,0
5,23,1173,8009,1153,5413,69,0
5,24,1114,7955,1096,5447,118,0
5,25,1010,7929,987,5451,145,0
5,30,1019,7801,994,5433,256,0
5,31,1117,7815,1088,5458,213,0
5,32,1152,7814,1122,5413,205,0
6,13,1307,7324,1263,5352,-170,0
6,14,1332,7621,1316,5649,-310,0
6,15,1173,7737,1162,5444,-140,0
6,16,1160,7819,1151,5399,-95,0
6,17,1243,7980,1233,5385,-152,0
6,18,1215,8030,1207,5370,-144,0
6,19,1241,8077,1230,5395,-201,0
6,20,1249,8074,1237,5433,-228,0
6,21,1239,8069,1230,5419,-199,0
6,22,1245,8055,1236,5406,-244,0
6,23,1232,8007,1224,5386,-201,0
6,24,1231,7986,1236,5419,-242,0
6,25,1226,7925,1235,5445,-309,0
6,26,1226,7974,1236,5446,-198,0
6,27,1227,7959,1240,5453,-274,0
6,28,1197,7902,1210,5423,-392,0
6,29,1160,7852,1172,5405,-231,0
6,30,1160,7807,1168,5334,-179,0
6,31,1160,7804,1165,5357,-97,0
6,32,1160,7849,1160,5335,-92,0
6,42,903,6651,879,4690,276,1
7,40,1154,6821,1112,4478,262,1
7,41,1055,6612,1010,4401,308,1
7,42,995,6430,949,4321,290,1
7,43,1105,6532,1052,4249,475,1
7,44,984,6508,931,4179,460,1
7,45,1051,6528,991,4156,444,1
7,46,998,6380,942,4148,264,1
7,47,1124,6342,1077,4378,182,1
7,48,988,6137,950,4357,204,1
1,1,1021,6002,981,4286,149,1
1,16,1100,6090,1036,3854,483,1
1,28,1004,6537,956,4125,332,1
1,29,998,6512,949,4100,359,1
1,30,968,6458,920,4100,321,1
1,31,960,6400,913,4106,330,1
1,32,980,6435,935,4113,295,1
1,33,997,6431,956,4152,271,1
2,12,1091,5951,1028,4199,236,1
2,16,1252,7621,1254,5157,-497,0
2,17,1331,7851,1351,5227,-477,0
2,18,1286,7968,1300,5237,-469,0
2,19,1685,8091,1706,5289,-539,0
2,20,1520,8154,1538,5288,-521,0
2,21,1577,8228,1602,5315,-534,0
2,22,1913,8214,1953,5353,-532,0
2,23,1885,8222,1932,5363,-548,0
2,24,1884,8197,1932,5378,-557,0
2,25,1961,8189,2015,5314,-530,0
2,26,1728,8194,1767,5340,-573,0
2,27,1872,8215,1919,5364,-561,0
2,28,1872,8202,1920,5369,-557,0
2,29,2003,8177,2088,5392,-547,0
2,30,1954,8137,1999,5338,-501,0
2,33,1435,8074,1463,5265,-504,0
2,34,1470,8101,1500,5283,-515,0
2,35,1424,8043,1453,5306,-538,0
2,36,1670,8105,1709,5336,-479,0
2,37,2004,8312,2037,5312,-422,0
2,38,2138,8258,2178,5367,-492,0
2,39,1622,7983,1674,5282,-641,0
2,47,1576,7471,1547,4835,-199,0
2,48,1629,7427,1590,4787,-67,0
3,4,1348,6270,1299,4671,-33,1
3,5,1258,5973,1206,4521,95,1
3,6,1140,5731,1087,4385,178,1
3,12,1099,6103,1023,4290,487,1
3,13,1215,6677,1140,4548,331,1
3,19,1725,8263,1736,5376,-420,0
3,20,1699,8356,1711,5385,-407,0
3,21,1667,8418,1678,5401,-416,0
3,22,1698,8439,1711,5430,-419,0
3,23,1502,8472,1516,5418,-424,0
3,28,1595,8549,1604,5386,-321,0
3,29,1541,8493,1547,5390,-356,0
3,30,1399,8397,1409,5344,-379,0
3,37,1655,8469,1651,5487,-350,0
4,4,1235,6282,1172,4770,236,1
4,5,1156,5951,1091,4642,248,1
4,12,1183,5948,1102,4381,524,1
5,5,1202,5954,1150,4623,95,1
5,6,1193,5735,1136,4484,159,1
6,6,1363,5673,1301,4492,304,1
6,12,1337,5921,1265,4327,246,1
7,14,1338,5763,1283,4070,291,1
7,15,1336,6074,1271,4096,285,1
7,16,1480,6520,1410,4229,260,1
7,29,1390,6769,1346,4445,127,1
7,30,1349,6712,1301,4388,221,1
7,31,1288,6671,1233,4366,351,1
7,32,1285,6653,1221,4355,358,1
7,33,1257,6664,1194,4349,339,1
7,34,1284,6716,1224,4430,338,1
7,35,1180,6673,1118,4454,437,1
7,41,1348,6755,1274,4618,360,1
7,42,1334,6639,1256,4575,390,1
7,43,1393,6509,1311,4488,415,1
7,44,1295,6369,1216,4414,457,1
7,45,1319,6545,1235,4411,480,1
7,46,1308,6546,1224,4385,376,1
7,47,1380,6573,1304,4615,203,1
7,48,1321,6403,1252,4593,266,1
1,1,1271,6253,1205,4478,371,1
1,2,1195,6002,1131,4371,398,1
1,3,1227,5774,1169,4561,228,1
1,17,1001,6086,818,4035,885,1
1,18,1091,6401,991,4116,811,1
1,19,1145,6634,859,4192,816,1
1,20,1149,6699,838,4225,729,1
1,21,1148,6765,1031,4283,759,1
1,22,1165,6736,1050,4287,729,1
1,23,1123,6693,723,4303,752,1
1,24,1126,6738,615,4311,750,1
1,25,1111,6731,401,4345,750,1
1,35,1140,6616,1054,4366,659,1
1,36,1136,6898,1053,4487,725,1
2,2,992,5933,913,4344,692,1
3,3,1284,6601,1211,4844,296,1
3,4,1261,6308,1187,4773,372,1
3,5,1186,5978,1112,4624,517,1
3,6,1175,5720,1096,4505,480,1
3,12,1061,5905,989,4352,459,1
3,13,1243,6457,1170,4625,297,1
4,3,1340,6609,1273,4816,242,1
4,4,1232,6310,1165,4726,345,1
7,45,1885,7348,1785,4677,488,1
7,47,2033,7276,1939,4893,281,1
3,1,1835,7659,1759,4874,332,1
3,3,1755,7316,1690,4988,136,1
7,38,2379,7761,2269,5180,444,1
7,41,2478,7032,2361,4819,606,1
7,42,2164,6889,2047,4738,544,1
1,34,2712,6856,2538,4621,803,1
1,47,2350,6860,1688,4704,659,1
6,35,1860,8350,1928,6118,-628,1
6,46,1761,7751,1701,4987,338,1
7,39,2002,7886,1959,5228,176,1
7,43,2129,7218,2011,4839,741,1
7,45,2040,7164,1927,4750,639,1
7,46,1906,7214,1801,4729,596,1
7,48,2029,6997,1929,4900,565,1
1,43,3476,7592,3234,4881,924,1
1,44,2082,7280,1936,4770,830,1
1,45,3060,7328,2290,4693,902,1
1,46,2649,7233,1826,4663,856,1
2,1,2839,6814,2649,4730,821,1
2,3,3599,6436,3389,4907,531,1
2,12,2768,6120,2594,4548,622,1
2,13,3296,6831,3126,4785,594,1
2,15,1873,7871,1844,5345,73,1
2,16,3610,8413,3607,5676,20,1
2,17,2997,8462,3003,5801,-119,1
2,18,2485,8371,2502,5788,-262,1
2,19,1779,8404,1800,5881,-331,1
2,43,1753,8118,1732,5320,186,1
2,48,2243,7878,2162,5140,444,1
3,2,2165,7746,2072,5008,403,1
3,4,1865,7123,1789,5154,355,1
3,19,1989,8601,1935,6002,-369,1
3,38,2122,9166,2130,5997,-305,1
3,39,1779,8929,1790,5824,-185,1
3,40,1730,8760,1745,5694,-197,1
3,46,1604,8104,1562,4991,341,1
4,20,2558,8471,2493,5886,-112,1
4,22,1912,8193,1878,5809,-210,1
4,34,2534,8221,2482,5617,-35,1
4,38,2624,9123,2529,5904,38,1
4,39,2326,8891,2248,5747,13,1
4,40,2121,8709,2058,5642,2,1
4,42,2033,8409,2004,5409,46,1
4,43,1777,8139,1749,5283,133,1
4,47,2757,8053,2683,5193,393,1
4,48,2953,7967,2838,5156,472,1
5,1,2794,7894,2669,5029,603,1
5,2,2081,7814,1973,4959,612,1
5,13,2607,7033,2467,4945,556,1
5,17,2416,8722,2335,5785,75,1
5,18,2289,8531,2217,5758,-8,1
5,19,1836,8483,1783,5804,-82,1
5,34,1798,7947,1783,5624,-159,1
5,38,2561,8936,2490,5874,-57,1
5,39,2285,8770,2217,5735,-39,1
5,40,2262,8627,2207,5600,-27,1
5,42,2238,8416,2222,5366,100,1
5,44,2478,7838,2443,5093,170,1
5,46,2417,8021,2243,4880,287,1
5,48,2672,7882,2611,5049,466,1
6,1,2140,7855,2060,4959,471,1
6,2,2232,7757,1950,4834,629,1
6,4,2583,7169,2477,4979,510,1
6,15,1799,8174,1760,5305,255,1
6,17,1848,8788,1810,5601,141,1
6,18,2172,8653,2147,5622,-14,1
6,19,1781,8628,1772,5627,-127,1
6,39,948,8194,942,5376,13,1
6,40,929,8022,921,5310,81,1
6,41,900,7815,900,5216,96,1
6,42,890,7602,886,5086,176,1
6,43,874,7451,865,4978,124,1
6,45,894,7570,888,4807,281,1
6,46,894,7648,882,4750,327,1
6,47,968,7715,939,5059,237,0
6,48,992,7666,954,5013,390,0
7,1,1015,7584,934,4885,430,0
7,2,990,7454,898,4766,450,0
7,3,1037,7226,934,4957,310,0
7,4,997,6800,887,4856,280,0
7,5,983,6422,705,4684,320,0
7,6,1062,6050,690,4558,340,0
7,7,1118,5777,686,4421,380,0
7,8,968,5524,405,4358,450,0
7,14,945,5939,426,4214,700,0
7,15,1035,6268,591,4275,588,0
7,16,1097,6825,873,4398,468,0
7,17,1272,7279,967,4576,418,0
7,18,1152,7591,967,4693,354,0
7,19,1352,7776,967,4817,358,0
7,20,1926,7768,967,4871,368,0
7,21,1027,7622,967,4896,339,0
7,22,1030,7475,967,4882,321,0
7,23,1045,7279,925,4896,400,0
7,35,1131,7566,1094,5280,187,0
7,36,1341,8000,1317,5417,126,0
7,37,1282,7949,1258,5416,207,0
7,38,979,7780,953,5277,303,1
7,39,966,7545,934,5159,364,1
1,19,971,7150,856,4441,605,0
1,20,969,7284,868,4515,595,0
1,21,973,7273,856,4547,565,0
1,22,964,7191,858,4545,630,0
1,23,973,7104,854,4590,620,0
1,24,986,7006,878,4590,600,0
1,25,988,6974,894,4589,610,0
1,26,1081,6879,967,4619,624,0
1,27,992,6774,914,4697,600,0
1,28,990,6713,902,4695,610,0
1,29,1050,6690,914,4652,620,0
1,30,1005,6665,915,4644,661,0
1,31,1117,6706,949,4633,652,0
1,32,1165,6824,949,4650,648,0
1,33,1158,7049,931,4646,658,0
1,34,2281,7482,1852,4744,611,0
1,35,2098,7951,1900,5043,388,0
1,36,1878,8347,1833,5271,336,0
1,37,1527,8442,1491,5319,403,0
1,38,1602,8236,1311,5205,488,0
1,39,1299,8061,972,5111,498,0
1,40,1515,7898,956,5040,470,0
1,41,1138,7756,967,4942,548,0
1,42,1507,7633,931,4879,500,0
1,43,1213,7401,967,4767,558,0
1,45,1135,7301,947,4642,603,0
1,47,1524,7176,981,4855,605,0
2,20,964,7695,883,4575,750,1
2,21,1250,7751,967,4584,753,0
2,22,1272,7610,967,4570,758,0
2,23,1751,7510,967,4557,756,0
2,24,2140,7392,967,4546,658,0
2,25,2334,7306,967,4592,558,0
2,26,4106,7198,967,4588,458,0
2,28,1750,6945,967,4593,658,0
2,29,1293,6871,967,4538,658,0
2,30,1430,6853,967,4496,658,0
2,31,1680,6895,967,4483,658,0
2,32,1500,6979,967,4508,658,0
2,34,1561,7547,1316,4749,626,0
2,35,2478,8237,2375,5116,445,0
2,38,2707,8580,2617,5320,521,0
2,39,3054,8366,2923,5225,577,0
2,40,2283,8155,2170,5145,560,0
2,41,2225,8058,2106,5078,663,0
2,42,1843,7872,1733,4999,607,0
2,43,1680,7653,1129,4907,714,0
3,14,1035,7561,1001,5224,190,1
3,15,1062,7922,1051,5462,-52,1
3,16,1211,8504,1217,5778,-173,1
3,17,975,8613,982,5913,-263,1
3,18,1224,8542,1230,5956,-274,1
3,19,1037,8585,1040,5988,-288,1
3,20,973,8522,967,5906,-298,1
3,21,974,8477,967,5833,-219,1
3,22,1009,8373,1004,5811,-188,1
3,23,1049,8292,1050,5727,-156,1
3,24,971,8206,978,5679,-105,1
3,25,1044,8161,1047,5598,-114,1
3,26,970,8102,978,5584,-145,1
3,27,968,8072,975,5629,-83,1
3,28,966,8009,975,5620,-108,1
3,29,962,7964,971,5531,-29,1
3,30,941,7834,950,5503,-112,1
3,31,906,7893,915,5443,-102,1
3,32,938,8031,954,5472,-81,1
3,33,997,8269,1011,5530,-89,1
3,34,1218,8666,1228,5697,-138,1
3,35,1547,9272,1572,6016,-203,0
3,37,1341,9555,1334,6257,-304,0
3,38,1229,9338,1219,6051,-193,0
3,39,1170,9078,1160,5876,-155,1
3,40,1184,8892,1178,5786,-124,0
3,41,1177,8766,1172,5660,-70,0
3,42,1166,8591,1161,5560,-92,0
3,43,1124,8299,1121,5424,-58,0
3,44,939,7997,946,5289,29,1
3,45,1124,8112,1114,5153,337,0
3,46,1024,8046,999,5052,197,1
3,47,1704,8004,1667,5246,242,0
3,48,1615,8020,1347,5193,322,0
4,1,1684,7911,1630,5140,349,0
4,2,1358,7753,1149,5067,430,0
4,3,2100,7529,1698,5308,201,0
4,4,1536,7192,1309,5248,272,0
4,5,1261,6772,1207,5122,360,0
4,6,1563,6440,1248,5020,394,0
4,7,1207,6091,1145,4910,481,0
4,11,1518,5869,1422,4761,595,0
4,13,2177,6881,2093,5125,187,0
4,14,2083,7642,2056,5449,-120,0
4,15,1186,8031,1201,5660,-404,1
4,16,1313,8566,1338,5919,-443,0
4,17,1341,8693,1363,6103,-360,0
4,18,1341,8519,1358,6112,-413,0
4,19,1071,8489,1085,6144,-472,1
4,20,1146,8446,1154,6061,-468,1
4,21,1045,8376,1055,5985,-438,1
4,22,1031,8207,1049,5917,-480,1
4,23,1063,8144,1087,5852,-462,1
4,24,997,8083,1018,5785,-368,1
4,25,964,7989,986,5696,-313,1
4,26,956,7925,982,5655,-311,1
4,27,955,7871,984,5732,-369,1
4,28,947,7837,976,5717,-408,1
4,29,918,7795,943,5669,-404,1
4,30,907,7740,936,5637,-416,1
4,31,907,7743,935,5573,-359,1
4,32,932,7890,961,5559,-279,1
4,33,988,8145,1015,5590,-287,1
4,34,1187,8522,1214,5736,-321,1
4,35,2064,9092,2094,6058,-309,0
4,36,2227,9497,2239,6377,-323,0
4,37,1341,9415,1337,6323,-339,0
4,38,1288,9237,1284,6113,-267,0
4,39,1218,9020,1216,5939,-239,1
4,40,1108,8825,1109,5786,-186,1
4,41,1143,8699,1149,5712,-157,1
4,42,1124,8513,1129,5602,-144,1
4,43,1159,8224,1165,5477,-63,1
4,44,953,7904,959,5323,-77,1
4,45,1086,8009,1080,5191,237,1
4,46,1076,7971,1055,5108,136,1
4,47,1461,7927,1438,5307,206,0
4,48,1540,7859,1502,5280,290,0
5,1,2374,7870,2164,5216,422,0
5,2,1840,7769,1363,5141,410,0
5,3,2122,7555,1808,5356,191,0
5,4,2059,7224,1496,5291,178,0
5,5,2123,6813,1066,5130,231,0
5,6,2492,6461,967,4985,244,0
5,7,1630,6119,967,4825,288,0
5,13,2020,6934,1930,5023,379,0
5,14,1968,7641,1927,5338,90,0
5,15,1184,8001,1188,5532,-287,1
5,16,1341,8559,1366,5828,-386,0
5,17,1317,8614,1335,5937,-309,1
5,18,1341,8488,1355,5962,-392,0
5,19,1189,8497,1200,5963,-375,1
5,20,1081,8385,1084,5902,-344,1
5,21,1117,8295,1118,5830,-301,1
5,22,1159,8150,1162,5805,-368,1
5,23,1155,8065,1171,5800,-390,1
5,24,1039,7998,1060,5767,-471,1
5,25,1131,7939,1153,5678,-376,1
5,26,997,7838,1019,5663,-447,1
5,27,1069,7855,1092,5761,-507,1
5,28,1003,7835,1026,5738,-463,1
5,29,976,7768,1000,5746,-525,1
5,30,967,7717,973,5550,-412,1
5,31,973,7648,988,5671,-412,1
5,32,1132,7790,1157,5714,-419,1
5,33,1269,8006,1301,5748,-348,1
5,34,1184,8352,1214,5861,-415,1
5,35,1767,8920,1808,6154,-409,0
5,36,1478,9311,1497,6316,-507,0
5,37,1132,9224,1131,6222,-386,1
5,38,1075,9072,2307,6003,-607,1
5,39,1192,8859,1197,5865,-359,1
5,40,1187,8656,1195,5743,-290,1
5,41,1177,8493,1183,5609,-231,1
5,42,1094,8357,1101,5482,-92,1
5,43,976,8019,983,5321,29,1
5,44,891,7700,896,5177,36,1
5,45,979,7890,975,5070,199,1
5,46,972,7907,955,4919,172,1
5,47,1202,7868,1179,5145,227,1
5,48,1263,7845,1230,5051,248,1
6,1,1732,7810,1684,4954,298,0
6,2,1155,7643,1115,4830,427,1
6,3,1423,7514,1377,5084,217,0
6,6,1770,6423,967,4719,394,0
6,7,1587,6117,967,4606,371,0
6,8,1435,5853,967,4510,394,0
6,13,2197,6859,1754,4771,523,0
6,14,1838,7573,1766,5069,273,0
6,15,1137,7894,1122,5307,-80,1
6,16,1341,8430,1350,5637,-185,0
6,17,1195,8507,1201,5785,-289,1
6,18,1302,8412,1312,5832,-365,0
6,19,965,8466,980,5856,-397,1
6,20,964,8375,984,5796,-373,1
6,21,964,8263,982,5743,-352,1
6,22,1297,8201,1309,5731,-298,0
6,23,1341,8171,1355,5758,-371,0
6,24,1341,8142,1361,5699,-256,0
6,25,1341,8080,1360,5615,-259,0
6,26,1176,7991,1192,5587,-326,1
6,27,964,7865,985,5619,-353,1
6,28,964,7815,988,5588,-293,1
6,29,945,7731,967,5404,-198,1
6,30,927,7647,951,5461,-320,1
6,31,915,7583,942,5498,-391,1
6,32,919,7607,947,5455,-314,1
6,33,937,7749,966,5481,-291,1
6,34,997,8010,1028,5599,-345,1
6,35,1092,8546,1111,5807,-433,1
6,36,1166,8903,1174,6035,-419,1
6,37,976,8795,969,5962,-443,1
6,38,977,8627,968,5813,-487,1
6,39,972,8395,962,5652,-477,1
6,40,964,8225,961,5543,-181,1
6,41,959,8150,981,5418,-78,1
6,42,959,8018,978,5277,-97,1
6,43,911,7810,922,5133,12,1
6,44,885,7552,889,5031,62,1
6,45,948,7848,954,4971,214,1
6,46,964,7976,962,4950,92,1
6,47,1669,8002,1656,5240,97,0
6,48,1569,7936,1537,5157,319,0
7,1,1484,7803,1442,5057,430,0
7,2,1437,7671,1379,4935,489,0
7,3,1804,7442,1746,5167,272,0
7,4,1391,7053,1343,5082,312,0
7,5,1321,6583,1266,4968,354,0
7,15,1229,6439,897,4530,708,0
7,16,3270,7092,2328,4581,487,0
7,17,2813,7574,1985,4785,537,0
7,18,2854,7899,2200,4944,511,0
7,19,3286,8119,3040,5047,538,0
7,20,2611,8100,2398,5063,568,0
7,21,2420,7961,1819,5046,472,0
7,22,1947,7780,1666,4996,568,0
7,23,2557,7603,2053,4943,588,0
7,24,3376,7465,3009,4895,507,0
7,25,3192,7317,1988,4830,498,0
7,26,3041,7201,1783,4825,558,0
7,27,2762,7071,1775,4878,540,0
7,28,2849,6975,1102,4836,558,0
7,29,3080,6891,1307,4784,568,0
7,30,3128,6861,1988,4703,558,0
7,31,2270,6861,967,4686,568,0
7,33,2160,7183,967,4708,548,0
7,34,2140,7735,1520,4890,616,0
7,39,2888,8119,2778,5255,470,0
7,40,1848,7886,1732,5109,480,1
7,41,1425,7711,1366,5050,485,1
7,42,1139,7580,1087,4968,468,1
7,43,3492,7435,3251,4851,504,0
7,45,2377,7332,1628,4757,608,0
7,47,1876,7352,1790,4999,406,1
1,35,1799,7759,1756,4976,188,0
1,36,2300,8317,2256,5286,136,0
1,37,2663,8487,2616,5337,275,0
1,38,3142,8396,3055,5262,381,0
1,40,3034,8164,2915,5078,532,0
1,41,2815,7960,2246,4996,608,0
1,42,3098,7879,2123,4954,533,0
1,44,3242,7358,1102,4719,632,0
1,45,3181,7412,967,4629,608,0
1,46,2346,7362,949,4593,570,0
2,13,2395,6938,2264,4847,528,0
2,14,3108,7759,2996,5163,289,0
2,15,1101,8150,1092,5395,-120,1
2,16,1310,8796,1315,5734,-238,1
2,17,1291,8977,1292,5836,-212,1
2,18,1280,8844,1280,5812,-252,1
2,19,970,8883,970,5861,-327,1
2,20,977,8827,966,5828,-459,1
2,21,980,8730,967,5760,-349,1
2,22,972,8604,964,5720,-414,1
2,23,1281,8559,1297,5670,-559,1
2,37,1341,9924,1282,6305,-28,1
2,38,1210,9722,1140,6074,106,1
2,39,1114,9423,1052,5939,-106,1
2,40,1021,9183,963,5790,-108,1
2,41,1333,9052,1275,5698,110,1
2,42,1311,8838,1263,5559,186,1
2,43,1254,8518,1212,5443,100,1
2,44,967,8086,941,5287,146,1
2,45,999,8169,961,5153,362,1
2,46,975,8148,926,5027,234,1
2,47,1012,8145,968,5274,263,1
2,48,1003,7980,953,5229,231,1
3,1,2273,7980,2169,5197,433,0
3,2,1683,7873,1612,5089,443,0
3,3,1940,7671,1874,5323,250,0
3,4,2235,7352,2152,5270,292,0
3,5,2444,6931,2332,5158,405,0
3,6,1960,6593,1580,5026,448,0
3,13,1648,7133,1569,5087,368,0
3,14,2658,7942,2584,5418,93,0
3,15,1193,8407,1201,5637,-252,1
3,16,1368,8983,1393,5962,-299,0
3,17,1341,9097,1358,6057,-315,1
3,18,1341,9006,1357,6069,-353,1
3,19,1273,8985,1271,6097,-391,1
3,20,1167,8866,1175,6130,-445,1
3,21,1085,8696,1094,6035,-442,1
3,22,1203,8630,1217,6045,-454,1
3,23,1281,8499,1298,6014,-390,1
3,24,1256,8438,1274,5999,-418,1
3,25,1224,8287,1244,5929,-440,1
3,26,1263,8226,1292,5939,-437,1
3,27,1323,8219,1358,6020,-478,1
3,28,1252,8154,1287,5996,-501,1
3,29,1117,8085,1148,5941,-523,1
3,30,966,8015,1164,5916,-481,1
3,31,1157,7983,1188,5879,-463,1
3,32,1214,8092,1245,5851,-368,1
3,33,1270,8295,1301,5839,-369,1
3,34,1364,8788,1401,5947,-283,1
3,39,2175,9765,2173,6067,-133,0
3,40,1357,9553,1364,5922,-150,1
3,41,1442,9415,1452,5799,-74,1
3,42,2604,9185,2596,5689,141,0
3,43,2167,8886,2152,5567,199,0
3,44,1136,8454,1132,5412,98,1
3,45,1508,8526,1487,5253,404,1
3,46,1095,8392,1069,5136,262,1
3,47,1375,8304,1353,5345,200,1
3,48,2105,8281,2048,5317,262,0
4,1,1829,8133,1736,5255,389,0
4,2,1636,8027,1579,5178,375,0
4,3,3008,7915,2913,5390,271,0
4,4,2134,7552,2061,5365,191,0
4,5,1690,7133,1622,5223,370,0
4,6,1999,6783,1902,5115,439,0
4,7,1794,6392,1464,4991,590,0
4,12,1634,6644,1530,4890,664,0
4,13,2866,7358,2730,5159,360,0
4,15,2269,8617,2268,5708,0,0
4,21,2295,9288,2309,6149,-337,0
4,22,2114,9207,2135,6071,-303,0
4,23,2095,9046,2127,6000,-266,0
4,24,1597,8959,1628,5949,-278,1
4,25,1847,8875,1882,5877,-263,1
4,26,1491,8745,1528,5836,-382,1
4,27,2324,8705,2389,5928,-368,0
4,28,2158,8725,2211,5898,-338,0
4,30,1431,8583,1466,5806,-355,1
4,31,1786,8618,1833,5777,-276,1
4,32,2528,8790,2582,5763,-102,0
4,43,1874,9040,1871,5606,28,1
4,44,1113,8617,1122,5459,-54,1
4,45,1433,8627,1431,5345,259,1
4,46,1230,8507,1213,5241,219,1
5,2,2096,8150,2013,5254,463,1
5,4,1725,7600,1670,5426,277,1
5,5,1461,7203,1405,5301,259,1
5,11,3065,6375,2813,4992,907,0
5,12,3587,6722,3292,5079,883,0
5,13,3644,7511,3418,5359,574,0
5,22,1836,8844,1863,6235,-622,1
5,25,1945,8411,1985,5944,-501,1
5,26,1059,8276,1089,5893,-594,1
5,27,1628,8194,1679,6021,-600,1
5,28,988,8128,1022,6006,-579,1
5,29,964,8050,1463,5895,-444,1
5,30,964,7962,1054,5884,-376,1
5,31,964,7895,1085,5771,-323,1
5,32,948,8009,973,5791,-379,1
5,33,964,8237,998,5785,-339,1
5,34,1192,8695,1229,5880,-323,1
5,44,1097,8621,1089,5499,-39,1
5,45,2957,8694,2447,5377,501,0
5,46,1756,8613,1540,5257,371,1
5,47,3027,8461,2936,5460,417,0
5,48,2810,8414,2683,5401,567,0
6,4,1750,7626,1650,5444,444,1
6,5,1262,7257,1186,5295,487,1
6,24,1676,8659,1693,6089,-331,1
6,26,1717,8426,1750,5958,-502,1
6,27,2004,8239,2050,6074,-532,1
6,28,1731,8187,1775,6088,-604,1
6,29,960,8048,990,6039,-532,1
6,30,1096,7958,1131,5982,-579,1
6,31,959,7882,992,5921,-483,1
6,22,2111,8163,2050,5664,49,1
6,24,2625,7963,2513,5549,269,1
6,27,2048,7596,2021,5477,77,1
6,29,2520,7433,2423,5422,114,1
6,30,2383,7337,2301,5370,143,1
6,33,2473,7440,2380,5255,299,1
6,35,2500,7786,2416,5297,251,1
6,36,2564,8323,2495,5390,338,1
6,44,2486,7535,2436,5021,156,1
1,22,2728,7045,1419,4361,800,0
1,23,2652,6908,1512,4408,750,0
1,24,2584,6723,1511,4353,800,0
1,25,2455,6626,1942,4408,772,0
1,26,2437,6456,1607,4344,800,0
1,27,2602,6305,1454,4377,700,0
1,28,2253,6163,1418,4371,800,0
1,32,2324,6033,1513,4435,900,0
1,34,2276,6237,2007,4546,860,0
2,34,2199,7575,2161,5371,-45,1
2,40,2234,8091,2234,5578,-225,1
3,19,2197,8099,2139,5685,247,1
3,21,2217,8009,2144,5622,190,1
3,39,2119,8184,2073,5618,52,1
4,5,2112,6539,1991,4938,511,0
4,6,2165,6172,2039,4763,598,0
4,36,2051,7974,1979,5668,180,1
5,6,2206,6058,2109,4855,464,0
5,12,2245,5959,2134,4632,411,0
5,41,2142,7485,2120,5506,-150,1
5,45,2315,7176,2238,4740,561,1
5,47,2476,7406,2380,5123,260,1
6,14,2294,7119,2227,5091,226,1
6,16,2413,7581,2367,5496,-112,1
6,17,2412,7552,2380,5632,-209,1
6,18,2443,7624,2407,5616,-133,1
6,39,2487,7743,2497,5431,-420,1
6,40,2240,7534,2270,5294,-452,1
6,41,2334,7392,2371,5236,-461,1
6,46,2470,7323,2446,4847,-27,1
7,1,2117,7223,2118,5017,-104,1
7,2,2127,7156,2115,4911,-129,1
7,3,2570,6935,2563,5072,-274,1
7,46,2275,6972,2247,4704,41,1
7,48,2338,6805,2328,5008,-173,1
1,21,2382,7111,2271,4510,480,1
1,44,2090,6843,2029,4669,222,0
2,4,2175,5955,2118,4884,186,0
2,5,2097,5787,2028,4762,307,0
2,6,2143,5578,2063,4635,403,0
2,43,2276,7633,2216,5270,151,1
3,6,2787,6242,2662,4892,462,1
3,29,2558,7430,2488,5590,112,1
3,30,2719,7437,2640,5551,162,1
3,31,2577,7416,2500,5505,171,1
3,32,2371,7457,2301,5464,151,1
3,33,2631,7532,2541,5464,249,1
3,34,2662,7647,2558,5513,233,1
3,35,2539,7773,2438,5611,384,1
3,40,2394,8058,2325,5787,139,1
3,41,2723,8032,2637,5692,239,1
3,45,2653,7532,2561,5164,569,1
3,48,2599,7642,2462,5412,522,1
4,1,2554,7534,2427,5353,527,1
4,2,2525,7429,2415,5228,442,1
4,4,2497,6872,2405,5321,307,1
7,2,2143,7319,2060,4995,483,1
1,24,2119,6596,1645,4569,819,0
1,25,1801,6526,1584,4492,854,0
1,26,1953,6426,1459,4453,855,0
1,27,1825,6292,1692,4583,782,0
1,28,1763,6171,1630,4522,764,0
1,29,1781,6032,1652,4548,824,0
1,30,1736,6005,1606,4522,830,0
1,31,1745,6039,1598,4557,911,0
1,32,1704,6052,1519,4595,911,0
1,33,1808,6051,1544,4575,811,0
1,34,2001,6153,1673,4688,813,0
1,35,1879,6233,1757,4835,546,0
1,36,2082,6687,1970,4911,484,0
1,42,1924,6874,1813,4885,521,0
1,45,1775,6633,1680,4608,602,0
1,48,1689,6533,1631,4905,299,0
2,3,1653,6056,1600,4894,126,0
3,14,2346,7372,2409,5257,83,1
4,6,2909,6251,2787,5017,417,1
4,13,2547,6870,2471,5076,180,1
4,14,2960,7611,2855,5359,64,1
4,15,2176,7609,2117,5510,-77,1
4,16,3016,7997,2910,5777,-254,1
4,17,3060,8094,2978,5942,-411,1
4,18,3060,8049,2984,5923,-331,1
4,19,3097,8263,3017,5912,-210,1
4,20,3074,8285,2993,5866,-210,1
4,21,3049,8144,2959,5848,-260,1
4,22,2985,7964,2883,5831,-229,1
4,23,3004,7844,2921,5783,-147,1
4,24,2974,7765,2872,5777,-163,1
4,25,2974,7704,2864,5741,-39,1
4,26,2913,7591,2823,5722,-36,1
4,27,2931,7546,2850,5806,-89,1
4,28,2912,7500,2840,5792,-40,1
4,29,2912,7470,2847,5780,-88,1
4,30,2885,7425,2827,5733,-86,1
4,31,2338,7344,2300,5676,-70,1
4,32,2641,7365,2591,5630,-23,1
4,33,2691,7427,2635,5666,37,1
4,34,2912,7541,2840,5732,-40,1
4,35,2912,7661,2866,5833,-170,1
4,43,2318,7777,2265,5405,73,1
4,45,2540,7777,2464,5167,344,1
4,46,2786,7778,2658,5082,381,1
5,4,2706,7025,2589,5264,409,1
5,5,2597,6717,2472,5076,536,1
5,13,2476,6965,2364,4990,370,1
5,25,2411,7577,2354,5523,76,1
5,26,2363,7506,2299,5505,66,1
5,27,2675,7462,2617,5538,-66,1
5,29,2543,7348,2503,5534,-74,1
5,30,2245,7313,2150,5568,-29,1
5,32,2231,7300,2184,5418,-77,1
5,37,2568,8192,2560,5596,-198,1
5,41,2348,7859,2409,5390,-49,1
5,45,2386,7626,2315,5019,269,1
6,17,2180,7894,2098,5542,185,1
6,22,2253,7830,2212,5492,120,1
6,32,2147,7311,2109,5224,119,1
6,37,2158,7885,2154,5427,-227,1
6,38,2217,7915,2210,5488,-304,1
7,15,2420,6140,1049,4254,409,0
7,16,3021,6580,1217,4399,409,0
7,30,2367,6467,1553,4497,646,0
7,33,2261,6363,1410,4450,511,0
1,16,2392,5755,1016,3926,544,0
1,19,2722,6749,1514,4239,625,0
1,20,2969,6897,1168,4228,625,0
1,21,2969,6930,1172,4258,575,0
1,22,2969,6845,1036,4252,625,0
1,23,2715,6743,1397,4269,625,0
1,24,2969,6693,1165,4228,564,0
1,26,2406,6620,1975,4235,894,0
2,1,2261,6415,2053,4841,280,0
2,46,2276,7388,2191,4903,304,1
3,4,2306,6656,2295,5081,298,1
7,16,1980,6704,1650,4260,908,0
7,23,1913,7063,1592,4391,787,0
7,30,1869,6301,1247,4086,787,0
7,37,1804,7322,1699,4454,413,0
1,1,1872,6455,1799,4534,374,0
1,18,1929,6492,1761,3967,1100,0
1,19,1916,6728,1427,4015,1160,0
1,20,1490,6838,1319,4049,1158,0
1,21,1519,6790,1340,4060,1099,0
1,22,1425,6684,1306,4059,1096,0
1,23,1334,6591,1217,4079,1154,0
1,24,1516,6493,1384,4078,1045,0
1,25,1666,6428,1522,4104,1018,0
1,36,1342,6213,1263,4217,619,0
1,37,1801,6773,1701,4413,627,0
1,38,1956,7050,1854,4700,561,0
1,39,1604,6922,1528,4717,539,0
1,40,1395,6813,1321,4617,662,0
1,41,1376,6693,1292,4555,694,0
1,42,1330,6580,1065,4425,668,0
1,47,1641,6467,1458,4544,788,0
1,48,1326,6345,1243,4507,596,0
2,1,2526,6276,1824,4410,608,0
2,2,1472,6156,1274,4324,608,0
2,3,1693,6014,1602,4516,577,0
2,4,1694,5769,1576,4489,623,0
2,5,1477,5575,1393,4329,773,0
2,6,1473,5421,1071,4276,800,0
2,7,1479,5271,931,4072,900,0
2,8,1330,5132,1004,3838,929,0
2,9,1527,5055,773,3769,950,0
2,10,2196,5172,725,3722,950,0
2,11,1513,5398,916,3767,950,0
2,13,1956,6289,1315,4105,900,0
3,13,2279,6387,2152,4159,731,0
3,14,2174,6613,1174,4407,487,0
4,35,2092,7910,2016,5186,350,1
5,39,2814,8255,2765,5426,211,1
5,40,2315,7994,2238,5263,228,1
5,45,2416,7145,2341,4536,380,1
5,47,2278,7270,2250,4873,77,1
6,18,2793,7801,2715,5200,146,1
6,32,2817,8133,2706,5063,493,1
6,34,2258,8075,2176,5116,360,1
6,35,2408,7938,2314,5218,330,1
6,36,2261,7904,2177,5255,262,1
6,37,2514,7993,2425,5302,281,1
6,38,2534,8035,2442,5386,169,1
6,47,2503,7260,2475,4849,174,1
7,40,1602,6940,1606,4800,245,0
7,41,1571,6791,1448,4694,281,0
7,45,1453,6492,1395,4362,346,0
7,48,1501,6345,1470,4738,77,0
1,37,1403,6510,1409,4702,92,0
1,38,1872,6743,1985,5043,-38,0
1,39,1475,6605,1465,5126,-170,0
1,40,1615,6474,1605,5068,-117,0
1,41,1373,6370,1438,4970,-132,0
1,42,1328,6275,1278,4866,-37,0
1,45,1216,6156,1137,4421,190,0
1,47,1427,6245,1431,4644,-26,0
1,48,1144,6072,1064,4601,-13,0
2,13,1131,5010,1156,4305,105,0
2,14,1397,5245,1419,4738,-139,0
2,15,1193,5378,1221,5004,-357,0
2,16,1472,5666,1516,5280,-477,0
2,17,1639,5989,1703,5398,-445,0
2,18,1414,6149,1434,5364,-443,0
2,19,1549,6522,1670,5369,-404,0
2,20,1442,6671,1466,5335,-381,0
2,21,1431,6661,1450,5284,-369,0
2,22,1439,6631,1453,5267,-422,0
2,23,1414,6590,1424,5224,-302,0
2,24,1433,6561,1438,5211,-335,0
2,25,1444,6530,1448,5165,-221,0
2,26,1464,6444,1463,5119,-229,0
2,27,1448,6382,1449,5139,-250,0
2,28,1440,6329,1450,5131,-278,0
2,29,1451,6272,1455,5091,-220,0
2,30,1407,6209,1409,5052,-300,0
2,31,1417,6190,1419,5038,-203,0
2,32,1430,6195,1428,5082,-249,0
2,33,1571,6198,1578,5200,-398,0
2,48,1539,6565,1501,4987,153,0
3,3,1648,6157,1628,4921,-145,0
3,13,1577,6139,1548,4568,262,0
3,14,2050,6589,2034,4985,-167,0
3,30,2116,7510,2093,5586,-82,1
3,36,1919,7706,5403,6293,-466,1
4,1,2081,7211,2053,5249,-82,1
4,16,2212,7241,2231,6230,-544,1
4,22,2044,7686,2034,6157,-415,1
5,4,2163,6711,2099,5275,136,1
5,13,2246,6680,2192,5075,143,1
5,16,2210,7412,2210,6142,-398,1
5,22,2333,7770,2335,6123,-475,1
5,25,2340,7566,2328,6023,-341,1
5,32,2196,7289,2152,5872,-271,1
5,43,2392,7411,2353,5946,-268,1
5,44,2330,7120,2302,5729,-285,1
5,45,2498,7438,2481,5494,48,1
6,2,2592,7237,2524,5149,223,1
6,4,2524,6664,2459,5219,248,1
6,14,2496,6953,2451,5270,151,1
6,33,2912,7473,2812,5606,311,1
6,43,2724,7232,2669,5689,98,1
6,45,2513,7367,2483,5443,43,1
6,46,2506,7512,2473,5306,131,1
6,47,2731,7573,2716,5626,-42,1
6,48,2613,7495,2569,5520,40,1
7,1,2581,7276,2509,5369,104,1
7,2,2551,7209,2452,5175,170,1
7,3,2708,6943,2617,5339,124,1
7,4,2514,6584,2417,5204,365,1
7,29,2566,6635,2402,4738,682,1
7,34,2488,6721,2328,4688,584,1
7,36,2213,7062,2110,4913,438,1
1,21,2546,6874,2241,4594,818,1
2,42,3495,7303,3323,5794,177,1
2,43,2995,7069,2840,5653,189,1
2,44,2890,6804,2772,5461,169,1
2,45,3112,7122,2981,5279,321,1
2,46,2920,7262,2797,5113,293,1
2,47,3261,7323,3128,5403,196,1
2,48,3302,7331,3149,5345,323,1
3,1,3066,7241,2918,5187,316,1
3,2,2998,7151,2848,5042,396,1
3,3,3086,6928,2938,5236,345,1
3,4,3044,6583,2883,5125,350,1
3,5,2733,6175,2575,4913,543,1
3,14,2492,7014,2346,5191,393,1
3,15,2540,6998,2394,5428,344,1
3,16,2920,7358,2736,5683,309,1
3,17,2985,7467,2784,5790,37,1
3,18,2979,7507,2802,5823,70,1
3,19,3009,7848,2834,5885,-74,1
3,22,3689,7768,3550,5890,9,1
3,23,3718,7743,3589,5934,-16,1
3,24,3593,7771,3473,5973,-80,1
3,31,3406,7499,3317,5857,-105,1
3,32,3240,7525,3137,5874,44,1
3,33,3426,7583,3343,5886,-71,1
3,34,3406,7584,3327,5945,-134,1
3,35,3246,7541,3226,6035,-198,1
3,36,3222,7610,3158,6124,-159,1
3,40,2996,7553,2944,5879,-96,1
3,41,2441,7366,2306,5735,-100,1
3,42,2228,7205,2171,5607,-36,1
3,46,2238,7181,2330,5051,113,1
3,47,2735,7274,2816,5386,-36,1
3,48,2800,7270,2797,5370,135,1
4,1,2758,7199,2719,5228,220,1
4,2,2512,7100,2419,5107,287,1
4,3,2807,6864,2799,5324,26,1
4,4,2684,6499,2590,5212,60,1
4,14,2448,7072,2363,5210,221,1
4,15,2456,7021,2372,5345,168,1
4,16,2693,7338,2601,5612,152,1
4,17,2399,7443,2313,5704,87,1
4,18,2299,7462,2237,5677,52,1
4,19,2288,7758,2229,5657,25,1
4,20,2300,7816,2233,5598,95,1
4,27,2115,7496,2035,5457,144,1
4,28,2320,7463,2230,5477,190,1
4,29,2324,7421,2233,5452,185,1
4,38,2067,7882,1991,5500,153,1
6,43,2087,6853,2079,4940,-31,1
1,27,1757,6932,1624,4349,876,0
1,28,1707,6922,1544,4329,921,0
1,29,1699,6930,1454,4292,919,0
1,30,1882,6904,1731,4280,995,0
1,40,1613,7492,1541,4842,356,0
1,41,1761,7350,1683,4796,430,0
1,47,1805,6721,1733,4816,239,0
2,1,1591,6391,1517,4706,360,0
2,13,1769,6321,1702,4502,416,0
2,14,1592,6951,1539,4846,148,0
3,14,2231,7119,2168,5192,-48,1
3,26,2054,7543,2006,5653,16,1
3,30,2114,7449,2072,5676,-96,1
3,33,2222,7389,2179,5697,-56,1
3,41,2093,7580,2040,5634,-53,1
3,48,2232,7282,2192,5365,111,1
5,13,1916,6591,1856,4808,320,0
6,4,1967,6487,1921,5120,99,0
6,15,1778,7010,1706,5179,146,0
7,34,1424,6486,1389,4634,104,0
7,37,1443,6845,1398,4691,307,0
7,38,1471,7163,1413,4715,364,0
7,39,1685,7112,1622,4901,215,0
7,40,1492,6900,1453,4867,82,0
7,41,1425,6800,1394,4770,58,0
7,46,1463,6587,1405,4505,303,0
7,47,1894,6575,1836,4911,35,0
7,48,1607,6424,1565,4908,146,0
1,1,1464,6182,1416,4756,147,0
1,2,1461,5926,1402,4621,312,0
1,3,1572,5785,1513,4828,210,0
1,4,1437,5539,1380,4691,266,0
1,5,1461,5313,1390,4491,375,0
1,6,1417,5147,1342,4339,546,0
1,17,1411,6361,1318,4129,733,0
1,18,1445,6550,1354,4211,734,0
1,19,1489,6684,1398,4277,654,0
1,20,1494,6683,1404,4333,699,0
1,21,1590,6696,1488,4390,717,0
1,22,1505,6688,1407,4418,687,0
1,23,1523,6665,1429,4434,655,0
1,24,1375,6537,1294,4406,587,0
1,25,1363,6502,1287,4403,544,0
1,27,1432,6355,1375,4375,353,0
1,28,1353,6295,1303,4353,320,0
1,32,1370,6276,1306,4345,482,0
1,33,1373,6192,1313,4375,389,0
1,37,1325,6692,1284,4453,358,0
1,38,1459,6952,1406,4517,415,0
1,39,1459,6958,1412,4703,289,0
1,40,1550,6933,1502,4700,315,0
1,41,1452,6730,1403,4614,255,0
1,43,1375,6532,1327,4393,423,0
1,47,1389,6208,1355,4632,19,0
1,48,1262,5968,1240,4648,-49,0
2,3,1433,5512,1403,4739,-41,0
2,6,1479,5171,1433,4281,283,0
2,10,1442,5595,1375,4223,674,0
2,11,2180,6073,2064,4497,773,0
3,27,2094,7537,2089,5835,-445,1
4,5,2286,5818,2217,4997,108,0
4,18,2140,8089,2107,5808,-223,1
5,1,2184,7117,2099,5105,331,1
5,10,2369,5884,2255,4674,356,0
5,48,2183,7340,2131,4993,209,1
6,1,2109,7125,2049,4911,239,1
6,46,1919,7480,1837,4508,340,0
7,13,1862,6015,1774,4504,463,0
7,23,2048,6987,1950,4719,492,0
7,25,1931,6791,1843,4628,447,0
7,36,2110,6971,2001,4639,667,0
7,39,2059,6948,1950,4830,494,0
7,40,1952,6857,1856,4852,444,0
1,16,1971,6422,1856,4174,681,0
1,36,1418,6675,1328,4389,731,0
1,37,1476,6863,1384,4414,730,0
1,38,2002,7192,1708,4509,730,0
1,41,1944,7015,1820,4743,639,0
1,42,1573,6787,1476,4635,561,0
1,43,1474,6789,1386,4535,661,0
1,44,1420,6719,1329,4389,701,0
1,45,1433,6762,1337,4339,844,0
1,46,1418,6624,1318,4289,685,0
1,47,1487,6518,1405,4664,402,0
1,48,1434,6325,1367,4688,434,0
2,1,1413,6180,1342,4612,477,0
2,3,1434,5781,1372,4813,250,0
2,4,1460,5567,1390,4742,379,0
2,5,1455,5389,1372,4565,526,0
2,9,1457,5431,1355,4238,699,0
5,24,1842,7707,1801,5416,-158,1
5,25,1836,7663,1801,5463,-222,1
5,26,1727,7532,1704,5459,-297,1
5,27,1788,7554,1767,5481,-242,1
5,34,1782,7555,1769,5431,-255,1
6,14,3351,7685,3313,5720,-93,0
6,17,3235,7999,3155,5501,54,0
6,26,1639,7590,1611,5589,-103,1
6,27,1699,7547,1666,5572,-87,1
2,13,3099,6954,3134,5357,-345,0
2,15,3164,7479,3216,5504,-282,0
2,20,3542,7955,3543,5486,-317,0
2,22,3725,7925,3732,5509,-339,0
2,36,1970,7523,1925,5178,-83,1
2,40,2029,7269,1988,5074,-165,1
3,13,2860,6988,2846,5454,-256,1
3,14,3209,7499,3212,5754,-326,0
3,15,1764,7537,1753,5548,-250,1
3,16,1829,7642,1818,5546,-319,1
3,17,2978,7933,2943,5552,-144,0
3,18,2869,8050,2817,5532,-144,1
3,19,2849,8024,2800,5545,-160,1
3,24,3090,7870,3051,5604,-283,0
3,25,3130,7855,3095,5651,-261,0
3,26,3090,7858,3053,5655,-247,0
3,27,3087,7820,3057,5688,-286,0
3,30,3229,7723,3191,5639,-289,0
3,31,2981,7743,2948,5653,-214,0
3,32,3118,7728,3078,5667,-278,0
3,35,1802,7397,1788,5389,-327,1
3,47,3213,7356,3200,4986,-65,0
4,15,2257,7607,2235,5548,-114,1
4,16,2336,7679,2306,5491,-203,1
4,19,3280,8069,3229,5569,-145,0
4,21,2993,7953,2970,5617,-227,0
4,24,3129,7841,3112,5644,-402,0
4,25,3478,7864,3520,5715,-362,0
4,27,3127,7789,3125,5762,-486,0
4,28,3706,7764,3712,5758,-491,0
4,29,3453,7719,3465,5744,-515,0
4,30,3068,7722,3076,5704,-482,0
4,31,3569,7737,3566,5741,-406,0
4,33,3026,7668,3016,5696,-298,0
4,36,1871,7378,1834,5279,-62,1
5,13,2344,7179,2352,5429,-340,1
5,14,3368,7526,3388,5768,-401,0
5,15,1668,7612,1676,5594,-328,1
5,16,1935,7637,1937,5601,-410,1
5,18,3181,8041,3128,5765,-218,0
5,23,2219,7795,2210,5858,-293,1
5,25,3365,7728,3341,5907,-351,0
5,26,3526,7730,3496,6017,-285,0
5,27,3383,7682,3357,6058,-388,0
5,28,3430,7679,3411,6065,-386,0
5,29,3542,7709,3519,6040,-331,0
5,30,2915,7727,3364,6076,-410,0
5,31,2975,7718,4546,6084,-410,0
5,33,3655,7639,3658,6099,-568,0
5,34,3611,7657,3622,6040,-543,0
5,36,1896,7384,1879,5611,-280,1
5,38,1809,7234,1799,5321,-371,1
5,39,1929,7377,1909,5277,-311,1
5,40,2167,7328,2147,5345,-431,1
6,14,3135,7466,3135,5826,-482,0
6,15,1884,7527,1890,5729,-453,1
6,21,2122,7882,2117,5734,-247,1
6,22,2368,7850,2350,5723,-219,1
6,23,2420,7794,2423,5677,-246,1
6,25,2438,7744,2335,5652,-167,1
6,27,3298,7680,3114,5634,-341,0
6,28,2260,7595,2184,5569,-335,1
6,29,1815,7532,1799,5487,-297,1
6,30,2146,7548,2123,5442,-293,1
6,31,2085,7561,2126,5448,-392,1
6,32,1956,7532,1942,5444,-312,1
2,14,3355,7397,3342,5677,-242,0
2,34,1820,7611,1800,5519,-250,1
3,15,2227,7461,2192,5536,-181,1
3,22,1978,7785,1879,5396,-176,1
3,25,1831,7773,1800,5592,-258,1
