@RELATION stream1

@ATTRIBUTE a1 numeric
@ATTRIBUTE a2 numeric
@ATTRIBUTE a3 numeric
@ATTRIBUTE a4 numeric
@ATTRIBUTE class {0,1}

@DATA
-0.41181,0.01292,-0.76816,0.54118,1
0.0087224,0.99797,0.26095,0.81933,0
-0.67395,0.27496,-0.98263,0.26244,1
-0.58412,0.76071,0.41427,0.44684,0
-0.87653,0.1726,0.1347,0.32412,1
-0.11074,0.38301,0.43834,0.55601,0
-0.41396,0.771,0.088792,0.40371,0
-0.016897,0.93962,0.3541,0.53774,0
-0.27562,-0.72525,-0.3861,0.21631,1
-0.67401,0.22348,-0.026184,0.83359,1
-0.05626,0.53544,0.64257,0.032101,0
-0.70508,-0.11254,-0.96335,0.91859,1
-0.098879,-0.14559,0.038883,0.40206,0
-0.94355,0.18479,0.78962,0.14598,0
-0.75482,-0.63437,-0.2425,0.99179,1
-0.91113,-0.45167,-0.61726,0.42232,1
-0.46239,0.75382,0.26328,0.6273,0
-0.61102,0.83981,0.82405,0.98973,0
0.29501,0.73397,0.73235,0.90294,0
-0.23653,0.46914,0.35282,0.70041,0
-0.039545,0.77456,0.78046,0.61436,0
0.38875,0.53731,0.3762,0.85296,0
-0.19989,0.77588,-0.039143,0.34286,0
-0.11055,0.070657,0.72265,0.39564,0
-0.15469,0.7323,0.26538,0.34942,0
-0.77226,-0.41669,-0.74311,0.55836,1
-0.41489,-0.98335,-0.57889,0.92221,1
0.39361,0.58672,0.46585,0.91486,0
-0.80851,-0.88855,-0.1322,0.39976,1
-0.58134,0.95035,0.97912,0.54385,0
-0.88198,-0.77574,-0.67393,0.63599,1
-0.22893,0.67636,0.52691,-0.029781,0
-0.16556,0.077943,0.54219,0.39735,0
-0.79559,0.72994,-0.14346,0.33473,0
-0.71128,0.59333,0.17746,0.83931,0
-0.40169,0.043771,-0.64019,0.23606,1
-0.8181,-0.70131,-0.59297,-0.15087,1
-0.046588,0.65664,0.11011,0.69753,0
-0.69533,0.64968,0.46926,0.12167,0
-0.98072,0.95344,0.95224,0.1466,0
-0.64323,-0.11052,0.12221,0.93811,1
0.044146,-0.38197,0.13069,0.45981,0
-0.87484,0.15765,-0.17157,0.11024,1
0.076052,0.8567,0.3934,0.57489,0
-0.99826,0.22031,0.70459,0.17227,0
0.057724,0.45625,0.31492,0.72745,0
-0.56736,0.96105,0.48111,0.46969,0
-0.73436,-0.86156,-0.78177,0.90497,1
-0.54261,0.17441,-0.55076,0.28804,1
-0.97364,0.58727,-0.024629,0.85069,0
-0.34771,0.36138,0.40433,0.67424,0
0.13243,0.78357,0.73584,0.25332,0
-0.56479,0.26894,-0.72145,0.43569,1
-0.54802,-0.20748,-0.41105,0.85103,1
-0.50082,0.70753,0.045167,0.68256,0
-0.84416,-0.92178,-0.56048,0.37233,1
-0.11017,0.13123,0.30282,0.81206,0
-0.78059,-0.78939,-0.86516,0.61721,1
0.37042,0.6395,0.52015,0.43582,0
0.33258,0.11361,0.98114,0.21642,0
-0.79452,-0.26786,-0.99088,0.89477,1
-0.26352,-0.13491,0.028199,0.24321,0
-0.83926,0.023624,0.067268,0.40197,1
0.10521,0.75842,0.42255,0.66073,0
-0.44018,0.19595,-0.51653,0.47731,1
-0.97038,0.83845,0.083599,0.025591,0
-0.49701,0.85963,0.92091,0.49672,0
-0.68121,-0.35535,-0.87844,0.66776,1
0.018158,0.68248,0.14472,0.21466,0
-0.81554,0.23164,0.18774,0.23667,1
-0.51671,-0.2998,-0.889,-0.28028,1
0.12627,0.16084,0.050572,0.59608,0
0.074538,0.49397,0.78976,0.49558,0
-0.89118,0.36233,-0.089695,0.46884,0
-0.46832,-0.89322,-0.20769,0.6125,1
-0.85416,0.58456,0.79157,0.056355,0
-0.85381,0.44415,0.087888,0.87841,0
-0.1279,-0.1282,0.13035,0.56702,0
-0.76989,0.45964,0.03726,0.71715,1
-0.45783,0.013185,-0.95074,0.1446,1
-0.10686,0.63405,0.18414,0.94825,0
-0.82516,-0.30574,-0.44862,0.5635,1
-0.040695,-0.11503,0.15721,0.35144,0
-0.28079,0.33315,0.40733,0.087746,0
-0.16754,0.94838,-0.060432,0.42011,0
-0.51103,-0.98327,-0.97645,0.22096,1
-0.96136,-0.10134,-3.7203e-05,0.98119,1
0.19424,-0.26938,0.61365,0.41692,0
-0.34455,0.027118,-0.0084111,0.28267,1
0.43683,0.50328,0.4147,0.50738,0
-0.64055,0.95691,0.71338,-0.030247,0
-0.69061,0.67729,0.13961,0.88639,0
-0.61473,-0.19825,-0.0054894,0.85557,1
-0.97249,-0.019392,0.26951,0.75192,1
0.29799,-0.0076713,0.49645,0.64944,0
-0.89266,-0.10002,-0.41242,0.56747,1
-0.37264,-0.053843,-0.27555,0.61499,1
-0.28789,0.49769,0.036927,0.99744,0
-0.93517,-0.89727,-0.55322,0.49673,1
0.34027,0.9084,0.41699,0.82601,0
-0.085132,0.86561,0.26774,0.62141,0
0.041914,0.19108,0.24713,0.031157,0
-0.94266,-0.76086,0.16931,0.68711,1
-0.23025,-0.2369,0.93231,0.71522,0
-0.48155,-0.3429,0.092876,0.34486,1
-0.79085,-0.0024908,0.13964,0.42921,1
-0.22102,-0.11211,0.75065,0.61862,0
-0.18203,-0.2026,0.53757,0.17448,0
0.41953,0.90494,0.85304,0.92164,0
-0.48271,-0.80631,-0.76983,-0.023556,1
-0.94445,-0.48764,-0.010038,0.4176,1
-0.42754,-0.29723,-0.83691,-0.29636,1
-0.83801,0.91375,0.099555,0.53772,0
-0.47622,-0.13314,-0.51043,0.091906,1
-0.87001,0.99436,-0.17405,0.93228,0
-0.49533,0.56265,0.37302,0.61844,0
-0.73679,-0.24537,-0.90884,-0.14081,1
-0.30428,-0.87165,-0.086624,0.10288,1
0.4135,0.61661,0.60676,0.57394,0
-0.4587,0.322,-0.78246,0.46667,1
-0.3668,-0.68345,-0.74111,0.84724,1
-0.96415,0.95055,0.91858,0.35653,0
-0.8568,0.21417,-0.17674,0.72649,1
-0.65298,-0.35133,-0.15263,0.4378,1
-0.025374,0.79045,0.41298,0.31464,0
-0.14241,-0.26786,0.64788,0.60183,0
-0.0014941,0.19561,0.58092,0.43754,0
-0.0036727,-0.43816,0.83827,0.7709,0
0.24016,0.42736,0.90416,0.28465,0
-0.56975,0.23402,-0.16524,0.61079,1
-0.25636,0.74445,0.31533,0.93443,0
0.71974,0.7746,0.67965,0.96115,0
-0.88443,-0.45461,-0.18591,-0.016681,1
-0.63508,-0.13961,-0.57585,0.32466,1
-0.99899,-0.88694,-0.91929,-0.39638,1
0.32106,0.56429,0.39269,0.63966,0
0.71305,0.94725,0.87463,0.86201,0
-0.15159,-0.72142,-0.17597,0.21072,1
-0.21192,-0.82508,-0.60396,-0.17945,1
0.052376,-0.30621,0.64615,0.98472,0
-0.39397,-0.043115,-0.56616,-0.037345,1
-0.42042,-0.064647,-0.73475,0.81553,1
0.15825,0.12144,0.38342,0.75644,0
-0.2501,0.58098,0.63231,0.81309,0
-0.60237,0.70023,-0.084972,0.43233,0
-0.78922,-0.1918,-0.34369,0.079965,1
0.011507,0.70053,0.2429,0.8809,0
-0.42015,-0.91247,-0.51126,0.93288,1
-0.70096,-0.3411,-0.74545,0.40052,1
-0.24968,0.080336,0.36247,0.33777,0
-0.19118,0.95021,0.60273,0.7029,0
-0.87804,0.93085,0.70849,0.27005,0
-0.33076,0.31324,0.25189,0.48813,0
-0.55288,0.36207,-0.62084,0.96272,1
-0.78313,-0.37499,-0.89511,0.23444,1
-0.37093,0.94996,-0.011897,0.032708,0
-0.90507,-0.18977,0.091739,0.39141,1
0.31713,0.69684,0.42651,0.71222,0
-0.1515,0.99853,0.061332,0.14545,0
-0.085127,0.5513,0.23877,0.15773,0
0.35473,0.31557,0.51951,0.67417,0
0.25223,0.14598,0.42743,0.29852,0
-0.55227,0.52619,0.52275,0.18041,0
-0.94675,-0.35673,-0.54892,0.72567,1
-0.37099,0.77432,0.89346,-0.026517,0
-0.14524,0.61329,0.94476,0.6894,0
-0.65675,0.40298,-0.49771,0.12741,1
0.042554,0.18459,0.94841,0.77784,0
0.059606,0.55163,0.5177,0.29236,0
-0.40625,-0.36143,-0.96071,0.9652,1
-0.52422,-0.91199,-0.91935,0.59255,1
-0.71073,0.48565,-0.075986,0.80791,1
-0.50287,-0.25407,-0.56376,0.96485,1
-0.75117,-0.87326,-0.23664,0.68854,1
-0.66379,-0.46748,-0.39561,0.19022,1
-0.80668,-0.2894,-0.56132,0.063112,1
-0.29332,-0.87545,-0.84421,0.13573,1
-0.88187,0.20082,-0.92055,-0.47587,1
-0.61013,-0.6218,0.011816,0.63987,1
-0.6331,0.15092,-0.10851,0.64876,1
-0.37095,0.0087365,-0.85339,0.36956,1
-0.79999,-0.52572,-0.88899,0.064015,1
-0.84976,-0.91913,0.039484,0.53836,1
-0.68984,0.065738,-0.41483,-0.14237,1
-0.82496,0.019334,-0.78473,-0.24744,1
-0.94759,-0.024874,-0.88408,-0.19249,1
-0.46003,-0.12367,-0.093686,0.92417,1
-0.41403,-0.25052,-0.57428,-0.090757,1
-0.75255,0.46267,-0.27647,0.52801,1
-0.9145,0.18253,-0.73292,0.15101,1
-0.98923,0.0040314,0.28632,0.72459,1
-0.9738,-0.29279,-0.40206,0.62885,1
-0.5994,-0.2324,-0.37523,0.5853,1
-0.51064,-0.0092661,-0.30949,0.69605,1
-0.56937,-0.92919,-0.84329,0.60337,1
-0.64945,-0.942,0.062035,0.91432,1
-0.59762,-0.12229,0.17664,0.20861,1
-0.10005,-0.67853,-0.58282,0.56076,1
-0.65291,-0.15762,-0.36003,-0.098707,1
-0.27214,-0.61488,-0.4585,0.60925,1
0.10426,0.83067,0.22001,-0.73221,0
0.55397,0.51096,0.29966,-0.67198,0
0.66824,0.99599,-0.94032,-0.62504,0
-0.039041,0.54273,-0.36967,0.88366,1
0.76821,0.84049,0.14904,-0.28687,0
0.29501,0.73397,0.73235,0.90294,1
-0.24603,0.67347,-0.1632,0.98412,1
-0.23653,0.46914,0.35282,0.70041,1
-0.039545,0.77456,0.78046,0.61436,1
0.74463,0.58871,-0.50053,-0.52035,0
0.38875,0.53731,0.3762,0.85296,1
0.65524,-0.7419,0.32807,-0.31298,0
0.25985,0.071442,0.36153,-0.70681,0
0.25284,0.84315,-0.83831,0.99292,1
-0.19989,0.77588,-0.039143,0.34286,1
0.93554,0.88988,-0.54665,0.79195,1
0.7663,-0.48234,-0.8796,-0.91996,0
-0.15469,0.7323,0.26538,0.34942,1
0.89144,-0.80946,0.81937,-0.74612,0
0.28652,-0.30072,0.50259,-0.1971,0
0.52045,0.65819,-0.11342,0.55493,1
0.76311,0.92859,0.70564,-0.74964,0
0.43293,-0.55521,-0.014859,-0.28302,0
0.39361,0.58672,0.46585,0.91486,1
0.55754,-0.35835,0.049148,-0.9359,0
0.72563,-0.92352,-0.34673,-0.58504,0
0.81241,0.34385,0.27789,-0.23824,0
0.37157,-0.49326,-0.58667,-0.78301,0
0.74064,-0.80128,0.84118,-0.1206,0
0.37233,-0.072518,-0.74456,-0.23008,0
0.71566,0.25718,0.85379,0.22267,1
0.85731,0.78111,0.19717,-0.62184,0
0.57798,0.61141,-0.25031,0.62137,1
0.30533,0.83456,-0.017418,-0.63795,0
0.54598,-0.41194,0.69491,-0.95025,0
0.37421,-0.30401,-0.47722,-0.10244,0
0.87919,0.40709,-0.095309,0.2219,1
0.35846,-0.32755,-0.332,-0.41139,0
0.30335,0.92012,0.44149,0.24586,1
0.96028,0.79129,0.19443,-0.39757,0
0.73275,-0.14814,-0.45355,-0.86882,0
-0.046588,0.65664,0.11011,0.69753,1
0.89145,-0.079599,0.42661,-0.69817,0
0.90539,0.096335,-0.27986,-0.73736,0
-0.31557,0.58014,-0.129,0.77051,1
0.67572,-0.031117,0.3338,-0.11933,0
0.51631,0.71458,-0.43412,0.39605,1
0.95291,-0.28008,0.70713,-0.14392,0
0.076052,0.8567,0.3934,0.57489,1
0.56391,0.47672,-0.38071,-0.80687,0
0.057724,0.45625,0.31492,0.72745,1
0.38516,-0.42839,-0.88176,-0.99892,0
0.83025,-0.83074,0.44319,-0.968,0
0.46591,-0.87079,0.91258,-0.89311,0
0.60814,0.7575,0.92347,0.50513,1
0.35352,-0.023169,-0.11951,-0.23412,0
0.65867,-0.18774,0.52142,-0.32673,0
0.71683,-0.18971,-0.097873,-0.75917,0
0.04684,0.79915,-0.27205,0.94316,1
0.80146,0.22955,-0.084301,-0.21876,0
0.52925,0.54394,-0.46476,0.0067509,0
-0.34771,0.36138,0.40433,0.67424,1
0.27613,-0.61248,-0.34246,-0.18445,0
0.13243,0.78357,0.73584,0.25332,1
0.81056,0.70983,0.29526,0.11296,1
0.30797,-0.14863,0.79363,-0.89675,0
0.37042,0.6395,0.52015,0.43582,1
0.33258,0.11361,0.98114,0.21642,1
0.93817,0.49299,-0.42482,0.58338,1
0.5412,-0.038887,0.68083,-0.26356,0
0.22404,-0.02717,0.37729,-0.0051947,0
-0.22142,0.84737,-0.46143,0.95237,1
0.10521,0.75842,0.42255,0.66073,1
0.5161,-0.98883,-0.45737,-0.56549,0
0.79445,-0.27368,0.704,-0.95707,0
0.8741,-0.96563,-0.78262,0.052083,0
0.43698,0.8444,-0.15847,0.64938,1
0.018158,0.68248,0.14472,0.21466,1
0.93939,-0.34942,-0.42403,-0.25543,0
0.6944,0.85701,0.085206,0.16578,1
0.54456,0.29317,0.75282,-0.36702,0
0.37595,-0.56446,-0.70232,-0.15324,0
0.089566,0.87049,-0.43333,0.72704,1
0.046043,0.76437,-0.61974,0.96116,1
0.074538,0.49397,0.78976,0.49558,1
0.29202,0.75348,-0.15089,0.13909,1
0.50732,0.83683,0.18759,0.55937,1
-0.10686,0.63405,0.18414,0.94825,1
0.67471,0.77216,-0.85022,-0.92151,0
0.27294,-0.34851,-0.34725,-0.46098,0
0.68054,-0.67639,-0.82877,-0.15915,0
0.80316,0.60502,-0.88245,0.79241,1
0.44154,-0.9386,-0.1182,-0.085121,0
-0.16754,0.94838,-0.060432,0.42011,1
0.72372,0.92318,-0.040082,0.96013,1
0.43683,0.50328,0.4147,0.50738,1
0.44882,0.2962,0.55347,-0.90352,0
0.62864,-0.45636,-0.95552,-0.51242,0
0.79333,0.894,-0.42717,0.87235,1
0.68316,0.99282,-0.28909,0.87771,1
0.45053,-0.90247,0.66289,-0.67389,0
0.9668,0.22423,-0.24219,0.90564,1
0.2298,-0.66555,0.0099214,-0.50735,0
0.087855,0.60513,0.014617,0.019491,1
0.91277,-0.28013,-0.26119,-0.56937,0
-0.28789,0.49769,0.036927,0.99744,1
0.15694,0.60505,-0.26395,0.93679,1
0.40558,0.27162,0.28349,0.15651,1
0.54073,0.66984,0.88703,0.4438,1
0.34027,0.9084,0.41699,0.82601,1
-0.085132,0.86561,0.26774,0.62141,1
0.8137,-0.99019,0.34191,-0.096056,0
0.71785,0.22379,-0.72972,-0.88957,0
-0.0028668,0.89721,-0.068936,0.71373,1
0.18928,-0.85267,-0.019271,-0.81532,0
0.31446,-0.77751,-0.50005,-0.7523,0
0.28928,0.39971,-0.20266,0.24042,1
0.22541,-0.71429,-0.34836,-0.46059,0
0.47256,-0.4057,0.96709,-0.43683,0
0.41953,0.90494,0.85304,0.92164,1
-0.079072,0.93577,-0.18098,0.60203,1
0.74212,-0.028807,0.61516,-0.60695,0
0.078276,0.93007,-0.17392,0.55719,1
0.66619,0.97178,0.76448,0.07518,1
0.70593,-0.89871,0.81451,-0.61286,0
0.42448,0.57117,-0.31467,0.66998,1
0.54025,-0.99843,0.095781,-0.52692,0
0.69898,-0.25691,-0.70186,-0.1143,0
-0.21445,0.67622,-0.072653,0.46607,1
0.4135,0.61661,0.60676,0.57394,1
0.46087,0.7628,0.049749,0.24679,1
0.90121,0.53959,0.93112,0.30762,1
0.68074,-0.59443,-0.65982,-0.4156,0
0.072337,0.79853,-0.33423,0.90859,1
0.54898,0.67742,-0.18103,0.71155,1
0.4023,0.49664,-0.5778,0.95223,1
0.4815,-0.057266,0.56075,-0.7728,0
0.90461,0.97194,0.06687,0.24162,1
0.3801,-0.78721,0.25008,-0.91034,0
0.65802,-0.94952,-0.41736,-0.95323,0
-0.025374,0.79045,0.41298,0.31464,1
0.59701,-0.55179,-0.034606,-0.43484,0
0.053031,-0.60643,0.10517,-0.086988,0
0.48751,-0.45257,-0.71497,-0.23118,0
0.84938,0.64826,-0.49922,0.74489,1
-0.0014941,0.19561,0.58092,0.43754,1
0.54278,0.84922,0.58611,0.54712,1
0.79697,-0.91542,0.27852,-0.9403,0
0.24016,0.42736,0.90416,0.28465,1
0.74721,0.62439,0.87379,0.62865,1
0.90905,-0.15253,0.30834,-0.095189,0
-0.25636,0.74445,0.31533,0.93443,1
0.71974,0.7746,0.67965,0.96115,1
0.592,0.22678,0.12972,-0.50669,0
0.93743,0.31048,0.046609,0.25551,1
0.83316,-0.76754,0.48083,-0.33515,0
-0.49781,0.94556,-0.28577,0.95714,1
0.96464,0.20024,-0.22175,0.64455,1
0.32106,0.56429,0.39269,0.63966,1
0.77108,-0.42817,-0.14337,-0.14271,0
0.71305,0.94725,0.87463,0.86201,1
0.37696,-0.55178,-0.1616,-0.49464,0
0.67441,0.34916,0.38307,-0.5759,0
0.99501,-0.068832,-0.79633,0.030677,0
0.55557,0.88248,0.15524,-0.056512,1
0.25225,-0.4833,-0.64731,0.015245,0
-0.0033102,0.5321,-0.4038,0.92762,1
0.94479,-0.3242,0.08736,-0.017576,0
0.15825,0.12144,0.38342,0.75644,1
-0.2501,0.58098,0.63231,0.81309,1
0.91886,-0.82269,0.84602,-0.614,0
0.95831,-0.20458,-0.042609,-0.96282,0
0.58561,0.50756,-0.85217,-0.64535,0
0.011507,0.70053,0.2429,0.8809,1
0.78656,0.68984,-0.35307,0.43659,1
0.57732,-0.27327,-0.88837,-0.25874,0
0.068582,0.25243,-0.17901,0.70671,1
-0.19118,0.95021,0.60273,0.7029,1
0.84776,-0.55389,0.4363,-0.011257,0
0.13804,0.31042,-0.18194,0.82727,1
0.9568,0.088319,0.50495,-0.56525,0
0.47091,0.28888,-0.20593,-0.099367,0
0.30553,-0.16753,-0.90321,-0.83424,0
0.76848,-0.21726,0.060542,-0.88187,0
0.31713,0.69684,0.42651,0.71222,1
0.63054,0.26939,-0.33131,-0.77703,0
0.79581,0.44918,-0.13175,-0.24041,0
-0.085127,0.5513,0.23877,0.15773,1
0.31845,0.46891,-0.51084,0.62657,1
0.5456,-0.99874,-0.48417,-0.50002,0
0.35473,0.31557,0.51951,0.67417,1
0.58534,-0.96876,-0.94636,-0.43345,0
0.41425,-0.3535,-0.3811,-0.677,0
0.25223,0.14598,0.42743,0.29852,1
0.5561,0.58748,-0.59415,0.71051,1
-0.023347,0.42343,-0.16715,0.78199,1
0.79987,-0.016532,-0.93789,-0.1286,0
0.13058,-0.96973,-0.086193,-0.96528,0
-0.14524,0.61329,0.94476,0.6894,1
0.40822,0.89957,-0.072761,-0.048253,1
0.47998,-0.062136,0.44709,-0.74145,0
-0.87643,-0.81586,-0.14702,-0.57952,1
-0.86864,-0.31099,0.51878,-0.59266,1
-0.17683,0.38746,-0.96827,-0.070314,1
0.20816,0.58257,-0.070201,-0.88467,0
0.010084,-0.60508,-0.38406,-0.16486,1
0.41698,0.75209,0.87787,-0.28396,0
-0.34087,0.029139,0.67052,-0.97932,1
-0.91113,-0.45167,-0.61726,0.42232,1
-0.49315,-0.38158,0.69179,-0.89668,1
-0.94409,0.98104,-0.99571,-0.91032,1
-0.24132,0.63563,-0.28228,-0.52398,1
0.8025,0.37332,0.06564,-0.3138,0
-0.50694,-0.46005,-0.30835,-0.70146,1
-0.33426,0.7391,-0.8416,0.0016446,1
0.90367,0.66766,0.21304,-0.21807,0
-0.97222,0.28471,0.61037,-0.72845,0
-0.60028,-0.41342,-0.0056346,-0.052203,1
-0.67958,0.17282,0.3615,-0.63202,0
-0.28339,-0.80178,-0.8673,-0.9726,1
-0.7342,0.89265,0.29178,-0.45677,0
-0.22881,0.97958,0.43506,-0.45925,0
-0.44853,0.16504,-0.086058,-0.85948,1
-0.93396,0.99748,-0.12693,-0.77271,1
-0.72859,0.70993,0.32783,-0.70048,0
-0.32377,0.055448,-0.71385,-0.83124,1
-0.70699,0.57648,0.70822,-0.71287,1
-0.75497,0.83301,0.70699,-0.8661,0
-0.43202,0.62157,0.33479,-0.42315,0
0.35241,0.42476,0.1014,-0.97501,0
0.0015964,0.95587,0.3898,-0.8112,0
-0.43556,-0.10142,0.83813,-0.68552,1
0.29089,0.57899,0.70837,-0.26462,0
0.383,-0.21993,-0.038314,-0.84845,0
0.60837,0.86842,-0.27518,-0.44799,0
-0.68586,0.88397,0.30097,-0.89218,0
-0.58328,0.21391,0.41535,-0.5621,1
-0.21472,0.48101,0.6187,-0.4658,0
-0.24547,-0.34468,0.4231,-0.60099,1
-0.4963,-0.2857,0.1028,-0.45464,1
0.20204,0.090698,0.22902,-0.86362,0
-0.85449,0.16115,-0.60157,-0.74083,1
-0.19427,0.36838,0.77069,-0.8955,0
-0.11792,-0.80057,0.24476,-0.49221,1
-0.89658,0.338,-0.33997,-0.15425,1
-0.79279,-0.20973,-0.84697,-0.73625,1
0.059413,-0.39049,0.1868,-0.79512,0
0.45267,0.81561,0.57054,-0.86792,0
0.59814,0.98101,0.49393,-0.65419,0
-0.65953,-0.14692,-0.54829,-0.72386,1
-0.40169,0.043771,-0.64019,0.23606,1
-0.8181,-0.70131,-0.59297,-0.15087,1
-0.29798,-0.095057,0.35312,-0.85117,1
-0.52849,-0.54076,0.73181,-0.64738,1
0.9832,-0.4776,0.43942,-0.8269,0
-0.77859,0.36368,0.12605,-0.40659,1
0.83909,0.57719,0.17589,-0.58323,0
-0.46129,-0.30631,-0.19822,-0.92655,1
-0.87484,0.15765,-0.17157,0.11024,1
0.76791,0.57959,0.96294,0.06978,0
-0.47981,-0.016195,-0.22457,-0.20585,1
-0.99239,-0.22457,-0.37774,-0.47329,1
-0.7468,0.48946,0.17802,-0.29435,1
-0.26352,0.90972,0.38293,-0.32279,0
-0.54261,0.17441,-0.55076,0.28804,1
-0.068468,-0.055777,0.6218,-0.77828,0
0.79671,0.60791,0.094837,-0.61899,0
-0.86098,-0.54159,-0.24404,-0.16685,1
-0.27288,0.2163,0.31283,-0.66941,0
-0.84416,-0.92178,-0.56048,0.37233,1
0.81056,0.70983,0.29526,0.11296,0
-0.82752,0.45831,-0.89515,-0.87404,1
0.36181,0.5353,0.3468,-0.45348,0
-0.47016,0.45256,0.92094,-0.70148,0
-0.9238,-0.13097,-0.97645,-0.60185,1
-0.14458,-0.23863,-0.53493,-0.64989,1
-0.84601,-0.95895,0.088817,-0.65038,1
0.43318,0.87053,0.029533,-0.65042,0
-0.88909,-0.95584,0.67335,-0.66856,1
-0.61809,-0.076243,0.09861,-0.21181,1
-0.52815,-0.75218,-0.66385,-0.52149,1
0.37103,0.50802,-0.0037309,-0.51078,0
0.36429,0.78926,0.39492,-0.1496,0
-0.34536,0.61836,0.39051,-0.55417,0
0.23398,0.14907,-0.16674,-0.76143,0
-0.51671,-0.2998,-0.889,-0.28028,1
-0.041355,0.093579,0.79208,-0.21562,0
-0.63296,0.0056276,-0.13274,-0.767,1
-0.58303,-0.30818,0.44007,-0.98809,1
0.57973,0.66478,0.77967,-0.49051,0
-0.50086,-0.43787,0.17833,-0.24708,1
0.29302,0.58632,0.21577,-0.72227,0
-0.99736,0.18553,0.5056,-0.76098,0
0.16221,0.27603,0.06594,-0.93144,0
0.26802,-0.080836,-0.066695,-0.48007,0
-0.45783,0.013185,-0.95074,0.1446,1
-0.013107,-0.026573,0.067001,-0.9417,0
-0.53839,-0.7165,-0.064023,-0.43602,1
-0.19345,-0.68037,-0.23333,-0.40346,1
-0.16629,0.70822,0.67942,-0.5176,0
-0.91734,-0.39917,-0.50273,-0.71054,1
0.17425,0.63478,0.67647,-0.75786,0
0.26927,0.20735,0.3561,-0.10136,0
-0.85415,-0.42984,0.62678,-0.47329,1
0.040635,-0.45258,0.44685,-0.68754,0
-0.59398,-0.60827,0.65828,-0.61042,1
0.89793,0.57783,0.55792,-0.29127,0
-0.51103,-0.98327,-0.97645,0.22096,1
0.1837,0.32915,0.41087,-0.47152,0
-0.37283,0.68702,0.49004,-0.99223,0
-0.22514,-0.76983,0.0070406,-0.12631,1
-0.62086,0.04848,0.21285,-0.83502,1
0.99749,0.95802,0.75284,-0.94962,0
-0.10377,0.77652,0.28913,-0.87948,0
-0.99145,-0.74471,0.97019,-0.80758,1
-0.21819,-0.14991,0.60503,-0.80029,0
-0.9413,-0.50418,-0.60898,-0.50144,1
0.30294,0.99394,0.18597,-0.92145,0
-0.54761,0.34095,-0.20368,-0.52526,1
-0.95035,-0.042298,-0.98392,-0.7016,1
0.3538,0.4771,0.60668,-0.013914,0
-0.57416,-0.68264,-0.33808,-0.1764,1
0.074055,0.70309,0.38438,-0.98274,0
-0.16798,0.078151,0.18764,-0.93871,0
-0.37564,-0.18976,0.60191,-0.95735,1
-0.38584,-0.45044,-0.85972,-0.52282,1
-0.94708,-0.68616,-0.092433,-0.21898,1
-0.86196,-0.98193,-0.70735,-0.92109,1
-0.48271,-0.80631,-0.76983,-0.023556,1
-0.28003,0.33105,0.38894,-0.75544,0
-0.58623,-0.49357,-0.53782,-0.4707,1
-0.42754,-0.29723,-0.83691,-0.29636,1
0.79023,0.60013,0.60036,-0.47092,0
-0.49339,-0.19123,-0.99306,-0.78252,1
0.66619,0.97178,0.76448,0.07518,0
-0.041013,-0.79763,-0.54533,-0.35139,1
-0.47622,-0.13314,-0.51043,0.091906,1
-0.73679,-0.24537,-0.90884,-0.14081,1
-0.30853,-0.72561,0.39537,-0.85921,1
-0.30428,-0.87165,-0.086624,0.10288,1
0.78234,0.8846,0.60121,-0.65707,0
0.79416,0.51495,-0.17426,-0.87395,0
-0.59043,-0.21277,-0.10799,-0.97843,1
0.55814,0.75205,0.20775,-0.050796,0
0.38293,0.75546,0.18307,-0.6844,0
-0.25722,-0.5073,0.51213,-0.70939,1
0.12302,0.01932,0.20644,-0.85114,0
0.98506,0.51441,0.98623,-0.97939,0
-0.68184,-0.80194,0.51304,-0.62834,1
-0.16201,0.13411,0.83157,-0.10301,0
-0.070689,0.64931,0.47608,-0.12322,0
0.40119,0.46504,-0.16022,-0.50481,0
-0.93252,-0.28865,0.28663,-0.58272,1
-0.88443,-0.45461,-0.18591,-0.016681,1
0.43544,0.76772,0.043069,-0.34662,0
-0.55397,-0.69019,-0.18125,-0.58714,1
-0.97095,0.25809,0.5182,-0.89224,0
-0.63508,-0.13961,-0.57585,0.32466,1
-0.50461,-0.65218,0.094034,-0.9931,1
-0.99899,-0.88694,-0.91929,-0.39638,1
-0.090959,-0.84924,0.15786,-0.2604,1
0.4215,0.75827,0.172,-0.31154,0
0.0028037,-0.64035,0.081323,-0.15506,1
0.21786,0.66199,0.80098,-0.09682,0
-0.21192,-0.82508,-0.60396,-0.17945,1
-0.31337,-0.95555,-0.85575,-0.52127,1
0.85205,0.51832,0.86366,-0.12465,0
-0.39397,-0.043115,-0.56616,-0.037345,1
0.55557,0.88248,0.15524,-0.056512,0
0.76158,0.72972,0.94353,-0.36821,0
-0.26177,0.035184,0.085782,-0.43872,0
0.02852,0.88292,0.33326,-0.19901,0
-0.98479,-0.068185,0.084996,-0.052569,1
0.8153,0.92979,0.38086,-0.97637,0
-0.57371,0.053955,0.40754,-0.68226,1
-0.17062,-0.60989,0.51078,-0.55462,1
-0.51446,-0.98224,0.91555,-0.72922,1
-0.18937,-0.65098,0.31002,-0.26354,1
0.90949,0.4689,0.332,-0.54274,0
-0.57299,-0.53203,0.73523,-0.70549,1
0.0182,0.68394,0.94321,-0.32415,0
-0.78922,-0.1918,-0.34369,0.079965,1
0.28671,-0.065532,0.22391,-0.9412,0
-0.70096,-0.3411,-0.74545,0.40052,1
-0.1107,0.44451,0.091398,-0.23151,0
0.13068,0.32521,-0.049093,-0.51736,0
-0.14233,0.83423,0.26762,-0.56256,0
-0.45495,-0.69294,-0.48442,-0.3019,1
0.31705,0.48624,0.19788,-0.10806,0
0.20188,-0.22954,0.31273,-0.39356,0
0.81149,0.68539,-0.02492,-0.85297,0
-0.069073,-0.49571,0.64453,-0.63078,0
0.24126,0.40706,0.078055,-0.47434,0
0.35791,0.79033,0.069342,-0.93419,0
0.93809,0.86356,0.067078,-0.29215,0
0.19277,0.81815,0.904,-0.02302,0
0.048325,0.52531,0.28786,-0.05342,0
-0.61237,0.63484,0.50845,-0.87419,0
-0.90027,0.35917,0.97634,-0.80606,0
0.67014,0.98712,0.21525,-0.54427,0
